0 D 1
1 DR 0
0 C 2
2 CR 0
0 D 3
3 DR 0
0 C 4
4 CR 0
0 D 5
5 DR 0
0 C 6
6 CR 0
0 B 7
7 BR 0
0 C 8
8 CR 0
0 C 9
9 CR 0
1 D 0
0 DR 1
1 A 2
2 AR 1
1 B 3
3 BR 1
1 D 4
4 DR 1
1 D 5
5 DR 1
1 D 6
6 DR 1
1 D 7
7 DR 1
1 D 8
8 DR 1
1 B 9
9 BR 1
2 A 0
0 AR 2
2 D 1
1 DR 2
2 C 3
3 CR 2
2 B 4
4 BR 2
2 A 5
5 AR 2
2 C 6
6 CR 2
2 A 7
7 AR 2
2 D 8
8 DR 2
2 B 9
9 BR 2
3 B 0
0 BR 3
3 C 1
1 CR 3
3 A 2
2 AR 3
3 C 4
4 CR 3
3 B 5
5 BR 3
3 B 6
6 BR 3
3 B 7
7 BR 3
3 B 8
8 BR 3
3 A 9
9 AR 3
4 A 0
0 AR 4
4 B 1
1 BR 4
4 D 2
2 DR 4
4 D 3
3 DR 4
4 D 5
5 DR 4
4 A 6
6 AR 4
4 B 7
7 BR 4
4 C 8
8 CR 4
4 A 9
9 AR 4
5 D 0
0 DR 5
5 A 1
1 AR 5
5 C 2
2 CR 5
5 A 3
3 AR 5
5 D 4
4 DR 5
5 A 6
6 AR 5
5 D 7
7 DR 5
5 B 8
8 BR 5
5 B 9
9 BR 5
6 B 0
0 BR 6
6 B 1
1 BR 6
6 C 2
2 CR 6
6 C 3
3 CR 6
6 D 4
4 DR 6
6 C 5
5 CR 6
6 A 7
7 AR 6
6 D 8
8 DR 6
6 D 9
9 DR 6
7 A 0
0 AR 7
7 B 1
1 BR 7
7 A 2
2 AR 7
7 A 3
3 AR 7
7 C 4
4 CR 7
7 C 5
5 CR 7
7 C 6
6 CR 7
7 C 8
8 CR 7
7 B 9
9 BR 7
8 D 0
0 DR 8
8 B 1
1 BR 8
8 A 2
2 AR 8
8 A 3
3 AR 8
8 A 4
4 AR 8
8 C 5
5 CR 8
8 B 6
6 BR 8
8 C 7
7 CR 8
8 B 9
9 BR 8
9 B 0
0 BR 9
9 B 1
1 BR 9
9 D 2
2 DR 9
9 B 3
3 BR 9
9 D 4
4 DR 9
9 A 5
5 AR 9
9 B 6
6 BR 9
9 D 7
7 DR 9
9 D 8
8 DR 9
10 B 0
0 BR 10
10 D 1
1 DR 10
10 C 2
2 CR 10
10 A 3
3 AR 10
10 A 4
4 AR 10
10 D 5
5 DR 10
10 D 6
6 DR 10
10 A 7
7 AR 10
10 A 8
8 AR 10
10 B 9
9 BR 10
11 C 0
0 CR 11
11 C 1
1 CR 11
11 C 3
3 CR 11
11 A 4
4 AR 11
11 C 5
5 CR 11
11 B 6
6 BR 11
11 A 7
7 AR 11
11 B 8
8 BR 11
11 A 9
9 AR 11
11 B 10
10 BR 11
12 C 0
0 CR 12
12 D 1
1 DR 12
12 C 3
3 CR 12
12 C 4
4 CR 12
12 C 5
5 CR 12
12 B 6
6 BR 12
12 A 7
7 AR 12
12 B 8
8 BR 12
12 A 9
9 AR 12
12 B 10
10 BR 12
13 B 0
0 BR 13
13 D 1
1 DR 13
13 D 2
2 DR 13
13 B 3
3 BR 13
13 C 5
5 CR 13
13 B 6
6 BR 13
13 A 7
7 AR 13
13 D 8
8 DR 13
13 A 10
10 AR 13
13 C 11
11 CR 13
14 A 0
0 AR 14
14 C 2
2 CR 14
14 B 3
3 BR 14
14 D 5
5 DR 14
14 C 6
6 CR 14
14 B 7
7 BR 14
14 D 8
8 DR 14
14 B 9
9 BR 14
14 C 12
12 CR 14
14 A 13
13 AR 14
15 A 0
0 AR 15
15 B 3
3 BR 15
15 D 4
4 DR 15
15 A 5
5 AR 15
15 D 6
6 DR 15
15 D 7
7 DR 15
15 B 8
8 BR 15
15 C 9
9 CR 15
15 C 11
11 CR 15
15 C 13
13 CR 15
16 C 0
0 CR 16
16 D 1
1 DR 16
16 A 2
2 AR 16
16 C 3
3 CR 16
16 D 4
4 DR 16
16 A 7
7 AR 16
16 A 8
8 AR 16
16 B 9
9 BR 16
16 B 10
10 BR 16
16 C 11
11 CR 16
17 B 2
2 BR 17
17 A 3
3 AR 17
17 C 4
4 CR 17
17 B 6
6 BR 17
17 D 7
7 DR 17
17 D 8
8 DR 17
17 C 10
10 CR 17
17 D 11
11 DR 17
17 D 13
13 DR 17
17 D 16
16 DR 17
18 B 1
1 BR 18
18 D 2
2 DR 18
18 B 3
3 BR 18
18 C 4
4 CR 18
18 B 5
5 BR 18
18 B 6
6 BR 18
18 D 7
7 DR 18
18 A 10
10 AR 18
18 A 12
12 AR 18
18 D 13
13 DR 18
19 D 5
5 DR 19
19 B 6
6 BR 19
19 D 7
7 DR 19
19 D 8
8 DR 19
19 A 9
9 AR 19
19 A 10
10 AR 19
19 D 11
11 DR 19
19 A 12
12 AR 19
19 D 13
13 DR 19
19 A 16
16 AR 19
20 C 1
1 CR 20
20 C 3
3 CR 20
20 A 5
5 AR 20
20 A 7
7 AR 20
20 B 8
8 BR 20
20 C 9
9 CR 20
20 D 11
11 DR 20
20 C 12
12 CR 20
20 C 13
13 CR 20
20 A 16
16 AR 20
21 C 0
0 CR 21
21 D 2
2 DR 21
21 B 3
3 BR 21
21 B 4
4 BR 21
21 B 5
5 BR 21
21 B 7
7 BR 21
21 D 11
11 DR 21
21 B 13
13 BR 21
21 A 18
18 AR 21
21 A 19
19 AR 21
22 B 1
1 BR 22
22 C 3
3 CR 22
22 C 5
5 CR 22
22 C 6
6 CR 22
22 C 7
7 CR 22
22 A 11
11 AR 22
22 D 13
13 DR 22
22 C 16
16 CR 22
22 C 17
17 CR 22
22 C 21
21 CR 22
23 C 1
1 CR 23
23 C 3
3 CR 23
23 D 6
6 DR 23
23 A 9
9 AR 23
23 B 10
10 BR 23
23 B 14
14 BR 23
23 A 17
17 AR 23
23 A 18
18 AR 23
23 C 19
19 CR 23
23 B 21
21 BR 23
24 C 1
1 CR 24
24 B 2
2 BR 24
24 B 3
3 BR 24
24 B 5
5 BR 24
24 C 6
6 CR 24
24 B 7
7 BR 24
24 D 8
8 DR 24
24 A 11
11 AR 24
24 C 17
17 CR 24
24 D 22
22 DR 24
25 C 0
0 CR 25
25 D 1
1 DR 25
25 A 3
3 AR 25
25 D 6
6 DR 25
25 B 8
8 BR 25
25 D 9
9 DR 25
25 D 10
10 DR 25
25 D 11
11 DR 25
25 D 12
12 DR 25
25 A 24
24 AR 25
26 A 0
0 AR 26
26 C 1
1 CR 26
26 C 2
2 CR 26
26 A 4
4 AR 26
26 D 6
6 DR 26
26 C 8
8 CR 26
26 D 9
9 DR 26
26 B 15
15 BR 26
26 D 19
19 DR 26
26 A 24
24 AR 26
27 D 1
1 DR 27
27 D 2
2 DR 27
27 B 3
3 BR 27
27 C 4
4 CR 27
27 C 5
5 CR 27
27 C 8
8 CR 27
27 B 9
9 BR 27
27 D 10
10 DR 27
27 C 15
15 CR 27
27 D 26
26 DR 27
28 C 0
0 CR 28
28 B 1
1 BR 28
28 A 2
2 AR 28
28 B 4
4 BR 28
28 A 5
5 AR 28
28 D 6
6 DR 28
28 A 7
7 AR 28
28 B 10
10 BR 28
28 A 23
23 AR 28
28 A 24
24 AR 28
29 A 1
1 AR 29
29 D 2
2 DR 29
29 C 5
5 CR 29
29 D 6
6 DR 29
29 B 7
7 BR 29
29 C 8
8 CR 29
29 A 9
9 AR 29
29 D 11
11 DR 29
29 A 14
14 AR 29
29 B 27
27 BR 29
30 C 1
1 CR 30
30 C 4
4 CR 30
30 B 5
5 BR 30
30 A 9
9 AR 30
30 C 10
10 CR 30
30 D 12
12 DR 30
30 B 16
16 BR 30
30 A 22
22 AR 30
30 D 23
23 DR 30
30 A 24
24 AR 30
31 C 3
3 CR 31
31 C 5
5 CR 31
31 B 6
6 BR 31
31 D 7
7 DR 31
31 C 11
11 CR 31
31 A 12
12 AR 31
31 C 15
15 CR 31
31 A 20
20 AR 31
31 B 24
24 BR 31
31 C 29
29 CR 31
32 C 0
0 CR 32
32 B 1
1 BR 32
32 B 2
2 BR 32
32 C 6
6 CR 32
32 A 7
7 AR 32
32 D 8
8 DR 32
32 C 9
9 CR 32
32 D 12
12 DR 32
32 D 25
25 DR 32
32 A 31
31 AR 32
33 D 1
1 DR 33
33 C 4
4 CR 33
33 C 6
6 CR 33
33 B 7
7 BR 33
33 B 9
9 BR 33
33 D 10
10 DR 33
33 D 11
11 DR 33
33 D 16
16 DR 33
33 A 25
25 AR 33
33 C 27
27 CR 33
34 D 0
0 DR 34
34 A 9
9 AR 34
34 A 10
10 AR 34
34 B 17
17 BR 34
34 A 23
23 AR 34
34 D 24
24 DR 34
34 A 26
26 AR 34
34 A 29
29 AR 34
34 B 30
30 BR 34
34 A 31
31 AR 34
35 C 0
0 CR 35
35 D 33
33 DR 35
35 D 1
1 DR 35
35 C 5
5 CR 35
35 B 6
6 BR 35
35 D 8
8 DR 35
35 D 10
10 DR 35
35 A 12
12 AR 35
35 D 14
14 DR 35
35 B 18
18 BR 35
36 B 1
1 BR 36
36 D 2
2 DR 36
36 C 4
4 CR 36
36 C 5
5 CR 36
36 A 7
7 AR 36
36 A 10
10 AR 36
36 B 11
11 BR 36
36 D 21
21 DR 36
36 B 24
24 BR 36
36 A 26
26 AR 36
37 B 0
0 BR 37
37 C 3
3 CR 37
37 B 5
5 BR 37
37 C 8
8 CR 37
37 B 10
10 BR 37
37 D 11
11 DR 37
37 D 14
14 DR 37
37 C 17
17 CR 37
37 C 19
19 CR 37
37 D 22
22 DR 37
38 B 0
0 BR 38
38 D 1
1 DR 38
38 B 3
3 BR 38
38 B 35
35 BR 38
38 D 5
5 DR 38
38 A 10
10 AR 38
38 A 12
12 AR 38
38 A 13
13 AR 38
38 A 18
18 AR 38
38 C 19
19 CR 38
39 B 1
1 BR 39
39 C 4
4 CR 39
39 C 5
5 CR 39
39 C 38
38 CR 39
39 A 9
9 AR 39
39 C 11
11 CR 39
39 D 25
25 DR 39
39 A 28
28 AR 39
39 C 30
30 CR 39
39 B 31
31 BR 39
40 D 1
1 DR 40
40 D 3
3 DR 40
40 C 5
5 CR 40
40 B 39
39 BR 40
40 B 8
8 BR 40
40 B 10
10 BR 40
40 A 12
12 AR 40
40 A 17
17 AR 40
40 A 22
22 AR 40
40 D 26
26 DR 40
41 B 32
32 BR 41
41 D 34
34 DR 41
41 D 3
3 DR 41
41 C 5
5 CR 41
41 D 39
39 DR 41
41 B 10
10 BR 41
41 C 16
16 CR 41
41 B 17
17 BR 41
41 D 18
18 DR 41
41 B 21
21 BR 41
42 B 2
2 BR 42
42 D 37
37 DR 42
42 C 6
6 CR 42
42 A 8
8 AR 42
42 B 10
10 BR 42
42 A 12
12 AR 42
42 A 13
13 AR 42
42 A 14
14 AR 42
42 C 27
27 CR 42
42 C 30
30 CR 42
43 B 32
32 BR 43
43 B 1
1 BR 43
43 A 37
37 AR 43
43 D 7
7 DR 43
43 C 8
8 CR 43
43 C 41
41 CR 43
43 B 20
20 BR 43
43 B 24
24 BR 43
43 D 25
25 DR 43
43 B 30
30 BR 43
44 D 35
35 DR 44
44 B 4
4 BR 44
44 D 5
5 DR 44
44 D 3
3 DR 44
44 C 8
8 CR 44
44 A 11
11 AR 44
44 C 12
12 CR 44
44 C 23
23 CR 44
44 B 28
28 BR 44
44 C 31
31 CR 44
45 A 33
33 AR 45
45 C 4
4 CR 45
45 B 5
5 BR 45
45 C 6
6 CR 45
45 C 39
39 CR 45
45 D 9
9 DR 45
45 A 43
43 AR 45
45 D 13
13 DR 45
45 C 22
22 CR 45
45 C 31
31 CR 45
46 B 2
2 BR 46
46 A 3
3 AR 46
46 C 5
5 CR 46
46 B 44
44 BR 46
46 D 13
13 DR 46
46 D 15
15 DR 46
46 A 19
19 AR 46
46 B 22
22 BR 46
46 D 25
25 DR 46
46 D 27
27 DR 46
47 D 33
33 DR 47
47 B 1
1 BR 47
47 D 3
3 DR 47
47 D 5
5 DR 47
47 A 6
6 AR 47
47 A 37
37 AR 47
47 D 8
8 DR 47
47 A 44
44 AR 47
47 B 12
12 BR 47
47 B 46
46 BR 47
48 A 1
1 AR 48
48 B 4
4 BR 48
48 B 5
5 BR 48
48 A 6
6 AR 48
48 D 38
38 DR 48
48 D 40
40 DR 48
48 C 11
11 CR 48
48 C 13
13 CR 48
48 D 14
14 DR 48
48 D 17
17 DR 48
49 C 1
1 CR 49
49 A 2
2 AR 49
49 D 3
3 DR 49
49 D 33
33 DR 49
49 B 38
38 BR 49
49 C 9
9 CR 49
49 B 10
10 BR 49
49 D 48
48 DR 49
49 A 25
25 AR 49
49 D 30
30 DR 49
50 C 0
0 CR 50
50 B 1
1 BR 50
50 A 36
36 AR 50
50 D 6
6 DR 50
50 A 7
7 AR 50
50 B 8
8 BR 50
50 C 13
13 CR 50
50 A 15
15 AR 50
50 B 17
17 BR 50
50 C 49
49 CR 50
51 C 0
0 CR 51
51 B 33
33 BR 51
51 C 1
1 CR 51
51 C 35
35 CR 51
51 B 3
3 BR 51
51 B 38
38 BR 51
51 A 7
7 AR 51
51 C 8
8 CR 51
51 A 10
10 AR 51
51 A 48
48 AR 51
52 A 4
4 AR 52
52 C 36
36 CR 52
52 C 8
8 CR 52
52 A 43
43 AR 52
52 B 12
12 BR 52
52 A 15
15 AR 52
52 D 17
17 DR 52
52 C 51
51 CR 52
52 C 27
27 CR 52
52 D 29
29 DR 52
53 C 32
32 CR 53
53 C 4
4 CR 53
53 C 39
39 CR 53
53 B 8
8 BR 53
53 D 43
43 DR 53
53 C 45
45 CR 53
53 A 15
15 AR 53
53 D 18
18 DR 53
53 C 52
52 CR 53
53 A 24
24 AR 53
54 B 38
38 BR 54
54 B 42
42 BR 54
54 D 10
10 DR 54
54 C 44
44 CR 54
54 A 45
45 AR 54
54 B 18
18 BR 54
54 D 19
19 DR 54
54 B 53
53 BR 54
54 B 25
25 BR 54
54 C 28
28 CR 54
55 A 33
33 AR 55
55 A 35
35 AR 55
55 B 5
5 BR 55
55 C 38
38 CR 55
55 C 6
6 CR 55
55 B 8
8 BR 55
55 C 9
9 CR 55
55 C 13
13 CR 55
55 D 45
45 DR 55
55 A 17
17 AR 55
56 D 1
1 DR 56
56 A 2
2 AR 56
56 C 5
5 CR 56
56 A 37
37 AR 56
56 A 39
39 AR 56
56 B 45
45 BR 56
56 A 19
19 AR 56
56 B 51
51 BR 56
56 A 28
28 AR 56
56 C 30
30 CR 56
57 C 3
3 CR 57
57 D 4
4 DR 57
57 B 5
5 BR 57
57 B 9
9 BR 57
57 D 44
44 DR 57
57 B 15
15 BR 57
57 A 17
17 AR 57
57 A 18
18 AR 57
57 A 54
54 AR 57
57 D 24
24 DR 57
58 D 1
1 DR 58
58 C 2
2 CR 58
58 C 40
40 CR 58
58 B 9
9 BR 58
58 D 8
8 DR 58
58 D 17
17 DR 58
58 C 53
53 CR 58
58 D 25
25 DR 58
58 D 29
29 DR 58
58 C 31
31 CR 58
59 D 3
3 DR 59
59 A 35
35 AR 59
59 B 5
5 BR 59
59 B 7
7 BR 59
59 B 10
10 BR 59
59 D 44
44 DR 59
59 A 51
51 AR 59
59 C 19
19 CR 59
59 D 22
22 DR 59
59 C 30
30 CR 59
60 D 0
0 DR 60
60 A 1
1 AR 60
60 B 38
38 BR 60
60 D 6
6 DR 60
60 D 7
7 DR 60
60 C 10
10 CR 60
60 B 17
17 BR 60
60 C 50
50 CR 60
60 A 55
55 AR 60
60 D 59
59 DR 60
61 C 0
0 CR 61
61 C 6
6 CR 61
61 B 39
39 BR 61
61 B 7
7 BR 61
61 D 9
9 DR 61
61 B 45
45 BR 61
61 C 14
14 CR 61
61 A 49
49 AR 61
61 B 50
50 BR 61
61 B 27
27 BR 61
62 C 2
2 CR 62
62 D 5
5 DR 62
62 C 7
7 CR 62
62 C 8
8 CR 62
62 A 59
59 AR 62
62 C 11
11 CR 62
62 D 16
16 DR 62
62 B 18
18 BR 62
62 B 26
26 BR 62
62 D 27
27 DR 62
63 B 33
33 BR 63
63 D 3
3 DR 63
63 D 5
5 DR 63
63 A 6
6 AR 63
63 D 7
7 DR 63
63 A 52
52 AR 63
63 B 24
24 BR 63
63 C 26
26 CR 63
63 D 59
59 DR 63
63 D 60
60 DR 63
64 A 2
2 AR 64
64 C 6
6 CR 64
64 D 8
8 DR 64
64 C 41
41 CR 64
64 D 42
42 DR 64
64 B 10
10 BR 64
64 A 45
45 AR 64
64 B 14
14 BR 64
64 C 17
17 CR 64
64 A 31
31 AR 64
65 A 0
0 AR 65
65 C 2
2 CR 65
65 A 5
5 AR 65
65 B 41
41 BR 65
65 B 43
43 BR 65
65 B 12
12 BR 65
65 A 45
45 AR 65
65 B 16
16 BR 65
65 B 52
52 BR 65
65 C 25
25 CR 65
66 D 0
0 DR 66
66 B 2
2 BR 66
66 B 3
3 BR 66
66 A 35
35 AR 66
66 D 5
5 DR 66
66 B 45
45 BR 66
66 B 49
49 BR 66
66 B 18
18 BR 66
66 B 54
54 BR 66
66 A 62
62 AR 66
67 A 0
0 AR 67
67 C 3
3 CR 67
67 C 6
6 CR 67
67 B 8
8 BR 67
67 D 9
9 DR 67
67 C 44
44 CR 67
67 B 17
17 BR 67
67 D 51
51 DR 67
67 D 53
53 DR 67
67 B 30
30 BR 67
68 A 33
33 AR 68
68 B 2
2 BR 68
68 C 4
4 CR 68
68 B 6
6 BR 68
68 A 41
41 AR 68
68 C 12
12 CR 68
68 B 48
48 BR 68
68 C 19
19 CR 68
68 D 56
56 DR 68
68 C 61
61 CR 68
69 B 5
5 BR 69
69 D 7
7 DR 69
69 C 8
8 CR 69
69 C 9
9 CR 69
69 A 10
10 AR 69
69 A 16
16 AR 69
69 A 17
17 AR 69
69 D 19
19 DR 69
69 D 61
61 DR 69
69 A 29
29 AR 69
70 D 64
64 DR 70
70 A 33
33 AR 70
70 D 2
2 DR 70
70 B 1
1 BR 70
70 D 9
9 DR 70
70 D 46
46 DR 70
70 D 17
17 DR 70
70 D 50
50 DR 70
70 B 19
19 BR 70
70 A 22
22 AR 70
71 D 33
33 DR 71
71 D 2
2 DR 71
71 A 69
69 AR 71
71 B 39
39 BR 71
71 A 10
10 AR 71
71 C 45
45 CR 71
71 A 50
50 AR 71
71 C 51
51 CR 71
71 C 23
23 CR 71
71 A 31
31 AR 71
72 C 3
3 CR 72
72 C 5
5 CR 72
72 B 9
9 BR 72
72 C 10
10 CR 72
72 A 45
45 AR 72
72 B 15
15 BR 72
72 D 49
49 DR 72
72 A 55
55 AR 72
72 D 56
56 DR 72
72 D 24
24 DR 72
73 B 3
3 BR 73
73 C 35
35 CR 73
73 C 8
8 CR 73
73 A 12
12 AR 73
73 B 13
13 BR 73
73 B 15
15 BR 73
73 A 48
48 AR 73
73 D 18
18 DR 73
73 B 57
57 BR 73
73 D 27
27 DR 73
74 C 0
0 CR 74
74 C 3
3 CR 74
74 C 68
68 CR 74
74 A 7
7 AR 74
74 A 9
9 AR 74
74 A 42
42 AR 74
74 B 73
73 BR 74
74 A 19
19 AR 74
74 D 27
27 DR 74
74 D 63
63 DR 74
75 C 1
1 CR 75
75 D 33
33 DR 75
75 D 2
2 DR 75
75 C 44
44 CR 75
75 C 45
45 CR 75
75 B 16
16 BR 75
75 A 19
19 AR 75
75 B 25
25 BR 75
75 B 27
27 BR 75
75 A 29
29 AR 75
76 B 0
0 BR 76
76 B 68
68 BR 76
76 A 40
40 AR 76
76 A 27
27 AR 76
76 A 11
11 AR 76
76 A 16
16 AR 76
76 B 18
18 BR 76
76 D 20
20 DR 76
76 D 56
56 DR 76
76 C 59
59 CR 76
77 C 33
33 CR 77
77 D 2
2 DR 77
77 B 3
3 BR 77
77 A 39
39 AR 77
77 D 7
7 DR 77
77 B 19
19 BR 77
77 B 23
23 BR 77
77 D 25
25 DR 77
77 A 59
59 AR 77
77 A 31
31 AR 77
78 B 6
6 BR 78
78 A 39
39 AR 78
78 C 8
8 CR 78
78 A 42
42 AR 78
78 A 45
45 AR 78
78 B 48
48 BR 78
78 C 50
50 CR 78
78 B 26
26 BR 78
78 A 30
30 AR 78
78 D 63
63 DR 78
79 D 1
1 DR 79
79 B 34
34 BR 79
79 D 3
3 DR 79
79 B 39
39 BR 79
79 A 10
10 AR 79
79 C 11
11 CR 79
79 A 42
42 AR 79
79 D 15
15 DR 79
79 C 24
24 CR 79
79 C 61
61 CR 79
80 C 66
66 CR 80
80 C 68
68 CR 80
80 D 7
7 DR 80
80 B 39
39 BR 80
80 C 12
12 CR 80
80 B 15
15 BR 80
80 D 48
48 DR 80
80 D 49
49 DR 80
80 A 23
23 AR 80
80 A 24
24 AR 80
81 A 0
0 AR 81
81 A 1
1 AR 81
81 C 4
4 CR 81
81 B 5
5 BR 81
81 A 7
7 AR 81
81 A 8
8 AR 81
81 B 12
12 BR 81
81 B 49
49 BR 81
81 B 26
26 BR 81
81 C 60
60 CR 81
82 D 33
33 DR 82
82 D 3
3 DR 82
82 A 37
37 AR 82
82 B 5
5 BR 82
82 C 42
42 CR 82
82 D 44
44 DR 82
82 A 46
46 AR 82
82 C 18
18 CR 82
82 B 19
19 BR 82
82 B 55
55 BR 82
83 B 64
64 BR 83
83 D 0
0 DR 83
83 D 1
1 DR 83
83 C 70
70 CR 83
83 C 7
7 CR 83
83 B 43
43 BR 83
83 D 14
14 DR 83
83 C 22
22 CR 83
83 A 24
24 AR 83
83 D 25
25 DR 83
84 C 0
0 CR 84
84 D 66
66 DR 84
84 D 3
3 DR 84
84 D 38
38 DR 84
84 C 16
16 CR 84
84 C 18
18 CR 84
84 B 82
82 BR 84
84 B 50
50 BR 84
84 C 51
51 CR 84
84 D 24
24 DR 84
85 A 33
33 AR 85
85 B 35
35 BR 85
85 D 4
4 DR 85
85 B 5
5 BR 85
85 C 7
7 CR 85
85 D 11
11 DR 85
85 A 46
46 AR 85
85 B 15
15 BR 85
85 B 84
84 BR 85
85 B 56
56 BR 85
86 B 3
3 BR 86
86 D 6
6 DR 86
86 C 77
77 CR 86
86 D 18
18 DR 86
86 C 50
50 CR 86
86 A 20
20 AR 86
86 C 23
23 CR 86
86 A 51
51 AR 86
86 B 55
55 BR 86
86 C 28
28 CR 86
87 B 0
0 BR 87
87 B 8
8 BR 87
87 A 40
40 AR 87
87 C 11
11 CR 87
87 A 15
15 AR 87
87 D 80
80 DR 87
87 C 19
19 CR 87
87 B 20
20 BR 87
87 B 57
57 BR 87
87 B 59
59 BR 87
88 C 33
33 CR 88
88 B 2
2 BR 88
88 A 4
4 AR 88
88 C 6
6 CR 88
88 D 80
80 DR 88
88 D 16
16 DR 88
88 A 19
19 AR 88
88 C 51
51 CR 88
88 A 60
60 AR 88
88 D 29
29 DR 88
89 A 1
1 AR 89
89 A 36
36 AR 89
89 D 37
37 DR 89
89 A 5
5 AR 89
89 D 10
10 DR 89
89 D 20
20 DR 89
89 D 54
54 DR 89
89 B 22
22 BR 89
89 D 25
25 DR 89
89 D 61
61 DR 89
90 A 0
0 AR 90
90 D 4
4 DR 90
90 A 8
8 AR 90
90 D 42
42 DR 90
90 D 46
46 DR 90
90 C 16
16 CR 90
90 A 19
19 AR 90
90 D 83
83 DR 90
90 B 21
21 BR 90
90 B 55
55 BR 90
91 D 65
65 DR 91
91 A 34
34 AR 91
91 C 3
3 CR 91
91 C 5
5 CR 91
91 B 71
71 BR 91
91 C 7
7 CR 91
91 D 47
47 DR 91
91 D 80
80 DR 91
91 D 17
17 DR 91
91 B 57
57 BR 91
92 D 64
64 DR 92
92 A 2
2 AR 92
92 D 3
3 DR 92
92 D 7
7 DR 92
92 D 9
9 DR 92
92 A 45
45 AR 92
92 B 15
15 BR 92
92 A 18
18 AR 92
92 C 24
24 CR 92
92 D 60
60 DR 92
93 D 33
33 DR 93
93 C 3
3 CR 93
93 A 36
36 AR 93
93 D 7
7 DR 93
93 B 42
42 BR 93
93 A 12
12 AR 93
93 B 46
46 BR 93
93 C 51
51 CR 93
93 A 22
22 AR 93
93 A 63
63 AR 93
94 C 32
32 CR 94
94 B 65
65 BR 94
94 D 34
34 DR 94
94 C 70
70 CR 94
94 C 39
39 CR 94
94 D 9
9 DR 94
94 D 76
76 DR 94
94 D 45
45 DR 94
94 C 89
89 CR 94
94 D 63
63 DR 94
95 B 0
0 BR 95
95 C 35
35 CR 95
95 B 36
36 BR 95
95 C 7
7 CR 95
95 C 8
8 CR 95
95 B 73
73 BR 95
95 A 9
9 AR 95
95 B 14
14 BR 95
95 A 55
55 AR 95
95 B 31
31 BR 95
96 D 8
8 DR 96
96 A 73
73 AR 96
96 A 40
40 AR 96
96 B 12
12 BR 96
96 D 17
17 DR 96
96 D 84
84 DR 96
96 D 22
22 DR 96
96 A 59
59 AR 96
96 C 28
28 CR 96
96 D 95
95 DR 96
97 A 5
5 AR 97
97 A 10
10 AR 97
97 C 42
42 CR 97
97 D 81
81 DR 97
97 D 20
20 DR 97
97 B 23
23 BR 97
97 D 56
56 DR 97
97 B 88
88 BR 97
97 C 60
60 CR 97
97 D 30
30 DR 97
98 B 1
1 BR 98
98 C 34
34 CR 98
98 D 35
35 DR 98
98 A 3
3 AR 98
98 C 70
70 CR 98
98 B 77
77 BR 98
98 A 14
14 AR 98
98 D 15
15 DR 98
98 A 49
49 AR 98
98 C 23
23 CR 98
99 B 98
98 BR 99
99 D 7
7 DR 99
99 D 8
8 DR 99
99 A 10
10 AR 99
99 C 45
45 CR 99
99 B 14
14 BR 99
99 D 17
17 DR 99
99 C 20
20 CR 99
99 A 89
89 AR 99
99 A 61
61 AR 99
100 C 0
0 CR 100
100 A 1
1 AR 100
100 C 5
5 CR 100
100 C 39
39 CR 100
100 A 9
9 AR 100
100 A 75
75 AR 100
100 C 11
11 CR 100
100 C 86
86 CR 100
100 C 87
87 CR 100
100 B 95
95 BR 100
101 C 32
32 CR 101
101 B 7
7 BR 101
101 B 8
8 BR 101
101 D 9
9 DR 101
101 B 39
39 BR 101
101 A 12
12 AR 101
101 C 80
80 CR 101
101 A 57
57 AR 101
101 A 27
27 AR 101
101 D 61
61 DR 101
102 A 0
0 AR 102
102 D 2
2 DR 102
102 C 4
4 CR 102
102 B 38
38 BR 102
102 B 39
39 BR 102
102 B 48
48 BR 102
102 C 49
49 CR 102
102 A 21
21 AR 102
102 B 29
29 BR 102
102 B 94
94 BR 102
103 C 3
3 CR 103
103 C 46
46 CR 103
103 D 18
18 DR 103
103 B 19
19 BR 103
103 C 20
20 CR 103
103 B 54
54 BR 103
103 D 23
23 DR 103
103 C 24
24 CR 103
103 A 89
89 AR 103
103 D 31
31 DR 103
104 B 0
0 BR 104
104 B 4
4 BR 104
104 A 37
37 AR 104
104 D 70
70 DR 104
104 B 39
39 BR 104
104 B 75
75 BR 104
104 B 12
12 BR 104
104 D 47
47 DR 104
104 C 16
16 CR 104
104 A 59
59 AR 104
105 B 3
3 BR 105
105 D 7
7 DR 105
105 B 75
75 BR 105
105 A 12
12 AR 105
105 A 46
46 AR 105
105 A 78
78 AR 105
105 D 50
50 DR 105
105 B 87
87 BR 105
105 C 59
59 CR 105
105 D 30
30 DR 105
106 D 0
0 DR 106
106 C 66
66 CR 106
106 C 4
4 CR 106
106 B 7
7 BR 106
106 D 44
44 DR 106
106 A 76
76 AR 106
106 D 21
21 DR 106
106 A 87
87 AR 106
106 A 24
24 AR 106
106 B 90
90 BR 106
107 D 98
98 DR 107
107 A 4
4 AR 107
107 A 5
5 AR 107
107 C 6
6 CR 107
107 B 39
39 BR 107
107 D 11
11 DR 107
107 D 79
79 DR 107
107 D 21
21 DR 107
107 B 91
91 BR 107
107 C 94
94 CR 107
108 B 5
5 BR 108
108 A 72
72 AR 108
108 C 106
106 CR 108
108 A 13
13 AR 108
108 D 77
77 DR 108
108 B 19
19 BR 108
108 D 24
24 DR 108
108 A 25
25 AR 108
108 D 26
26 DR 108
108 B 27
27 BR 108
109 D 0
0 DR 109
109 A 7
7 AR 109
109 C 39
39 CR 109
109 C 43
43 CR 109
109 D 12
12 DR 109
109 A 19
19 AR 109
109 A 85
85 AR 109
109 B 86
86 BR 109
109 B 23
23 BR 109
109 D 63
63 DR 109
110 A 32
32 AR 110
110 A 66
66 AR 110
110 D 68
68 DR 110
110 D 103
103 DR 110
110 A 8
8 AR 110
110 C 52
52 CR 110
110 A 54
54 AR 110
110 C 88
88 CR 110
110 C 57
57 CR 110
110 D 58
58 DR 110
111 A 3
3 AR 111
111 D 68
68 DR 111
111 A 101
101 AR 111
111 C 6
6 CR 111
111 D 40
40 DR 111
111 D 44
44 DR 111
111 B 83
83 BR 111
111 C 24
24 CR 111
111 A 59
59 AR 111
111 D 30
30 DR 111
112 C 0
0 CR 112
112 C 71
71 CR 112
112 B 72
72 BR 112
112 D 44
44 DR 112
112 A 14
14 AR 112
112 B 15
15 BR 112
112 C 88
88 CR 112
112 C 91
91 CR 112
112 C 28
28 CR 112
112 D 93
93 DR 112
113 A 0
0 AR 113
113 B 97
97 BR 113
113 B 1
1 BR 113
113 B 3
3 BR 113
113 C 8
8 CR 113
113 B 74
74 BR 113
113 D 44
44 DR 113
113 D 13
13 DR 113
113 A 19
19 AR 113
113 D 84
84 DR 113
114 D 0
0 DR 114
114 C 3
3 CR 114
114 A 4
4 AR 114
114 C 69
69 CR 114
114 D 5
5 DR 114
114 B 14
14 BR 114
114 D 81
81 DR 114
114 B 51
51 BR 114
114 B 55
55 BR 114
114 C 63
63 CR 114
115 B 64
64 BR 115
115 C 6
6 CR 115
115 D 9
9 DR 115
115 B 59
59 BR 115
115 D 14
14 DR 115
115 A 110
110 AR 115
115 A 16
16 AR 115
115 C 84
84 CR 115
115 A 91
91 AR 115
115 D 95
95 DR 115
116 A 35
35 AR 116
116 B 4
4 BR 116
116 A 40
40 AR 116
116 A 105
105 AR 116
116 D 27
27 DR 116
116 D 15
15 DR 116
116 B 48
48 BR 116
116 C 25
25 CR 116
116 A 91
91 AR 116
116 B 31
31 BR 116
117 B 0
0 BR 117
117 D 1
1 DR 117
117 D 98
98 DR 117
117 D 3
3 DR 117
117 B 6
6 BR 117
117 C 7
7 CR 117
117 A 49
49 AR 117
117 B 20
20 BR 117
117 C 57
57 CR 117
117 C 61
61 CR 117
118 C 4
4 CR 118
118 C 41
41 CR 118
118 A 9
9 AR 118
118 B 45
45 BR 118
118 D 77
77 DR 118
118 B 79
79 BR 118
118 C 80
80 CR 118
118 A 48
48 AR 118
118 B 90
90 BR 118
118 C 29
29 CR 118
119 B 1
1 BR 119
119 A 70
70 AR 119
119 A 39
39 AR 119
119 C 7
7 CR 119
119 C 38
38 CR 119
119 C 79
79 CR 119
119 A 115
115 AR 119
119 C 117
117 CR 119
119 B 24
24 BR 119
119 D 28
28 DR 119
120 D 3
3 DR 120
120 C 67
67 CR 120
120 D 5
5 DR 120
120 D 11
11 DR 120
120 C 109
109 CR 120
120 A 78
78 AR 120
120 D 48
48 DR 120
120 C 17
17 CR 120
120 D 84
84 DR 120
120 D 94
94 DR 120
121 C 1
1 CR 121
121 B 4
4 BR 121
121 D 101
101 DR 121
121 D 8
8 DR 121
121 C 105
105 CR 121
121 C 43
43 CR 121
121 A 11
11 AR 121
121 B 110
110 BR 121
121 C 16
16 CR 121
121 C 55
55 CR 121
122 D 97
97 DR 122
122 C 2
2 CR 122
122 A 3
3 AR 122
122 D 4
4 DR 122
122 A 70
70 AR 122
122 C 7
7 CR 122
122 B 104
104 BR 122
122 C 45
45 CR 122
122 D 55
55 DR 122
122 C 57
57 CR 122
123 D 0
0 DR 123
123 B 2
2 BR 123
123 A 67
67 AR 123
123 C 102
102 CR 123
123 C 106
106 CR 123
123 C 11
11 CR 123
123 B 14
14 BR 123
123 D 78
78 DR 123
123 D 49
49 DR 123
123 B 84
84 BR 123
124 A 72
72 AR 124
124 A 41
41 AR 124
124 C 10
10 CR 124
124 A 73
73 AR 124
124 B 74
74 BR 124
124 A 110
110 AR 124
124 A 84
84 AR 124
124 B 86
86 BR 124
124 C 120
120 CR 124
124 C 61
61 CR 124
125 A 0
0 AR 125
125 A 8
8 AR 125
125 D 9
9 DR 125
125 B 14
14 BR 125
125 D 15
15 DR 125
125 D 92
92 DR 125
125 A 93
93 AR 125
125 A 28
28 AR 125
125 C 29
29 CR 125
125 C 30
30 CR 125
126 B 0
0 BR 126
126 B 33
33 BR 126
126 A 3
3 AR 126
126 D 4
4 DR 126
126 C 10
10 CR 126
126 A 11
11 AR 126
126 C 44
44 CR 126
126 A 106
106 AR 126
126 B 46
46 BR 126
126 A 119
119 AR 126
127 A 33
33 AR 127
127 B 3
3 BR 127
127 A 5
5 AR 127
127 C 6
6 CR 127
127 B 48
48 BR 127
127 B 19
19 BR 127
127 B 116
116 BR 127
127 C 84
84 CR 127
127 B 28
28 BR 127
127 A 95
95 AR 127
128 D 97
97 DR 128
128 D 3
3 DR 128
128 A 10
10 AR 128
128 B 78
78 BR 128
128 A 47
47 AR 128
128 B 18
18 BR 128
128 B 115
115 BR 128
128 C 53
53 CR 128
128 C 57
57 CR 128
128 A 26
26 AR 128
129 A 32
32 AR 129
129 D 97
97 DR 129
129 A 67
67 AR 129
129 C 3
3 CR 129
129 D 40
40 DR 129
129 C 9
9 CR 129
129 D 43
43 DR 129
129 C 13
13 CR 129
129 A 21
21 AR 129
129 A 27
27 AR 129
130 B 32
32 BR 130
130 D 1
1 DR 130
130 B 3
3 BR 130
130 C 5
5 CR 130
130 A 39
39 AR 130
130 A 43
43 AR 130
130 C 44
44 CR 130
130 B 16
16 BR 130
130 C 113
113 CR 130
130 D 25
25 DR 130
131 C 65
65 CR 131
131 B 3
3 BR 131
131 D 6
6 DR 131
131 B 76
76 BR 131
131 B 19
19 BR 131
131 C 20
20 CR 131
131 B 22
22 BR 131
131 C 24
24 CR 131
131 D 123
123 DR 131
131 C 120
120 CR 131
132 A 32
32 AR 132
132 A 1
1 AR 132
132 B 34
34 BR 132
132 C 0
0 CR 132
132 A 4
4 AR 132
132 A 6
6 AR 132
132 A 77
77 AR 132
132 C 14
14 CR 132
132 C 78
78 CR 132
132 A 92
92 AR 132
133 A 1
1 AR 133
133 D 2
2 DR 133
133 D 4
4 DR 133
133 D 102
102 DR 133
133 B 8
8 BR 133
133 D 44
44 DR 133
133 C 78
78 CR 133
133 D 15
15 DR 133
133 B 20
20 BR 133
133 C 93
93 CR 133
134 A 4
4 AR 134
134 C 38
38 CR 134
134 B 6
6 BR 134
134 B 9
9 BR 134
134 A 45
45 AR 134
134 C 77
77 CR 134
134 B 16
16 BR 134
134 C 81
81 CR 134
134 D 19
19 DR 134
134 A 31
31 AR 134
135 A 0
0 AR 135
135 C 3
3 CR 135
135 A 12
12 AR 135
135 D 45
45 DR 135
135 D 111
111 DR 135
135 D 117
117 DR 135
135 C 21
21 CR 135
135 C 121
121 CR 135
135 A 94
94 AR 135
135 A 31
31 AR 135
136 D 64
64 DR 136
136 C 3
3 CR 136
136 A 4
4 AR 136
136 A 134
134 AR 136
136 D 135
135 DR 136
136 A 41
41 AR 136
136 B 91
91 BR 136
136 D 44
44 DR 136
136 C 21
21 CR 136
136 B 59
59 BR 136
137 D 129
129 DR 137
137 A 3
3 AR 137
137 D 4
4 DR 137
137 B 5
5 BR 137
137 D 8
8 DR 137
137 C 13
13 CR 137
137 C 16
16 CR 137
137 D 27
27 DR 137
137 A 28
28 AR 137
137 B 62
62 BR 137
138 D 2
2 DR 138
138 D 6
6 DR 138
138 D 39
39 DR 138
138 C 8
8 CR 138
138 A 13
13 AR 138
138 A 78
78 AR 138
138 A 17
17 AR 138
138 D 18
18 DR 138
138 D 85
85 DR 138
138 D 30
30 DR 138
139 A 1
1 AR 139
139 C 5
5 CR 139
139 A 6
6 AR 139
139 C 7
7 CR 139
139 D 10
10 DR 139
139 D 50
50 DR 139
139 A 52
52 AR 139
139 A 127
127 AR 139
139 B 30
30 BR 139
139 D 31
31 DR 139
140 A 65
65 AR 140
140 B 1
1 BR 140
140 C 3
3 CR 140
140 C 134
134 CR 140
140 B 9
9 BR 140
140 A 10
10 AR 140
140 B 44
44 BR 140
140 A 13
13 AR 140
140 D 119
119 DR 140
140 C 57
57 CR 140
141 D 0
0 DR 141
141 D 97
97 DR 141
141 D 98
98 DR 141
141 A 64
64 AR 141
141 A 39
39 AR 141
141 C 18
18 CR 141
141 C 51
51 CR 141
141 A 87
87 AR 141
141 D 94
94 DR 141
141 D 31
31 DR 141
142 A 1
1 AR 142
142 C 67
67 CR 142
142 A 3
3 AR 142
142 D 70
70 DR 142
142 B 135
135 BR 142
142 C 9
9 CR 142
142 B 44
44 BR 142
142 B 81
81 BR 142
142 B 50
50 BR 142
142 D 51
51 DR 142
143 C 2
2 CR 143
143 B 35
35 BR 143
143 C 4
4 CR 143
143 B 5
5 BR 143
143 A 10
10 AR 143
143 D 106
106 DR 143
143 B 118
118 BR 143
143 A 24
24 AR 143
143 B 57
57 BR 143
143 B 29
29 BR 143
144 D 97
97 DR 144
144 A 34
34 AR 144
144 C 4
4 CR 144
144 B 7
7 BR 144
144 C 8
8 CR 144
144 A 75
75 AR 144
144 B 12
12 BR 144
144 B 80
80 BR 144
144 D 88
88 DR 144
144 D 59
59 DR 144
145 B 1
1 BR 145
145 D 40
40 DR 145
145 D 8
8 DR 145
145 A 46
46 AR 145
145 D 15
15 DR 145
145 A 19
19 AR 145
145 D 22
22 DR 145
145 A 55
55 AR 145
145 A 26
26 AR 145
145 A 31
31 AR 145
146 C 97
97 CR 146
146 D 66
66 DR 146
146 A 1
1 AR 146
146 D 6
6 DR 146
146 C 102
102 CR 146
146 C 8
8 CR 146
146 C 10
10 CR 146
146 C 42
42 CR 146
146 C 84
84 CR 146
146 B 24
24 BR 146
147 A 4
4 AR 147
147 B 70
70 BR 147
147 B 39
39 BR 147
147 A 8
8 AR 147
147 B 9
9 BR 147
147 A 76
76 AR 147
147 D 45
45 DR 147
147 C 114
114 CR 147
147 B 19
19 BR 147
147 B 24
24 BR 147
148 C 3
3 CR 148
148 B 46
46 BR 148
148 B 144
144 BR 148
148 C 49
49 CR 148
148 A 18
18 AR 148
148 C 22
22 CR 148
148 D 25
25 DR 148
148 B 122
122 BR 148
148 A 123
123 AR 148
148 A 63
63 AR 148
149 B 0
0 BR 149
149 A 3
3 AR 149
149 C 100
100 CR 149
149 A 71
71 AR 149
149 B 73
73 BR 149
149 D 42
42 DR 149
149 C 10
10 CR 149
149 A 17
17 AR 149
149 B 18
18 BR 149
149 B 27
27 BR 149
150 D 64
64 DR 150
150 A 2
2 AR 150
150 C 3
3 CR 150
150 B 6
6 BR 150
150 A 8
8 AR 150
150 B 9
9 BR 150
150 C 45
45 CR 150
150 B 146
146 BR 150
150 B 149
149 BR 150
150 A 24
24 AR 150
151 D 33
33 DR 151
151 B 5
5 BR 151
151 D 101
101 DR 151
151 A 103
103 AR 151
151 D 41
41 DR 151
151 B 45
45 BR 151
151 D 16
16 DR 151
151 B 57
57 BR 151
151 C 126
126 CR 151
151 B 30
30 BR 151
152 B 64
64 BR 152
152 C 32
32 CR 152
152 C 2
2 CR 152
152 B 58
58 BR 152
152 D 7
7 DR 152
152 C 8
8 CR 152
152 C 12
12 CR 152
152 C 54
54 CR 152
152 A 56
56 AR 152
152 B 26
26 BR 152
153 D 0
0 DR 153
153 D 34
34 DR 153
153 B 67
67 BR 153
153 B 5
5 BR 153
153 A 9
9 AR 153
153 D 20
20 DR 153
153 B 117
117 BR 153
153 D 152
152 DR 153
153 A 59
59 AR 153
153 C 120
120 CR 153
154 C 32
32 CR 154
154 C 34
34 CR 154
154 D 107
107 DR 154
154 D 15
15 DR 154
154 B 19
19 BR 154
154 B 52
52 BR 154
154 B 152
152 BR 154
154 A 25
25 AR 154
154 D 27
27 DR 154
154 A 29
29 AR 154
155 A 8
8 AR 155
155 B 9
9 BR 155
155 C 110
110 CR 155
155 A 80
80 AR 155
155 B 48
48 BR 155
155 B 146
146 BR 155
155 C 117
117 CR 155
155 D 121
121 DR 155
155 A 59
59 AR 155
155 B 126
126 BR 155
156 A 3
3 AR 156
156 D 5
5 DR 156
156 D 8
8 DR 156
156 A 44
44 AR 156
156 D 45
45 DR 156
156 D 14
14 DR 156
156 D 19
19 DR 156
156 A 52
52 AR 156
156 B 20
20 BR 156
156 A 27
27 AR 156
157 C 98
98 CR 157
157 A 67
67 AR 157
157 A 68
68 AR 157
157 D 6
6 DR 157
157 D 8
8 DR 157
157 D 138
138 DR 157
157 B 10
10 BR 157
157 C 18
18 CR 157
157 C 54
54 CR 157
157 A 95
95 AR 157
158 B 0
0 BR 158
158 C 3
3 CR 158
158 C 4
4 CR 158
158 A 71
71 AR 158
158 B 103
103 BR 158
158 A 138
138 AR 158
158 A 11
11 AR 158
158 B 10
10 BR 158
158 B 43
43 BR 158
158 C 120
120 CR 158
159 B 98
98 BR 159
159 D 100
100 DR 159
159 A 70
70 AR 159
159 C 9
9 CR 159
159 B 19
19 BR 159
159 B 148
148 BR 159
159 A 23
23 AR 159
159 B 62
62 BR 159
159 C 30
30 CR 159
159 B 31
31 BR 159
160 D 64
64 DR 160
160 C 3
3 CR 160
160 A 133
133 AR 160
160 B 6
6 BR 160
160 A 8
8 AR 160
160 C 12
12 CR 160
160 A 113
113 AR 160
160 C 20
20 CR 160
160 B 155
155 BR 160
160 D 28
28 DR 160
161 C 34
34 CR 161
161 D 3
3 DR 161
161 C 105
105 CR 161
161 C 41
41 CR 161
161 B 77
77 BR 161
161 D 15
15 DR 161
161 C 113
113 CR 161
161 A 49
49 AR 161
161 B 21
21 BR 161
161 A 61
61 AR 161
162 B 33
33 BR 162
162 B 2
2 BR 162
162 C 5
5 CR 162
162 A 44
44 AR 162
162 C 16
16 CR 162
162 D 18
18 DR 162
162 D 147
147 DR 162
162 A 117
117 AR 162
162 C 87
87 CR 162
162 C 28
28 CR 162
163 C 0
0 CR 163
163 A 37
37 AR 163
163 B 8
8 BR 163
163 A 45
45 AR 163
163 A 23
23 AR 163
163 D 55
55 DR 163
163 C 22
22 CR 163
163 B 87
87 BR 163
163 A 150
150 AR 163
163 A 124
124 AR 163
164 D 96
96 DR 164
164 B 1
1 BR 164
164 A 0
0 AR 164
164 B 40
40 BR 164
164 C 43
43 CR 164
164 D 107
107 DR 164
164 C 53
53 CR 164
164 B 22
22 BR 164
164 D 26
26 DR 164
164 C 61
61 CR 164
165 B 35
35 BR 165
165 B 4
4 BR 165
165 D 107
107 DR 165
165 C 43
43 CR 165
165 C 11
11 CR 165
165 B 112
112 BR 165
165 A 49
49 AR 165
165 A 114
114 AR 165
165 C 147
147 CR 165
165 D 144
144 DR 165
166 B 96
96 BR 166
166 B 3
3 BR 166
166 D 4
4 DR 166
166 A 71
71 AR 166
166 A 13
13 AR 166
166 B 48
48 BR 166
166 A 83
83 AR 166
166 C 149
149 CR 166
166 A 92
92 AR 166
166 B 63
63 BR 166
167 D 97
97 DR 167
167 C 5
5 CR 167
167 B 135
135 BR 167
167 A 103
103 AR 167
167 D 41
41 DR 167
167 D 43
43 DR 167
167 C 44
44 CR 167
167 C 18
18 CR 167
167 D 84
84 DR 167
167 A 52
52 AR 167
168 D 128
128 DR 168
168 A 1
1 AR 168
168 A 2
2 AR 168
168 A 7
7 AR 168
168 A 143
143 AR 168
168 B 48
48 BR 168
168 A 15
15 AR 168
168 D 21
21 DR 168
168 A 23
23 AR 168
168 A 60
60 AR 168
169 D 160
160 DR 169
169 D 134
134 DR 169
169 B 137
137 BR 169
169 C 42
42 CR 169
169 D 107
107 DR 169
169 D 18
18 DR 169
169 B 51
51 BR 169
169 D 152
152 DR 169
169 B 24
24 BR 169
169 D 26
26 DR 169
170 C 1
1 CR 170
170 D 5
5 DR 170
170 B 37
37 BR 170
170 B 109
109 BR 170
170 C 113
113 CR 170
170 D 20
20 DR 170
170 C 119
119 CR 170
170 D 25
25 DR 170
170 C 93
93 CR 170
170 A 57
57 AR 170
171 A 6
6 AR 171
171 C 8
8 CR 171
171 D 73
73 DR 171
171 C 42
42 CR 171
171 A 107
107 AR 171
171 C 44
44 CR 171
171 C 13
13 CR 171
171 D 15
15 DR 171
171 C 19
19 CR 171
171 A 31
31 AR 171
172 C 33
33 CR 172
172 D 2
2 DR 172
172 D 66
66 DR 172
172 D 3
3 DR 172
172 B 8
8 BR 172
172 D 170
170 DR 172
172 B 45
45 BR 172
172 B 109
109 BR 172
172 C 22
22 CR 172
172 D 29
29 DR 172
173 B 0
0 BR 173
173 D 2
2 DR 173
173 D 3
3 DR 173
173 D 70
70 DR 173
173 A 20
20 AR 173
173 A 52
52 AR 173
173 B 24
24 BR 173
173 C 153
153 CR 173
173 D 27
27 DR 173
173 C 57
57 CR 173
174 D 4
4 DR 174
174 B 7
7 BR 174
174 C 42
42 CR 174
174 C 11
11 CR 174
174 D 12
12 DR 174
174 B 45
45 BR 174
174 A 75
75 AR 174
174 D 79
79 DR 174
174 B 51
51 BR 174
174 A 52
52 AR 174
175 D 161
161 DR 175
175 C 35
35 CR 175
175 A 6
6 AR 175
175 C 8
8 CR 175
175 B 12
12 BR 175
175 D 109
109 DR 175
175 B 15
15 BR 175
175 B 22
22 BR 175
175 D 27
27 DR 175
175 D 124
124 DR 175
176 B 96
96 BR 176
176 B 33
33 BR 176
176 B 35
35 BR 176
176 A 8
8 AR 176
176 B 11
11 BR 176
176 C 75
75 CR 176
176 B 85
85 BR 176
176 C 150
150 CR 176
176 D 29
29 DR 176
176 D 126
126 DR 176
177 C 8
8 CR 177
177 A 10
10 AR 177
177 B 75
75 BR 177
177 B 76
76 BR 177
177 D 15
15 DR 177
177 A 17
17 AR 177
177 C 82
82 CR 177
177 D 51
51 DR 177
177 D 59
59 DR 177
177 A 61
61 AR 177
178 B 66
66 BR 178
178 A 4
4 AR 178
178 D 5
5 DR 178
178 B 76
76 BR 178
178 A 44
44 AR 178
178 D 142
142 DR 178
178 D 143
143 DR 178
178 D 17
17 DR 178
178 B 57
57 BR 178
178 D 155
155 DR 178
179 C 65
65 CR 179
179 C 3
3 CR 179
179 D 7
7 DR 179
179 B 136
136 BR 179
179 A 42
42 AR 179
179 A 109
109 AR 179
179 A 51
51 AR 179
179 D 20
20 DR 179
179 B 118
118 BR 179
179 C 27
27 CR 179
180 D 0
0 DR 180
180 C 97
97 CR 180
180 B 8
8 BR 180
180 B 106
106 BR 180
180 C 76
76 CR 180
180 C 174
174 CR 180
180 B 52
52 BR 180
180 C 27
27 CR 180
180 D 124
124 DR 180
180 D 29
29 DR 180
181 B 98
98 BR 181
181 D 7
7 DR 181
181 D 8
8 DR 181
181 D 137
137 DR 181
181 C 43
43 CR 181
181 C 172
172 CR 181
181 C 21
21 CR 181
181 C 153
153 CR 181
181 B 26
26 BR 181
181 B 92
92 BR 181
182 B 2
2 BR 182
182 D 134
134 DR 182
182 A 73
73 AR 182
182 B 10
10 BR 182
182 B 43
43 BR 182
182 D 140
140 DR 182
182 B 173
173 BR 182
182 A 12
12 AR 182
182 D 137
137 DR 182
182 B 49
49 BR 182
183 A 1
1 AR 183
183 A 98
98 AR 183
183 A 140
140 AR 183
183 B 112
112 BR 183
183 B 115
115 BR 183
183 D 147
147 DR 183
183 D 91
91 DR 183
183 C 125
125 CR 183
183 D 158
158 DR 183
183 D 31
31 DR 183
184 A 1
1 AR 184
184 B 37
37 BR 184
184 A 74
74 AR 184
184 C 76
76 CR 184
184 B 48
48 BR 184
184 C 19
19 CR 184
184 B 179
179 BR 184
184 C 115
115 CR 184
184 B 151
151 BR 184
184 B 89
89 BR 184
185 B 33
33 BR 185
185 C 98
98 CR 185
185 C 34
34 CR 185
185 A 35
35 AR 185
185 B 5
5 BR 185
185 A 102
102 AR 185
185 C 6
6 CR 185
185 A 8
8 AR 185
185 C 51
51 CR 185
185 A 29
29 AR 185
186 C 67
67 CR 186
186 D 5
5 DR 186
186 D 166
166 DR 186
186 A 6
6 AR 186
186 B 107
107 BR 186
186 D 43
43 DR 186
186 A 181
181 AR 186
186 C 24
24 CR 186
186 D 27
27 DR 186
186 A 152
152 AR 186
187 B 1
1 BR 187
187 A 2
2 AR 187
187 C 36
36 CR 187
187 B 5
5 BR 187
187 B 37
37 BR 187
187 A 6
6 AR 187
187 C 136
136 CR 187
187 A 10
10 AR 187
187 D 57
57 DR 187
187 A 155
155 AR 187
188 C 9
9 CR 188
188 B 41
41 BR 188
188 D 169
169 DR 188
188 D 76
76 DR 188
188 D 48
48 DR 188
188 A 147
147 AR 188
188 C 180
180 CR 188
188 D 115
115 DR 188
188 A 22
22 AR 188
188 A 29
29 AR 188
189 D 135
135 DR 189
189 D 8
8 DR 189
189 D 44
44 DR 189
189 A 46
46 AR 189
189 C 143
143 CR 189
189 C 20
20 CR 189
189 A 118
118 AR 189
189 C 151
151 CR 189
189 A 157
157 AR 189
189 B 30
30 BR 189
190 A 33
33 AR 190
190 B 5
5 BR 190
190 B 38
38 BR 190
190 B 11
11 BR 190
190 A 146
146 AR 190
190 D 51
51 DR 190
190 B 152
152 BR 190
190 C 56
56 CR 190
190 B 27
27 BR 190
190 B 29
29 BR 190
191 B 2
2 BR 191
191 D 67
67 DR 191
191 A 40
40 AR 191
191 C 9
9 CR 191
191 B 41
41 BR 191
191 D 8
8 DR 191
191 D 76
76 DR 191
191 B 50
50 BR 191
191 D 151
151 DR 191
191 C 159
159 CR 191
192 B 32
32 BR 192
192 A 98
98 AR 192
192 A 163
163 AR 192
192 B 4
4 BR 192
192 D 68
68 DR 192
192 C 6
6 CR 192
192 D 7
7 DR 192
192 D 103
103 DR 192
192 B 174
174 BR 192
192 B 63
63 BR 192
193 A 64
64 AR 193
193 B 8
8 BR 193
193 A 169
169 AR 193
193 D 10
10 DR 193
193 B 14
14 BR 193
193 D 143
143 DR 193
193 D 80
80 DR 193
193 A 110
110 AR 193
193 C 117
117 CR 193
193 A 93
93 AR 193
194 C 89
89 CR 194
194 A 1
1 AR 194
194 B 4
4 BR 194
194 C 68
68 CR 194
194 D 104
104 DR 194
194 B 105
105 BR 194
194 B 45
45 BR 194
194 A 50
50 AR 194
194 B 25
25 BR 194
194 A 26
26 AR 194
195 A 2
2 AR 195
195 C 3
3 CR 195
195 D 68
68 DR 195
195 B 71
71 BR 195
195 C 9
9 CR 195
195 D 42
42 DR 195
195 D 110
110 DR 195
195 D 182
182 DR 195
195 D 24
24 DR 195
195 A 95
95 AR 195
196 D 0
0 DR 196
196 C 34
34 CR 196
196 B 6
6 BR 196
196 B 10
10 BR 196
196 A 43
43 AR 196
196 A 108
108 AR 196
196 C 20
20 CR 196
196 C 154
154 CR 196
196 D 91
91 DR 196
196 B 126
126 BR 196
197 D 160
160 DR 197
197 D 1
1 DR 197
197 D 70
70 DR 197
197 D 38
38 DR 197
197 D 7
7 DR 197
197 B 79
79 BR 197
197 B 148
148 BR 197
197 A 54
54 AR 197
197 A 121
121 AR 197
197 B 127
127 BR 197
198 A 97
97 AR 198
198 C 5
5 CR 198
198 C 6
6 CR 198
198 C 40
40 CR 198
198 B 9
9 BR 198
198 A 44
44 AR 198
198 A 77
77 AR 198
198 C 110
110 CR 198
198 D 18
18 DR 198
198 A 31
31 AR 198
199 A 192
192 AR 199
199 A 66
66 AR 199
199 B 100
100 BR 199
199 B 137
137 BR 199
199 B 141
141 BR 199
199 C 81
81 CR 199
199 D 82
82 DR 199
199 D 177
177 DR 199
199 C 181
181 CR 199
199 A 23
23 AR 199
200 D 32
32 DR 200
200 B 161
161 BR 200
200 B 35
35 BR 200
200 D 37
37 DR 200
200 C 72
72 CR 200
200 A 9
9 AR 200
200 C 10
10 CR 200
200 C 170
170 CR 200
200 C 44
44 CR 200
200 D 169
169 DR 200
201 D 1
1 DR 201
201 C 2
2 CR 201
201 D 66
66 DR 201
201 D 4
4 DR 201
201 B 167
167 BR 201
201 D 78
78 DR 201
201 B 54
54 BR 201
201 A 87
87 AR 201
201 B 57
57 BR 201
201 C 28
28 CR 201
202 D 161
161 DR 202
202 B 34
34 BR 202
202 D 35
35 DR 202
202 D 10
10 DR 202
202 A 50
50 AR 202
202 C 51
51 CR 202
202 D 185
185 DR 202
202 B 90
90 BR 202
202 B 61
61 BR 202
202 C 57
57 CR 202
203 A 0
0 AR 203
203 D 196
196 DR 203
203 A 6
6 AR 203
203 B 45
45 BR 203
203 A 79
79 AR 203
203 B 48
48 BR 203
203 A 112
112 AR 203
203 C 18
18 CR 203
203 A 86
86 AR 203
203 A 185
185 AR 203
204 C 165
165 CR 204
204 D 103
103 DR 204
204 B 14
14 BR 204
204 D 112
112 DR 204
204 A 51
51 AR 204
204 D 180
180 DR 204
204 D 117
117 DR 204
204 A 24
24 AR 204
204 B 57
57 BR 204
204 B 125
125 BR 204
205 A 96
96 AR 205
205 C 1
1 CR 205
205 A 97
97 AR 205
205 A 7
7 AR 205
205 B 105
105 BR 205
205 B 42
42 BR 205
205 B 138
138 BR 205
205 D 175
175 DR 205
205 C 93
93 CR 205
205 D 30
30 DR 205
206 C 33
33 CR 206
206 C 153
153 CR 206
206 D 3
3 DR 206
206 A 5
5 AR 206
206 B 8
8 BR 206
206 A 46
46 AR 206
206 A 176
176 AR 206
206 A 51
51 AR 206
206 B 121
121 BR 206
206 A 187
187 AR 206
207 B 3
3 BR 207
207 D 4
4 DR 207
207 B 38
38 BR 207
207 C 137
137 CR 207
207 D 10
10 DR 207
207 C 13
13 CR 207
207 C 14
14 CR 207
207 C 111
111 CR 207
207 D 24
24 DR 207
207 D 57
57 DR 207
208 C 4
4 CR 208
208 A 68
68 AR 208
208 C 70
70 CR 208
208 C 102
102 CR 208
208 D 205
205 DR 208
208 B 178
178 BR 208
208 D 19
19 DR 208
208 A 84
84 AR 208
208 C 29
29 CR 208
208 D 61
61 DR 208
209 B 33
33 BR 209
209 A 3
3 AR 209
209 A 8
8 AR 209
209 D 10
10 DR 209
209 C 171
171 CR 209
209 A 17
17 AR 209
209 B 83
83 BR 209
209 B 20
20 BR 209
209 A 119
119 AR 209
209 A 60
60 AR 209
210 C 33
33 CR 210
210 D 199
199 DR 210
210 D 200
200 DR 210
210 C 202
202 CR 210
210 B 143
143 BR 210
210 C 114
114 CR 210
210 B 179
179 BR 210
210 A 152
152 AR 210
210 C 58
58 CR 210
210 C 157
157 CR 210
211 D 1
1 DR 211
211 B 99
99 BR 211
211 D 3
3 DR 211
211 C 39
39 CR 211
211 A 12
12 AR 211
211 D 78
78 DR 211
211 B 208
208 BR 211
211 A 24
24 AR 211
211 A 59
59 AR 211
211 B 28
28 BR 211
212 A 8
8 AR 212
212 A 9
9 AR 212
212 B 137
137 BR 212
212 A 10
10 AR 212
212 A 12
12 AR 212
212 D 17
17 DR 212
212 D 211
211 DR 212
212 D 120
120 DR 212
212 C 30
30 CR 212
212 C 127
127 CR 212
213 C 0
0 CR 213
213 D 193
193 DR 213
213 B 34
34 BR 213
213 D 41
41 DR 213
213 C 9
9 CR 213
213 D 149
149 DR 213
213 C 118
118 CR 213
213 A 59
59 AR 213
213 A 127
127 AR 213
213 A 31
31 AR 213
214 D 10
10 DR 214
214 D 80
80 DR 214
214 D 124
124 DR 214
214 A 21
21 AR 214
214 C 182
182 CR 214
214 D 118
118 DR 214
214 B 57
57 BR 214
214 D 91
91 DR 214
214 D 31
31 DR 214
214 D 191
191 DR 214
215 D 1
1 DR 215
215 D 36
36 DR 215
215 A 5
5 AR 215
215 A 6
6 AR 215
215 A 39
39 AR 215
215 C 137
137 CR 215
215 D 140
140 DR 215
215 A 146
146 AR 215
215 B 21
21 BR 215
215 A 152
152 AR 215
216 D 65
65 DR 216
216 A 6
6 AR 216
216 D 199
199 DR 216
216 D 180
180 DR 216
216 D 22
22 DR 216
216 A 23
23 AR 216
216 C 152
152 CR 216
216 D 25
25 DR 216
216 A 123
123 AR 216
216 A 28
28 AR 216
217 D 64
64 DR 217
217 C 35
35 CR 217
217 A 165
165 AR 217
217 D 5
5 DR 217
217 C 138
138 CR 217
217 D 81
81 DR 217
217 D 114
114 DR 217
217 C 50
50 CR 217
217 A 22
22 AR 217
217 A 57
57 AR 217
218 D 2
2 DR 218
218 A 5
5 AR 218
218 D 6
6 DR 218
218 B 9
9 BR 218
218 A 75
75 AR 218
218 D 140
140 DR 218
218 A 16
16 AR 218
218 B 51
51 BR 218
218 D 24
24 DR 218
218 A 153
153 AR 218
219 B 67
67 BR 219
219 B 199
199 BR 219
219 A 205
205 AR 219
219 D 78
78 DR 219
219 A 80
80 AR 219
219 A 81
81 AR 219
219 D 49
49 DR 219
219 A 147
147 AR 219
219 B 27
27 BR 219
219 B 62
62 BR 219
220 C 0
0 CR 220
220 D 2
2 DR 220
220 D 5
5 DR 220
220 B 102
102 BR 220
220 D 9
9 DR 220
220 D 10
10 DR 220
220 B 74
74 BR 220
220 A 45
45 AR 220
220 B 143
143 BR 220
220 B 27
27 BR 220
221 D 68
68 DR 221
221 B 135
135 BR 221
221 D 43
43 DR 221
221 C 110
110 CR 221
221 A 80
80 AR 221
221 A 146
146 AR 221
221 C 18
18 CR 221
221 C 50
50 CR 221
221 A 181
181 AR 221
221 A 19
19 AR 221
222 D 1
1 DR 222
222 C 130
130 CR 222
222 D 3
3 DR 222
222 C 36
36 CR 222
222 B 72
72 BR 222
222 D 8
8 DR 222
222 D 9
9 DR 222
222 D 109
109 DR 222
222 C 18
18 CR 222
222 B 25
25 BR 222
223 A 32
32 AR 223
223 A 0
0 AR 223
223 C 100
100 CR 223
223 D 9
9 DR 223
223 D 76
76 DR 223
223 D 13
13 DR 223
223 B 15
15 BR 223
223 C 179
179 CR 223
223 B 117
117 BR 223
223 A 87
87 AR 223
224 C 0
0 CR 224
224 A 129
129 AR 224
224 C 5
5 CR 224
224 D 171
171 DR 224
224 D 77
77 DR 224
224 D 111
111 DR 224
224 C 208
208 CR 224
224 A 178
178 AR 224
224 C 21
21 CR 224
224 C 222
222 CR 224
225 D 0
0 DR 225
225 A 193
193 AR 225
225 C 35
35 CR 225
225 B 134
134 BR 225
225 C 39
39 CR 225
225 A 166
166 AR 225
225 B 82
82 BR 225
225 B 149
149 BR 225
225 C 184
184 CR 225
225 A 159
159 AR 225
226 C 3
3 CR 226
226 D 8
8 DR 226
226 D 59
59 DR 226
226 C 12
12 CR 226
226 A 13
13 AR 226
226 D 18
18 DR 226
226 B 180
180 BR 226
226 C 24
24 CR 226
226 D 155
155 DR 226
226 C 31
31 CR 226
227 B 0
0 BR 227
227 C 69
69 CR 227
227 D 104
104 DR 227
227 A 42
42 AR 227
227 D 43
43 DR 227
227 B 14
14 BR 227
227 D 209
209 DR 227
227 D 120
120 DR 227
227 D 57
57 DR 227
227 D 152
152 DR 227
228 C 3
3 CR 228
228 C 131
131 CR 228
228 C 5
5 CR 228
228 C 9
9 CR 228
228 D 137
137 DR 228
228 B 203
203 BR 228
228 A 18
18 AR 228
228 D 123
123 DR 228
228 D 61
61 DR 228
228 D 126
126 DR 228
229 A 99
99 AR 229
229 C 39
39 CR 229
229 D 103
103 DR 229
229 B 9
9 BR 229
229 B 205
205 BR 229
229 C 186
186 CR 229
229 C 27
27 CR 229
229 B 31
31 BR 229
229 C 62
62 CR 229
229 C 127
127 CR 229
230 A 35
35 AR 230
230 A 8
8 AR 230
230 D 41
41 DR 230
230 C 10
10 CR 230
230 D 12
12 DR 230
230 B 76
76 BR 230
230 A 78
78 AR 230
230 A 47
47 AR 230
230 B 18
18 BR 230
230 B 126
126 BR 230
231 D 226
226 DR 231
231 D 3
3 DR 231
231 A 99
99 AR 231
231 D 195
195 DR 231
231 C 73
73 CR 231
231 D 172
172 DR 231
231 C 206
206 CR 231
231 B 18
18 BR 231
231 C 50
50 CR 231
231 B 185
185 BR 231
232 D 33
33 DR 232
232 A 101
101 AR 232
232 B 69
69 BR 232
232 D 8
8 DR 232
232 C 202
202 CR 232
232 B 16
16 BR 232
232 A 93
93 AR 232
232 B 181
181 BR 232
232 D 29
29 DR 232
232 B 31
31 BR 232
233 B 1
1 BR 233
233 C 5
5 CR 233
233 C 70
70 CR 233
233 A 7
7 AR 233
233 C 232
232 CR 233
233 A 10
10 AR 233
233 A 13
13 AR 233
233 B 48
48 BR 233
233 A 116
116 AR 233
233 C 56
56 CR 233
234 C 194
194 CR 234
234 D 6
6 DR 234
234 A 8
8 AR 234
234 A 12
12 AR 234
234 B 172
172 BR 234
234 B 23
23 BR 234
234 D 21
21 DR 234
234 C 54
54 CR 234
234 D 87
87 DR 234
234 B 220
220 BR 234
235 A 97
97 AR 235
235 D 98
98 DR 235
235 B 101
101 BR 235
235 D 37
37 DR 235
235 B 8
8 BR 235
235 A 43
43 AR 235
235 A 12
12 AR 235
235 B 18
18 BR 235
235 B 24
24 BR 235
235 A 61
61 AR 235
236 B 64
64 BR 236
236 B 33
33 BR 236
236 A 5
5 AR 236
236 A 42
42 AR 236
236 A 13
13 AR 236
236 B 79
79 BR 236
236 B 112
112 BR 236
236 A 146
146 AR 236
236 A 21
21 AR 236
236 A 62
62 AR 236
237 D 129
129 DR 237
237 C 99
99 CR 237
237 D 207
207 DR 237
237 A 50
50 AR 237
237 D 211
211 DR 237
237 B 21
21 BR 237
237 C 87
87 CR 237
237 A 89
89 AR 237
237 D 91
91 DR 237
237 A 126
126 AR 237
238 B 3
3 BR 238
238 B 100
100 BR 238
238 A 5
5 AR 238
238 D 39
39 DR 238
238 D 136
136 DR 238
238 D 8
8 DR 238
238 A 75
75 AR 238
238 C 79
79 CR 238
238 B 53
53 BR 238
238 B 182
182 BR 238
239 D 37
37 DR 239
239 B 71
71 BR 239
239 A 42
42 AR 239
239 B 139
139 BR 239
239 C 140
140 CR 239
239 A 18
18 AR 239
239 A 153
153 AR 239
239 B 26
26 BR 239
239 A 93
93 AR 239
239 D 31
31 DR 239
240 B 33
33 BR 240
240 A 66
66 AR 240
240 C 134
134 CR 240
240 D 11
11 DR 240
240 D 14
14 DR 240
240 D 208
208 DR 240
240 A 19
19 AR 240
240 A 85
85 AR 240
240 C 186
186 CR 240
240 D 126
126 DR 240
241 B 0
0 BR 241
241 D 224
224 DR 241
241 C 162
162 CR 241
241 B 37
37 BR 241
241 D 10
10 DR 241
241 C 108
108 CR 241
241 C 45
45 CR 241
241 D 48
48 DR 241
241 B 217
217 BR 241
241 A 61
61 AR 241
242 C 65
65 CR 242
242 B 1
1 BR 242
242 D 3
3 DR 242
242 C 68
68 CR 242
242 C 5
5 CR 242
242 B 36
36 BR 242
242 D 11
11 DR 242
242 B 43
43 BR 242
242 B 15
15 BR 242
242 B 87
87 BR 242
243 A 195
195 AR 243
243 C 164
164 CR 243
243 B 71
71 BR 243
243 C 39
39 CR 243
243 B 9
9 BR 243
243 C 79
79 CR 243
243 A 208
208 AR 243
243 C 209
209 CR 243
243 B 22
22 BR 243
243 D 124
124 DR 243
244 A 192
192 AR 244
244 C 225
225 CR 244
244 D 227
227 DR 244
244 A 217
217 AR 244
244 A 69
69 AR 244
244 D 40
40 DR 244
244 C 10
10 CR 244
244 C 57
57 CR 244
244 C 28
28 CR 244
244 D 126
126 DR 244
245 B 33
33 BR 245
245 A 3
3 AR 245
245 D 35
35 DR 245
245 C 40
40 CR 245
245 D 10
10 DR 245
245 B 109
109 BR 245
245 B 78
78 BR 245
245 B 15
15 BR 245
245 D 121
121 DR 245
245 A 90
90 AR 245
246 A 129
129 AR 246
246 B 2
2 BR 246
246 B 3
3 BR 246
246 A 130
130 AR 246
246 D 5
5 DR 246
246 A 72
72 AR 246
246 A 48
48 AR 246
246 C 83
83 CR 246
246 A 118
118 AR 246
246 A 220
220 AR 246
247 A 98
98 AR 247
247 B 35
35 BR 247
247 B 3
3 BR 247
247 D 5
5 DR 247
247 B 71
71 BR 247
247 C 44
44 CR 247
247 B 208
208 BR 247
247 A 18
18 AR 247
247 A 19
19 AR 247
247 A 151
151 AR 247
248 D 137
137 DR 248
248 C 143
143 CR 248
248 D 115
115 DR 248
248 D 243
243 DR 248
248 D 20
20 DR 248
248 B 19
19 BR 248
248 B 149
149 BR 248
248 C 245
245 CR 248
248 C 57
57 CR 248
248 A 29
29 AR 248
249 B 1
1 BR 249
249 B 98
98 BR 249
249 A 3
3 AR 249
249 A 197
197 AR 249
249 C 8
8 CR 249
249 B 42
42 BR 249
249 C 45
45 CR 249
249 D 177
177 DR 249
249 D 220
220 DR 249
249 B 158
158 BR 249
250 C 68
68 CR 250
250 D 7
7 DR 250
250 A 42
42 AR 250
250 D 106
106 DR 250
250 D 108
108 DR 250
250 A 45
45 AR 250
250 C 114
114 CR 250
250 A 52
52 AR 250
250 D 87
87 DR 250
250 B 184
184 BR 250
251 C 35
35 CR 251
251 B 36
36 BR 251
251 B 101
101 BR 251
251 C 8
8 CR 251
251 A 10
10 AR 251
251 D 172
172 DR 251
251 B 18
18 BR 251
251 A 181
181 AR 251
251 A 22
22 AR 251
251 B 152
152 BR 251
252 D 0
0 DR 252
252 C 34
34 CR 252
252 A 36
36 AR 252
252 B 165
165 BR 252
252 D 5
5 DR 252
252 B 9
9 BR 252
252 B 107
107 BR 252
252 A 49
49 AR 252
252 A 51
51 AR 252
252 C 220
220 CR 252
253 A 128
128 AR 253
253 D 153
153 DR 253
253 C 130
130 CR 253
253 B 67
67 BR 253
253 A 39
39 AR 253
253 B 56
56 BR 253
253 A 25
25 AR 253
253 D 60
60 DR 253
253 B 61
61 BR 253
253 A 57
57 AR 253
254 B 161
161 BR 254
254 D 66
66 DR 254
254 C 163
163 CR 254
254 A 195
195 AR 254
254 A 5
5 AR 254
254 B 39
39 BR 254
254 D 204
204 DR 254
254 B 82
82 BR 254
254 C 52
52 CR 254
254 D 27
27 DR 254
255 A 33
33 AR 255
255 C 227
227 CR 255
255 C 6
6 CR 255
255 D 39
39 DR 255
255 B 8
8 BR 255
255 A 236
236 AR 255
255 D 147
147 DR 255
255 C 115
115 CR 255
255 B 248
248 BR 255
255 D 124
124 DR 255
256 C 3
3 CR 256
256 D 195
195 DR 256
256 B 198
198 BR 256
256 A 6
6 AR 256
256 A 111
111 AR 256
256 D 209
209 DR 256
256 D 52
52 DR 256
256 D 86
86 DR 256
256 C 246
246 CR 256
256 D 59
59 DR 256
257 D 1
1 DR 257
257 D 195
195 DR 257
257 D 6
6 DR 257
257 D 71
71 DR 257
257 B 106
106 BR 257
257 A 235
235 AR 257
257 D 146
146 DR 257
257 A 53
53 AR 257
257 C 87
87 CR 257
257 A 94
94 AR 257
258 C 193
193 CR 258
258 D 3
3 DR 258
258 A 163
163 AR 258
258 A 5
5 AR 258
258 C 197
197 CR 258
258 C 7
7 CR 258
258 A 11
11 AR 258
258 B 246
246 BR 258
258 D 61
61 DR 258
258 C 254
254 CR 258
259 C 32
32 CR 259
259 C 3
3 CR 259
259 D 68
68 DR 259
259 B 6
6 BR 259
259 D 9
9 DR 259
259 B 202
202 BR 259
259 D 10
10 DR 259
259 C 13
13 CR 259
259 D 151
151 DR 259
259 B 255
255 BR 259
260 C 0
0 CR 260
260 C 33
33 CR 260
260 B 3
3 BR 260
260 C 164
164 CR 260
260 D 68
68 DR 260
260 B 9
9 BR 260
260 D 237
237 DR 260
260 C 114
114 CR 260
260 A 21
21 AR 260
260 D 59
59 DR 260
261 B 64
64 BR 261
261 B 227
227 BR 261
261 A 228
228 AR 261
261 A 9
9 AR 261
261 B 44
44 BR 261
261 D 141
141 DR 261
261 C 80
80 CR 261
261 B 17
17 BR 261
261 D 124
124 DR 261
261 B 94
94 BR 261
262 B 0
0 BR 262
262 B 1
1 BR 262
262 D 3
3 DR 262
262 A 74
74 AR 262
262 D 107
107 DR 262
262 D 14
14 DR 262
262 B 146
146 BR 262
262 C 53
53 CR 262
262 C 248
248 CR 262
262 C 91
91 CR 262
263 B 32
32 BR 263
263 A 3
3 AR 263
263 C 6
6 CR 263
263 B 43
43 BR 263
263 C 46
46 CR 263
263 B 50
50 BR 263
263 B 18
18 BR 263
263 A 181
181 AR 263
263 B 59
59 BR 263
263 C 30
30 CR 263
264 C 33
33 CR 264
264 D 259
259 DR 264
264 A 197
197 AR 264
264 C 5
5 CR 264
264 A 70
70 AR 264
264 C 6
6 CR 264
264 B 170
170 BR 264
264 A 140
140 AR 264
264 A 121
121 AR 264
264 A 28
28 AR 264
265 A 132
132 AR 265
265 C 7
7 CR 265
265 D 169
169 DR 265
265 B 106
106 BR 265
265 D 13
13 DR 265
265 B 15
15 BR 265
265 C 48
48 CR 265
265 C 17
17 CR 265
265 D 157
157 DR 265
265 B 31
31 BR 265
266 B 36
36 BR 266
266 A 44
44 AR 266
266 C 206
206 CR 266
266 A 78
78 AR 266
266 A 112
112 AR 266
266 C 241
241 CR 266
266 A 82
82 AR 266
266 B 83
83 BR 266
266 B 58
58 BR 266
266 B 156
156 BR 266
267 D 224
224 DR 267
267 A 1
1 AR 267
267 D 2
2 DR 267
267 A 8
8 AR 267
267 A 204
204 AR 267
267 B 78
78 BR 267
267 C 79
79 CR 267
267 D 82
82 DR 267
267 D 147
147 DR 267
267 A 221
221 AR 267
268 B 0
0 BR 268
268 A 89
89 AR 268
268 A 162
162 AR 268
268 B 132
132 BR 268
268 C 10
10 CR 268
268 C 80
80 CR 268
268 B 146
146 BR 268
268 C 153
153 CR 268
268 D 31
31 DR 268
268 C 57
57 CR 268
269 B 32
32 BR 269
269 D 3
3 DR 269
269 A 259
259 AR 269
269 D 9
9 DR 269
269 B 204
204 BR 269
269 A 48
48 AR 269
269 B 242
242 BR 269
269 D 57
57 DR 269
269 A 221
221 AR 269
269 A 94
94 AR 269
270 C 1
1 CR 270
270 C 66
66 CR 270
270 C 261
261 CR 270
270 B 6
6 BR 270
270 A 39
39 AR 270
270 C 172
172 CR 270
270 C 12
12 CR 270
270 C 177
177 CR 270
270 A 149
149 AR 270
270 B 28
28 BR 270
271 D 33
33 DR 271
271 D 3
3 DR 271
271 C 229
229 CR 271
271 B 10
10 BR 271
271 D 11
11 DR 271
271 D 12
12 DR 271
271 D 146
146 DR 271
271 B 116
116 BR 271
271 C 188
188 CR 271
271 D 191
191 DR 271
272 B 3
3 BR 272
272 A 7
7 AR 272
272 C 264
264 CR 272
272 C 40
40 CR 272
272 B 8
8 BR 272
272 D 77
77 DR 272
272 B 17
17 BR 272
272 D 22
22 DR 272
272 A 56
56 AR 272
272 A 152
152 AR 272
273 B 1
1 BR 273
273 D 162
162 DR 273
273 B 3
3 BR 273
273 C 227
227 CR 273
273 C 39
39 CR 273
273 A 236
236 AR 273
273 D 77
77 DR 273
273 B 79
79 BR 273
273 D 16
16 DR 273
273 A 89
89 AR 273
274 B 161
161 BR 274
274 B 4
4 BR 274
274 B 6
6 BR 274
274 A 70
70 AR 274
274 B 8
8 BR 274
274 B 202
202 BR 274
274 C 12
12 CR 274
274 D 205
205 DR 274
274 D 44
44 DR 274
274 A 89
89 AR 274
275 A 1
1 AR 275
275 D 129
129 DR 275
275 D 38
38 DR 275
275 A 8
8 AR 275
275 D 107
107 DR 275
275 B 187
187 BR 275
275 D 110
110 DR 275
275 B 15
15 BR 275
275 B 174
174 BR 275
275 D 251
251 DR 275
276 C 0
0 CR 276
276 C 38
38 CR 276
276 D 200
200 DR 276
276 D 12
12 DR 276
276 C 78
78 CR 276
276 B 19
19 BR 276
276 D 244
244 DR 276
276 D 84
84 DR 276
276 C 89
89 CR 276
276 A 189
189 AR 276
277 C 1
1 CR 277
277 A 97
97 AR 277
277 B 195
195 BR 277
277 A 167
167 AR 277
277 D 202
202 DR 277
277 A 176
176 AR 277
277 A 84
84 AR 277
277 B 182
182 BR 277
277 D 22
22 DR 277
277 B 187
187 BR 277
278 C 2
2 CR 278
278 D 4
4 DR 278
278 C 135
135 CR 278
278 D 199
199 DR 278
278 A 265
265 AR 278
278 B 48
48 BR 278
278 D 49
49 DR 278
278 A 214
214 AR 278
278 D 153
153 DR 278
278 D 220
220 DR 278
279 C 0
0 CR 279
279 C 3
3 CR 279
279 D 5
5 DR 279
279 B 8
8 BR 279
279 D 173
173 DR 279
279 B 115
115 BR 279
279 A 54
54 AR 279
279 C 151
151 CR 279
279 C 28
28 CR 279
279 C 221
221 CR 279
280 B 160
160 BR 280
280 D 6
6 DR 280
280 C 74
74 CR 280
280 D 43
43 DR 280
280 C 140
140 CR 280
280 C 146
146 CR 280
280 B 147
147 BR 280
280 B 20
20 BR 280
280 A 182
182 AR 280
280 C 254
254 CR 280
281 A 4
4 AR 281
281 A 6
6 AR 281
281 A 8
8 AR 281
281 B 187
187 BR 281
281 D 14
14 DR 281
281 A 118
118 AR 281
281 C 214
214 CR 281
281 C 90
90 CR 281
281 B 59
59 BR 281
281 C 31
31 CR 281
282 A 131
131 AR 282
282 D 7
7 DR 282
282 A 105
105 AR 282
282 A 10
10 AR 282
282 B 12
12 BR 282
282 B 79
79 BR 282
282 A 18
18 AR 282
282 D 24
24 DR 282
282 C 89
89 CR 282
282 A 60
60 AR 282
283 D 1
1 DR 283
283 B 2
2 BR 283
283 B 195
195 BR 283
283 B 233
233 BR 283
283 A 107
107 AR 283
283 D 45
45 DR 283
283 A 13
13 AR 283
283 A 48
48 AR 283
283 D 56
56 DR 283
283 D 155
155 DR 283
284 C 32
32 CR 284
284 B 70
70 BR 284
284 A 7
7 AR 284
284 D 8
8 DR 284
284 C 200
200 CR 284
284 D 250
250 DR 284
284 B 174
174 BR 284
284 A 143
143 AR 284
284 A 279
279 AR 284
284 B 218
218 BR 284
285 C 97
97 CR 285
285 C 129
129 CR 285
285 C 9
9 CR 285
285 D 14
14 DR 285
285 D 144
144 DR 285
285 B 20
20 BR 285
285 A 88
88 AR 285
285 A 27
27 AR 285
285 C 156
156 CR 285
285 B 190
190 BR 285
286 B 0
0 BR 286
286 A 39
39 AR 286
286 D 14
14 DR 286
286 C 112
112 CR 286
286 A 241
241 AR 286
286 B 242
242 BR 286
286 B 240
240 BR 286
286 D 157
157 DR 286
286 A 27
27 AR 286
286 B 29
29 BR 286
287 C 194
194 CR 287
287 A 259
259 AR 287
287 D 3
3 DR 287
287 C 202
202 CR 287
287 A 108
108 AR 287
287 B 273
273 BR 287
287 C 117
117 CR 287
287 B 181
181 BR 287
287 A 218
218 AR 287
287 D 95
95 DR 287
288 D 97
97 DR 288
288 D 225
225 DR 288
288 D 33
33 DR 288
288 A 68
68 AR 288
288 A 237
237 AR 288
288 A 52
52 AR 288
288 A 21
21 AR 288
288 C 277
277 CR 288
288 B 25
25 BR 288
288 A 62
62 AR 288
289 A 2
2 AR 289
289 B 3
3 BR 289
289 A 198
198 AR 289
289 A 105
105 AR 289
289 C 139
139 CR 289
289 A 203
203 AR 289
289 A 174
174 AR 289
289 B 182
182 BR 289
289 A 90
90 AR 289
289 D 251
251 DR 289
290 B 256
256 BR 290
290 B 194
194 BR 290
290 D 5
5 DR 290
290 A 186
186 AR 290
290 D 9
9 DR 290
290 C 17
17 CR 290
290 B 18
18 BR 290
290 A 275
275 AR 290
290 B 89
89 BR 290
290 C 282
282 CR 290
291 D 35
35 DR 291
291 D 5
5 DR 291
291 B 6
6 BR 291
291 B 8
8 BR 291
291 D 9
9 DR 291
291 D 13
13 DR 291
291 C 141
141 CR 291
291 B 143
143 BR 291
291 D 26
26 DR 291
291 A 221
221 AR 291
292 B 262
262 BR 292
292 B 39
39 BR 292
292 A 199
199 AR 292
292 B 42
42 BR 292
292 C 44
44 CR 292
292 D 272
272 DR 292
292 D 51
51 DR 292
292 C 116
116 CR 292
292 B 279
279 BR 292
292 B 30
30 BR 292
293 C 192
192 CR 293
293 D 36
36 DR 293
293 C 102
102 CR 293
293 D 10
10 DR 293
293 B 46
46 BR 293
293 C 272
272 CR 293
293 A 280
280 AR 293
293 A 57
57 AR 293
293 B 284
284 BR 293
293 A 255
255 AR 293
294 B 1
1 BR 294
294 B 6
6 BR 294
294 A 7
7 AR 294
294 A 39
39 AR 294
294 C 104
104 CR 294
294 D 139
139 DR 294
294 C 243
243 CR 294
294 B 87
87 BR 294
294 A 31
31 AR 294
294 C 127
127 CR 294
295 D 33
33 DR 295
295 A 228
228 AR 295
295 A 166
166 AR 295
295 C 6
6 CR 295
295 B 8
8 BR 295
295 B 105
105 BR 295
295 C 11
11 CR 295
295 C 205
205 CR 295
295 C 210
210 CR 295
295 D 22
22 DR 295
296 A 163
163 AR 296
296 A 135
135 AR 296
296 A 78
78 AR 296
296 B 207
207 BR 296
296 A 50
50 AR 296
296 B 19
19 BR 296
296 D 148
148 DR 296
296 D 22
22 DR 296
296 D 185
185 DR 296
296 B 57
57 BR 296
297 D 66
66 DR 297
297 C 6
6 CR 297
297 D 102
102 DR 297
297 B 264
264 BR 297
297 D 73
73 DR 297
297 D 106
106 DR 297
297 C 199
199 CR 297
297 B 44
44 BR 297
297 A 272
272 AR 297
297 B 17
17 BR 297
298 B 224
224 BR 298
298 A 162
162 AR 298
298 A 6
6 AR 298
298 C 135
135 CR 298
298 A 9
9 AR 298
298 A 13
13 AR 298
298 D 144
144 DR 298
298 D 147
147 DR 298
298 A 120
120 AR 298
298 B 58
58 BR 298
299 C 133
133 CR 299
299 D 38
38 DR 299
299 A 8
8 AR 299
299 B 11
11 BR 299
299 C 14
14 CR 299
299 A 18
18 AR 299
299 C 19
19 CR 299
299 D 275
275 DR 299
299 A 244
244 AR 299
299 B 24
24 BR 299
300 D 0
0 DR 300
300 C 1
1 CR 300
300 A 263
263 AR 300
300 D 168
168 DR 300
300 D 139
139 DR 300
300 D 141
141 DR 300
300 C 239
239 CR 300
300 A 84
84 AR 300
300 A 22
22 AR 300
300 A 219
219 AR 300
301 B 194
194 BR 301
301 D 290
290 DR 301
301 C 167
167 CR 301
301 B 209
209 BR 301
301 B 18
18 BR 301
301 C 19
19 CR 301
301 C 184
184 CR 301
301 A 24
24 AR 301
301 D 26
26 DR 301
301 C 30
30 CR 301
302 C 97
97 CR 302
302 D 2
2 DR 302
302 C 132
132 CR 302
302 C 279
279 CR 302
302 A 46
46 AR 302
302 D 15
15 DR 302
302 A 19
19 AR 302
302 B 215
215 BR 302
302 C 184
184 CR 302
302 B 220
220 BR 302
303 A 256
256 AR 303
303 C 2
2 CR 303
303 D 275
275 DR 303
303 A 20
20 AR 303
303 D 19
19 DR 303
303 D 149
149 DR 303
303 B 57
57 BR 303
303 C 158
158 CR 303
303 B 60
60 BR 303
303 B 126
126 BR 303
304 D 1
1 DR 304
304 B 5
5 BR 304
304 A 7
7 AR 304
304 B 10
10 BR 304
304 B 13
13 BR 304
304 D 14
14 DR 304
304 C 274
274 CR 304
304 D 20
20 DR 304
304 A 22
22 AR 304
304 D 60
60 DR 304
305 A 165
165 AR 305
305 D 6
6 DR 305
305 D 39
39 DR 305
305 A 8
8 AR 305
305 D 10
10 DR 305
305 A 267
267 AR 305
305 A 45
45 AR 305
305 D 120
120 DR 305
305 B 29
29 BR 305
305 A 126
126 AR 305
306 D 98
98 DR 306
306 B 67
67 BR 306
306 A 4
4 AR 306
306 D 66
66 DR 306
306 C 38
38 CR 306
306 B 8
8 BR 306
306 C 14
14 CR 306
306 B 24
24 BR 306
306 B 28
28 BR 306
306 D 93
93 DR 306
307 A 2
2 AR 307
307 D 8
8 DR 307
307 B 9
9 BR 307
307 B 137
137 BR 307
307 B 236
236 BR 307
307 B 142
142 BR 307
307 C 79
79 CR 307
307 B 82
82 BR 307
307 C 59
59 CR 307
307 A 157
157 AR 307
308 A 0
0 AR 308
308 D 192
192 DR 308
308 C 2
2 CR 308
308 A 41
41 AR 308
308 C 139
139 CR 308
308 D 12
12 DR 308
308 B 269
269 BR 308
308 A 182
182 AR 308
308 D 89
89 DR 308
308 B 27
27 BR 308
309 C 3
3 CR 309
309 B 68
68 BR 309
309 C 67
67 CR 309
309 B 9
9 BR 309
309 B 11
11 BR 309
309 A 16
16 AR 309
309 A 180
180 AR 309
309 A 52
52 AR 309
309 B 120
120 BR 309
309 D 29
29 DR 309
310 C 0
0 CR 310
310 B 2
2 BR 310
310 B 5
5 BR 310
310 D 236
236 DR 310
310 B 207
207 BR 310
310 A 303
303 AR 310
310 B 18
18 BR 310
310 A 54
54 AR 310
310 B 57
57 BR 310
310 A 221
221 AR 310
311 C 1
1 CR 311
311 A 135
135 AR 311
311 A 10
10 AR 311
311 C 12
12 CR 311
311 B 301
301 BR 311
311 A 44
44 AR 311
311 B 14
14 BR 311
311 A 214
214 AR 311
311 B 221
221 BR 311
311 D 93
93 DR 311
312 A 64
64 AR 312
312 B 1
1 BR 312
312 D 195
195 DR 312
312 D 141
141 DR 312
312 D 173
173 DR 312
312 A 109
109 AR 312
312 B 245
245 BR 312
312 B 24
24 BR 312
312 C 284
284 CR 312
312 D 61
61 DR 312
313 C 256
256 CR 313
313 C 42
42 CR 313
313 B 301
301 BR 313
313 D 251
251 DR 313
313 B 19
19 BR 313
313 B 181
181 BR 313
313 C 182
182 CR 313
313 A 56
56 AR 313
313 B 57
57 BR 313
313 B 123
123 BR 313
314 B 194
194 BR 314
314 D 195
195 DR 314
314 C 102
102 CR 314
314 C 40
40 CR 314
314 C 73
73 CR 314
314 C 108
108 CR 314
314 B 20
20 BR 314
314 D 214
214 DR 314
314 C 313
313 CR 314
314 B 90
90 BR 314
315 C 66
66 CR 315
315 B 67
67 BR 315
315 B 44
44 BR 315
315 A 14
14 AR 315
315 D 143
143 DR 315
315 A 272
272 AR 315
315 D 79
79 DR 315
315 A 22
22 AR 315
315 A 61
61 AR 315
315 C 63
63 CR 315
316 A 98
98 AR 316
316 D 4
4 DR 316
316 C 39
39 CR 316
316 D 104
104 DR 316
316 C 171
171 CR 316
316 B 15
15 BR 316
316 D 52
52 DR 316
316 D 311
311 DR 316
316 A 25
25 AR 316
316 A 282
282 AR 316
317 C 98
98 CR 317
317 A 5
5 AR 317
317 A 37
37 AR 317
317 C 9
9 CR 317
317 A 12
12 AR 317
317 C 19
19 CR 317
317 B 21
21 BR 317
317 D 120
120 DR 317
317 B 283
283 BR 317
317 B 93
93 BR 317
318 D 192
192 DR 318
318 B 297
297 BR 318
318 C 142
142 CR 318
318 C 111
111 CR 318
318 D 82
82 DR 318
318 B 51
51 BR 318
318 D 309
309 DR 318
318 D 22
22 DR 318
318 C 152
152 CR 318
318 D 122
122 DR 318
319 D 32
32 DR 319
319 D 1
1 DR 319
319 A 34
34 AR 319
319 D 8
8 DR 319
319 C 10
10 CR 319
319 A 44
44 AR 319
319 C 274
274 CR 319
319 A 21
21 AR 319
319 D 182
182 DR 319
319 B 150
150 BR 319
320 C 96
96 CR 320
320 D 289
289 DR 320
320 D 132
132 DR 320
320 B 174
174 BR 320
320 B 180
180 BR 320
320 D 149
149 DR 320
320 A 217
217 AR 320
320 B 315
315 BR 320
320 C 156
156 CR 320
320 D 317
317 DR 320
321 A 0
0 AR 321
321 A 3
3 AR 321
321 A 5
5 AR 321
321 D 261
261 DR 321
321 B 201
201 BR 321
321 A 42
42 AR 321
321 A 45
45 AR 321
321 B 119
119 BR 321
321 C 93
93 CR 321
321 C 94
94 CR 321
322 D 224
224 DR 322
322 C 196
196 CR 322
322 B 260
260 BR 322
322 C 6
6 CR 322
322 B 7
7 BR 322
322 B 198
198 BR 322
322 C 9
9 CR 322
322 B 171
171 BR 322
322 B 61
61 BR 322
322 B 157
157 BR 322
323 D 226
226 DR 323
323 D 98
98 DR 323
323 D 4
4 DR 323
323 A 5
5 AR 323
323 D 38
38 DR 323
323 D 234
234 DR 323
323 C 141
141 CR 323
323 C 80
80 CR 323
323 B 19
19 BR 323
323 B 148
148 BR 323
324 D 4
4 DR 324
324 A 37
37 AR 324
324 A 9
9 AR 324
324 A 50
50 AR 324
324 A 19
19 AR 324
324 A 149
149 AR 324
324 D 86
86 DR 324
324 B 153
153 BR 324
324 A 91
91 AR 324
324 A 190
190 AR 324
325 A 4
4 AR 325
325 A 137
137 AR 325
325 D 77
77 DR 325
325 C 78
78 CR 325
325 D 15
15 DR 325
325 D 13
13 DR 325
325 D 83
83 DR 325
325 B 308
308 BR 325
325 C 309
309 CR 325
325 A 219
219 AR 325
326 C 97
97 CR 326
326 C 137
137 CR 326
326 D 44
44 DR 326
326 A 13
13 AR 326
326 D 14
14 DR 326
326 C 180
180 CR 326
326 A 54
54 AR 326
326 B 182
182 BR 326
326 A 27
27 AR 326
326 A 316
316 AR 326
327 A 195
195 AR 327
327 D 41
41 DR 327
327 B 28
28 BR 327
327 A 304
304 AR 327
327 A 252
252 AR 327
327 C 53
53 CR 327
327 C 183
183 CR 327
327 D 25
25 DR 327
327 D 124
124 DR 327
327 C 157
157 CR 327
328 A 256
256 AR 328
328 C 65
65 CR 328
328 D 0
0 DR 328
328 B 3
3 BR 328
328 D 36
36 DR 328
328 D 42
42 DR 328
328 B 139
139 BR 328
328 A 267
267 AR 328
328 A 14
14 AR 328
328 C 94
94 CR 328
329 B 3
3 BR 329
329 C 38
38 CR 329
329 B 8
8 BR 329
329 C 264
264 CR 329
329 B 147
147 BR 329
329 B 148
148 BR 329
329 C 215
215 CR 329
329 A 25
25 AR 329
329 D 27
27 DR 329
329 C 30
30 CR 329
330 C 160
160 CR 330
330 C 162
162 CR 330
330 C 5
5 CR 330
330 A 203
203 AR 330
330 A 13
13 AR 330
330 B 143
143 BR 330
330 D 208
208 DR 330
330 C 53
53 CR 330
330 B 126
126 BR 330
330 A 223
223 AR 330
331 B 323
323 BR 331
331 A 6
6 AR 331
331 C 108
108 CR 331
331 D 12
12 DR 331
331 A 13
13 AR 331
331 C 143
143 CR 331
331 B 141
141 BR 331
331 C 315
315 CR 331
331 D 84
84 DR 331
331 D 27
27 DR 331
332 C 161
161 CR 332
332 B 38
38 BR 332
332 B 169
169 BR 332
332 A 106
106 AR 332
332 D 137
137 DR 332
332 B 236
236 BR 332
332 B 171
171 BR 332
332 C 111
111 CR 332
332 C 115
115 CR 332
332 C 124
124 CR 332
333 D 37
37 DR 333
333 C 199
199 CR 333
333 C 7
7 CR 333
333 D 172
172 DR 333
333 A 238
238 AR 333
333 B 270
270 BR 333
333 C 315
315 CR 333
333 A 18
18 AR 333
333 A 251
251 AR 333
333 C 127
127 CR 333
334 B 320
320 BR 334
334 B 1
1 BR 334
334 B 3
3 BR 334
334 C 233
233 CR 334
334 A 78
78 AR 334
334 D 142
142 DR 334
334 B 18
18 BR 334
334 C 19
19 CR 334
334 D 84
84 DR 334
334 D 283
283 DR 334
335 C 191
191 CR 335
335 D 133
133 DR 335
335 B 135
135 BR 335
335 D 40
40 DR 335
335 C 14
14 CR 335
335 D 79
79 DR 335
335 A 178
178 AR 335
335 D 309
309 DR 335
335 A 118
118 AR 335
335 C 95
95 CR 335
336 A 228
228 AR 336
336 A 38
38 AR 336
336 C 135
135 CR 336
336 B 108
108 BR 336
336 D 175
175 DR 336
336 C 50
50 CR 336
336 D 146
146 DR 336
336 C 18
18 CR 336
336 A 53
53 AR 336
336 C 315
315 CR 336
337 D 320
320 DR 337
337 A 1
1 AR 337
337 A 195
195 AR 337
337 C 6
6 CR 337
337 B 300
300 BR 337
337 A 238
238 AR 337
337 D 84
84 DR 337
337 B 309
309 BR 337
337 D 118
118 DR 337
337 D 125
125 DR 337
338 C 96
96 CR 338
338 D 32
32 DR 338
338 C 130
130 CR 338
338 B 67
67 BR 338
338 A 43
43 AR 338
338 A 333
333 AR 338
338 B 206
206 BR 338
338 A 47
47 AR 338
338 D 147
147 DR 338
338 C 93
93 CR 338
339 D 165
165 DR 339
339 C 69
69 CR 339
339 C 9
9 CR 339
339 B 15
15 BR 339
339 D 48
48 DR 339
339 D 18
18 DR 339
339 A 57
57 AR 339
339 B 252
252 BR 339
339 C 222
222 CR 339
339 C 30
30 CR 339
340 A 97
97 AR 340
340 B 162
162 BR 340
340 A 65
65 AR 340
340 D 226
226 DR 340
340 D 102
102 DR 340
340 C 7
7 CR 340
340 A 297
297 AR 340
340 A 208
208 AR 340
340 D 86
86 DR 340
340 C 31
31 CR 340
341 D 98
98 DR 341
341 C 194
194 CR 341
341 A 4
4 AR 341
341 D 327
327 DR 341
341 C 202
202 CR 341
341 D 109
109 DR 341
341 A 269
269 AR 341
341 C 84
84 CR 341
341 D 55
55 DR 341
341 B 189
189 BR 341
342 C 38
38 CR 342
342 C 136
136 CR 342
342 C 137
137 CR 342
342 B 10
10 BR 342
342 A 107
107 AR 342
342 C 172
172 CR 342
342 B 206
206 BR 342
342 A 180
180 AR 342
342 A 212
212 AR 342
342 B 119
119 BR 342
343 D 3
3 DR 343
343 A 69
69 AR 343
343 C 6
6 CR 343
343 D 37
37 DR 343
343 B 137
137 BR 343
343 D 139
139 DR 343
343 A 113
113 AR 343
343 A 213
213 AR 343
343 D 186
186 DR 343
343 D 126
126 DR 343
344 C 129
129 CR 344
344 B 33
33 BR 344
344 B 35
35 BR 344
344 A 5
5 AR 344
344 B 103
103 BR 344
344 C 300
300 CR 344
344 A 18
18 AR 344
344 A 22
22 AR 344
344 C 24
24 CR 344
344 C 63
63 CR 344
345 C 66
66 CR 345
345 C 4
4 CR 345
345 D 135
135 DR 345
345 D 140
140 DR 345
345 A 304
304 AR 345
345 B 209
209 BR 345
345 A 53
53 AR 345
345 B 22
22 BR 345
345 D 119
119 DR 345
345 C 255
255 CR 345
346 A 66
66 AR 346
346 D 98
98 DR 346
346 C 27
27 CR 346
346 B 44
44 BR 346
346 B 15
15 BR 346
346 C 50
50 CR 346
346 D 54
54 DR 346
346 D 282
282 DR 346
346 D 59
59 DR 346
346 D 319
319 DR 346
347 A 65
65 AR 347
347 C 33
33 CR 347
347 D 4
4 DR 347
347 C 42
42 CR 347
347 C 46
46 CR 347
347 B 113
113 BR 347
347 B 20
20 BR 347
347 B 245
245 BR 347
347 D 282
282 DR 347
347 C 60
60 CR 347
348 B 33
33 BR 348
348 A 37
37 AR 348
348 A 135
135 AR 348
348 A 9
9 AR 348
348 D 111
111 DR 348
348 A 338
338 AR 348
348 D 22
22 DR 348
348 B 89
89 BR 348
348 B 28
28 BR 348
348 A 191
191 AR 348
349 D 1
1 DR 349
349 B 66
66 BR 349
349 D 35
35 DR 349
349 B 225
225 BR 349
349 D 327
327 DR 349
349 D 8
8 DR 349
349 C 201
201 CR 349
349 C 189
189 CR 349
349 A 252
252 AR 349
349 C 125
125 CR 349
350 D 0
0 DR 350
350 A 8
8 AR 350
350 B 264
264 BR 350
350 B 10
10 BR 350
350 D 205
205 DR 350
350 A 17
17 AR 350
350 B 82
82 BR 350
350 C 19
19 CR 350
350 D 116
116 DR 350
350 D 312
312 DR 350
351 D 0
0 DR 351
351 D 5
5 DR 351
351 D 294
294 DR 351
351 C 229
229 CR 351
351 B 10
10 BR 351
351 D 15
15 DR 351
351 A 274
274 AR 351
351 D 146
146 DR 351
351 D 152
152 DR 351
351 B 31
31 BR 351
352 D 34
34 DR 352
352 C 130
130 CR 352
352 C 5
5 CR 352
352 C 101
101 CR 352
352 B 199
199 BR 352
352 C 8
8 CR 352
352 B 38
38 BR 352
352 B 15
15 BR 352
352 A 22
22 AR 352
352 D 151
151 DR 352
353 B 193
193 BR 353
353 D 3
3 DR 353
353 C 319
319 CR 353
353 B 102
102 BR 353
353 B 169
169 BR 353
353 B 47
47 BR 353
353 C 180
180 CR 353
353 A 57
57 AR 353
353 B 122
122 BR 353
353 B 255
255 BR 353
354 B 96
96 BR 354
354 B 249
249 BR 354
354 A 28
28 AR 354
354 A 46
46 AR 354
354 B 20
20 BR 354
354 D 341
341 DR 354
354 A 278
278 AR 354
354 C 25
25 CR 354
354 A 284
284 AR 354
354 C 29
29 CR 354
355 A 248
248 AR 355
355 C 194
194 CR 355
355 B 6
6 BR 355
355 A 12
12 AR 355
355 A 77
77 AR 355
355 C 15
15 CR 355
355 A 80
80 AR 355
355 A 53
53 AR 355
355 C 120
120 CR 355
355 A 24
24 AR 355
356 B 69
69 BR 356
356 D 7
7 DR 356
356 A 264
264 AR 356
356 D 270
270 DR 356
356 C 251
251 CR 356
356 B 303
303 BR 356
356 A 113
113 AR 356
356 A 50
50 AR 356
356 A 26
26 AR 356
356 C 283
283 CR 356
357 C 129
129 CR 357
357 A 3
3 AR 357
357 C 5
5 CR 357
357 D 7
7 DR 357
357 C 15
15 CR 357
357 C 23
23 CR 357
357 C 21
21 CR 357
357 A 87
87 AR 357
357 A 220
220 AR 357
357 C 157
157 CR 357
358 D 3
3 DR 358
358 D 4
4 DR 358
358 B 68
68 BR 358
358 A 6
6 AR 358
358 A 9
9 AR 358
358 C 204
204 CR 358
358 C 308
308 CR 358
358 A 54
54 AR 358
358 D 55
55 DR 358
358 C 217
217 CR 358
359 C 33
33 CR 359
359 B 68
68 BR 359
359 C 71
71 CR 359
359 B 7
7 BR 359
359 B 9
9 BR 359
359 B 44
44 BR 359
359 C 50
50 CR 359
359 B 220
220 BR 359
359 A 215
215 AR 359
359 A 124
124 AR 359
360 B 3
3 BR 360
360 B 197
197 BR 360
360 B 104
104 BR 360
360 A 40
40 AR 360
360 A 8
8 AR 360
360 C 174
174 CR 360
360 A 83
83 AR 360
360 A 277
277 AR 360
360 C 245
245 CR 360
360 D 286
286 DR 360
361 C 68
68 CR 361
361 A 262
262 AR 361
361 C 72
72 CR 361
361 C 12
12 CR 361
361 C 13
13 CR 361
361 C 14
14 CR 361
361 D 110
110 DR 361
361 C 80
80 CR 361
361 A 19
19 AR 361
361 A 351
351 AR 361
362 D 65
65 DR 362
362 A 3
3 AR 362
362 D 163
163 DR 362
362 A 7
7 AR 362
362 A 8
8 AR 362
362 A 41
41 AR 362
362 B 81
81 BR 362
362 D 84
84 DR 362
362 C 85
85 CR 362
362 A 250
250 AR 362
363 C 97
97 CR 363
363 C 130
130 CR 363
363 B 1
1 BR 363
363 C 70
70 CR 363
363 D 201
201 DR 363
363 A 75
75 AR 363
363 B 43
43 BR 363
363 C 50
50 CR 363
363 C 84
84 CR 363
363 D 126
126 DR 363
364 C 289
289 CR 364
364 D 227
227 DR 364
364 D 7
7 DR 364
364 C 8
8 CR 364
364 D 13
13 DR 364
364 B 144
144 BR 364
364 D 241
241 DR 364
364 A 83
83 AR 364
364 C 90
90 CR 364
364 D 255
255 DR 364
365 D 1
1 DR 365
365 A 3
3 AR 365
365 C 324
324 CR 365
365 B 364
364 BR 365
365 B 45
45 BR 365
365 A 145
145 AR 365
365 B 117
117 BR 365
365 D 214
214 DR 365
365 A 152
152 AR 365
365 D 217
217 DR 365
366 B 195
195 BR 366
366 B 293
293 BR 366
366 A 37
37 AR 366
366 D 327
327 DR 366
366 B 234
234 BR 366
366 D 172
172 DR 366
366 A 109
109 AR 366
366 A 20
20 AR 366
366 D 118
118 DR 366
366 A 185
185 AR 366
367 B 195
195 BR 367
367 C 8
8 CR 367
367 A 76
76 AR 367
367 C 174
174 CR 367
367 D 334
334 DR 367
367 A 208
208 AR 367
367 B 16
16 BR 367
367 C 19
19 CR 367
367 C 24
24 CR 367
367 C 220
220 CR 367
368 D 3
3 DR 368
368 C 69
69 CR 368
368 B 168
168 BR 368
368 C 169
169 CR 368
368 C 234
234 CR 368
368 A 208
208 AR 368
368 D 144
144 DR 368
368 A 274
274 AR 368
368 D 61
61 DR 368
368 C 95
95 CR 368
369 A 0
0 AR 369
369 C 97
97 CR 369
369 D 5
5 DR 369
369 A 7
7 AR 369
369 B 137
137 BR 369
369 C 11
11 CR 369
369 C 140
140 CR 369
369 B 184
184 BR 369
369 A 252
252 AR 369
369 D 61
61 DR 369
370 D 37
37 DR 370
370 A 39
39 AR 370
370 C 113
113 CR 370
370 B 18
18 BR 370
370 A 211
211 AR 370
370 A 63
63 AR 370
370 C 120
120 CR 370
370 A 187
187 AR 370
370 D 221
221 DR 370
370 A 255
255 AR 370
371 D 14
14 DR 371
371 A 50
50 AR 371
371 D 339
339 DR 371
371 A 53
53 AR 371
371 C 54
54 CR 371
371 D 125
125 DR 371
371 B 24
24 BR 371
371 C 282
282 CR 371
371 D 29
29 DR 371
371 C 191
191 CR 371
372 B 0
0 BR 372
372 C 2
2 CR 372
372 D 3
3 DR 372
372 D 103
103 DR 372
372 A 12
12 AR 372
372 D 251
251 DR 372
372 D 113
113 DR 372
372 B 50
50 BR 372
372 B 250
250 BR 372
372 A 59
59 AR 372
373 A 97
97 AR 373
373 D 259
259 DR 373
373 B 5
5 BR 373
373 D 232
232 DR 373
373 C 251
251 CR 373
373 D 143
143 DR 373
373 C 15
15 CR 373
373 B 53
53 BR 373
373 D 248
248 DR 373
373 B 27
27 BR 373
374 A 356
356 AR 374
374 D 165
165 DR 374
374 A 360
360 AR 374
374 B 331
331 BR 374
374 D 364
364 DR 374
374 C 368
368 CR 374
374 A 48
48 AR 374
374 C 371
371 CR 374
374 D 24
24 DR 374
374 A 250
250 AR 374
375 C 97
97 CR 375
375 A 261
261 AR 375
375 D 299
299 DR 375
375 C 144
144 CR 375
375 A 83
83 AR 375
375 A 246
246 AR 375
375 A 24
24 AR 375
375 C 57
57 CR 375
375 A 30
30 AR 375
375 C 95
95 CR 375
376 A 33
33 AR 376
376 D 197
197 DR 376
376 B 137
137 BR 376
376 D 10
10 DR 376
376 A 143
143 AR 376
376 D 175
175 DR 376
376 C 271
271 CR 376
376 B 247
247 BR 376
376 C 91
91 CR 376
376 D 222
222 DR 376
377 B 128
128 BR 377
377 A 96
96 AR 377
377 C 267
267 CR 377
377 B 204
204 BR 377
377 C 173
173 CR 377
377 A 240
240 AR 377
377 B 17
17 BR 377
377 D 119
119 DR 377
377 A 184
184 AR 377
377 C 94
94 CR 377
378 A 6
6 AR 378
378 A 167
167 AR 378
378 A 91
91 AR 378
378 C 43
43 CR 378
378 A 172
172 AR 378
378 A 181
181 AR 378
378 A 248
248 AR 378
378 D 187
187 DR 378
378 C 31
31 CR 378
378 D 255
255 DR 378
379 B 40
40 BR 379
379 D 138
138 DR 379
379 C 173
173 CR 379
379 A 142
142 AR 379
379 C 111
111 CR 379
379 A 112
112 AR 379
379 A 177
177 AR 379
379 A 49
49 AR 379
379 C 119
119 CR 379
379 C 94
94 CR 379
380 B 3
3 BR 380
380 B 228
228 BR 380
380 C 102
102 CR 380
380 D 262
262 DR 380
380 A 27
27 AR 380
380 D 300
300 DR 380
380 A 15
15 AR 380
380 A 59
59 AR 380
380 D 60
60 DR 380
380 D 125
125 DR 380
381 D 224
224 DR 381
381 A 72
72 AR 381
381 C 168
168 CR 381
381 B 209
209 BR 381
381 B 18
18 BR 381
381 D 273
273 DR 381
381 D 150
150 DR 381
381 D 54
54 DR 381
381 A 57
57 AR 381
381 C 26
26 CR 381
382 B 293
293 BR 382
382 D 37
37 DR 382
382 B 169
169 BR 382
382 B 140
140 BR 382
382 A 83
83 AR 382
382 D 86
86 DR 382
382 D 215
215 DR 382
382 B 25
25 BR 382
382 A 346
346 AR 382
382 A 61
61 AR 382
383 B 325
325 BR 383
383 D 198
198 DR 383
383 C 70
70 CR 383
383 D 8
8 DR 383
383 C 41
41 CR 383
383 C 268
268 CR 383
383 C 143
143 CR 383
383 D 120
120 DR 383
383 B 91
91 BR 383
383 C 61
61 CR 383
384 C 33
33 CR 384
384 D 193
193 DR 384
384 B 260
260 BR 384
384 B 5
5 BR 384
384 B 324
324 BR 384
384 B 138
138 BR 384
384 B 335
335 BR 384
384 D 146
146 DR 384
384 B 22
22 BR 384
384 D 57
57 DR 384
385 A 96
96 AR 385
385 C 66
66 CR 385
385 C 103
103 CR 385
385 D 173
173 DR 385
385 D 269
269 DR 385
385 C 79
79 CR 385
385 C 49
49 CR 385
385 A 84
84 AR 385
385 C 152
152 CR 385
385 A 153
153 AR 385
386 A 320
320 AR 386
386 D 195
195 DR 386
386 B 4
4 BR 386
386 D 5
5 DR 386
386 B 230
230 BR 386
386 D 293
293 DR 386
386 A 43
43 AR 386
386 A 11
11 AR 386
386 D 51
51 DR 386
386 C 380
380 CR 386
387 C 1
1 CR 387
387 C 33
33 CR 387
387 A 6
6 AR 387
387 A 267
267 AR 387
387 B 143
143 BR 387
387 C 114
114 CR 387
387 C 83
83 CR 387
387 B 310
310 BR 387
387 A 377
377 AR 387
387 C 252
252 CR 387
388 B 1
1 BR 388
388 D 130
130 DR 388
388 C 2
2 CR 388
388 B 355
355 BR 388
388 C 168
168 CR 388
388 A 297
297 AR 388
388 C 361
361 CR 388
388 C 112
112 CR 388
388 A 151
151 AR 388
388 A 252
252 AR 388
389 D 64
64 DR 389
389 C 225
225 CR 389
389 A 0
0 AR 389
389 D 132
132 DR 389
389 D 165
165 DR 389
389 D 102
102 DR 389
389 B 45
45 BR 389
389 D 147
147 DR 389
389 A 308
308 AR 389
389 C 157
157 CR 389
390 D 64
64 DR 390
390 C 3
3 CR 390
390 A 36
36 AR 390
390 C 293
293 CR 390
390 B 6
6 BR 390
390 C 70
70 CR 390
390 B 49
49 BR 390
390 B 50
50 BR 390
390 B 114
114 BR 390
390 A 187
187 AR 390
391 B 161
161 BR 391
391 B 355
355 BR 391
391 A 40
40 AR 391
391 B 233
233 BR 391
391 B 171
171 BR 391
391 D 172
172 DR 391
391 B 144
144 BR 391
391 B 22
22 BR 391
391 D 154
154 DR 391
391 A 220
220 AR 391
392 A 65
65 AR 392
392 D 34
34 DR 392
392 D 261
261 DR 392
392 B 9
9 BR 392
392 D 331
331 DR 392
392 A 268
268 AR 392
392 B 306
306 BR 392
392 B 50
50 BR 392
392 C 212
212 CR 392
392 A 92
92 AR 392
393 C 32
32 CR 393
393 A 225
225 AR 393
393 B 0
0 BR 393
393 B 3
3 BR 393
393 D 5
5 DR 393
393 D 43
43 DR 393
393 B 45
45 BR 393
393 B 143
143 BR 393
393 B 246
246 BR 393
393 A 187
187 AR 393
394 D 98
98 DR 394
394 A 296
296 AR 394
394 D 361
361 DR 394
394 B 110
110 BR 394
394 B 19
19 BR 394
394 C 211
211 CR 394
394 D 118
118 DR 394
394 A 218
218 AR 394
394 B 29
29 BR 394
394 C 31
31 CR 394
395 B 66
66 BR 395
395 A 261
261 AR 395
395 C 42
42 CR 395
395 B 43
43 BR 395
395 B 108
108 BR 395
395 B 172
172 BR 395
395 A 80
80 AR 395
395 D 20
20 DR 395
395 C 53
53 CR 395
395 A 22
22 AR 395
396 C 1
1 CR 396
396 D 7
7 DR 396
396 A 12
12 AR 396
396 C 15
15 CR 396
396 D 144
144 DR 396
396 B 208
208 BR 396
396 C 20
20 CR 396
396 C 25
25 CR 396
396 B 158
158 BR 396
396 B 57
57 BR 396
397 D 384
384 DR 397
397 B 5
5 BR 397
397 D 6
6 DR 397
397 C 108
108 CR 397
397 D 80
80 DR 397
397 A 17
17 AR 397
397 A 338
338 AR 397
397 B 94
94 BR 397
397 D 286
286 DR 397
397 C 383
383 CR 397
398 D 3
3 DR 398
398 A 196
196 AR 398
398 A 103
103 AR 398
398 C 45
45 CR 398
398 A 301
301 AR 398
398 C 303
303 CR 398
398 C 336
336 CR 398
398 D 307
307 DR 398
398 D 341
341 DR 398
398 C 22
22 CR 398
399 D 0
0 DR 399
399 A 6
6 AR 399
399 C 39
39 CR 399
399 A 297
297 AR 399
399 D 363
363 DR 399
399 D 46
46 DR 399
399 A 175
175 AR 399
399 B 79
79 BR 399
399 D 317
317 DR 399
399 A 158
158 AR 399
400 B 1
1 BR 400
400 A 3
3 AR 400
400 D 68
68 DR 400
400 C 198
198 CR 400
400 A 137
137 AR 400
400 B 334
334 BR 400
400 A 112
112 AR 400
400 B 313
313 BR 400
400 B 27
27 BR 400
400 A 57
57 AR 400
401 A 3
3 AR 401
401 A 6
6 AR 401
401 B 138
138 BR 401
401 B 75
75 BR 401
401 A 108
108 AR 401
401 B 15
15 BR 401
401 A 149
149 AR 401
401 D 22
22 DR 401
401 D 24
24 DR 401
401 C 153
153 CR 401
402 A 0
0 AR 402
402 A 228
228 AR 402
402 D 4
4 DR 402
402 C 392
392 CR 402
402 A 171
171 AR 402
402 B 242
242 BR 402
402 B 372
372 BR 402
402 D 54
54 DR 402
402 C 59
59 CR 402
402 A 31
31 AR 402
403 A 0
0 AR 403
403 C 67
67 CR 403
403 C 357
357 CR 403
403 D 7
7 DR 403
403 B 8
8 BR 403
403 B 82
82 BR 403
403 D 147
147 DR 403
403 A 308
308 AR 403
403 A 51
51 AR 403
403 A 63
63 AR 403
404 A 1
1 AR 404
404 C 130
130 CR 404
404 B 134
134 BR 404
404 C 39
39 CR 404
404 D 138
138 DR 404
404 C 15
15 CR 404
404 B 213
213 BR 404
404 A 53
53 AR 404
404 D 376
376 DR 404
404 D 154
154 DR 404
405 A 0
0 AR 405
405 B 165
165 BR 405
405 A 199
199 AR 405
405 C 109
109 CR 405
405 D 46
46 DR 405
405 D 306
306 DR 405
405 A 19
19 AR 405
405 A 115
115 AR 405
405 D 307
307 DR 405
405 B 27
27 BR 405
406 A 353
353 AR 406
406 D 68
68 DR 406
406 D 328
328 DR 406
406 B 300
300 BR 406
406 C 45
45 CR 406
406 B 241
241 BR 406
406 C 116
116 CR 406
406 D 85
85 DR 406
406 D 120
120 DR 406
406 A 29
29 AR 406
407 D 196
196 DR 407
407 B 5
5 BR 407
407 C 40
40 CR 407
407 C 233
233 CR 407
407 A 10
10 AR 407
407 A 203
203 AR 407
407 C 50
50 CR 407
407 A 245
245 AR 407
407 C 341
341 CR 407
407 D 29
29 DR 407
408 B 64
64 BR 408
408 D 324
324 DR 408
408 D 10
10 DR 408
408 B 395
395 BR 408
408 B 204
204 BR 408
408 B 49
49 BR 408
408 B 402
402 BR 408
408 B 181
181 BR 408
408 A 125
125 AR 408
408 C 223
223 CR 408
409 C 8
8 CR 409
409 A 232
232 AR 409
409 A 10
10 AR 409
409 C 75
75 CR 409
409 C 174
174 CR 409
409 D 243
243 DR 409
409 B 212
212 BR 409
409 C 246
246 CR 409
409 B 27
27 BR 409
409 D 29
29 DR 409
410 B 3
3 BR 410
410 D 168
168 DR 410
410 A 282
282 AR 410
410 C 110
110 CR 410
410 D 181
181 DR 410
410 C 245
245 CR 410
410 B 309
309 BR 410
410 D 250
250 DR 410
410 A 29
29 AR 410
410 B 190
190 BR 410
411 C 65
65 CR 411
411 D 1
1 DR 411
411 B 43
43 BR 411
411 D 76
76 DR 411
411 A 45
45 AR 411
411 A 13
13 AR 411
411 B 171
171 BR 411
411 A 115
115 AR 411
411 B 118
118 BR 411
411 C 150
150 CR 411
412 A 288
288 AR 412
412 B 161
161 BR 412
412 B 225
225 BR 412
412 C 6
6 CR 412
412 C 169
169 CR 412
412 A 15
15 AR 412
412 A 370
370 AR 412
412 B 246
246 BR 412
412 B 57
57 BR 412
412 C 187
187 CR 412
413 A 98
98 AR 413
413 B 3
3 BR 413
413 D 67
67 DR 413
413 B 103
103 BR 413
413 D 168
168 DR 413
413 A 267
267 AR 413
413 D 339
339 DR 413
413 C 153
153 CR 413
413 B 251
251 BR 413
413 A 157
157 AR 413
414 A 384
384 AR 414
414 A 258
258 AR 414
414 D 260
260 DR 414
414 A 68
68 AR 414
414 C 393
393 CR 414
414 D 42
42 DR 414
414 B 402
402 BR 414
414 D 22
22 DR 414
414 A 151
151 AR 414
414 A 31
31 AR 414
415 C 0
0 CR 415
415 C 89
89 CR 415
415 D 5
5 DR 415
415 D 326
326 DR 415
415 D 6
6 DR 415
415 D 70
70 DR 415
415 C 143
143 CR 415
415 D 209
209 DR 415
415 B 375
375 BR 415
415 A 185
185 AR 415
416 B 131
131 BR 416
416 D 70
70 DR 416
416 A 8
8 AR 416
416 B 91
91 BR 416
416 B 11
11 BR 416
416 A 203
203 AR 416
416 D 78
78 DR 416
416 A 376
376 AR 416
416 C 281
281 CR 416
416 D 379
379 DR 416
417 A 416
416 AR 417
417 A 0
0 AR 417
417 D 130
130 DR 417
417 A 98
98 AR 417
417 D 39
39 DR 417
417 C 18
18 CR 417
417 A 93
93 AR 417
417 C 251
251 CR 417
417 C 349
349 CR 417
417 D 61
61 DR 417
418 A 4
4 AR 418
418 D 205
205 DR 418
418 C 45
45 CR 418
418 D 207
207 DR 418
418 A 13
13 AR 418
418 C 113
113 CR 418
418 C 307
307 CR 418
418 D 89
89 DR 418
418 B 91
91 BR 418
418 B 414
414 BR 418
419 B 1
1 BR 419
419 C 164
164 CR 419
419 A 9
9 AR 419
419 C 80
80 CR 419
419 B 338
338 BR 419
419 D 19
19 DR 419
419 D 404
404 DR 419
419 A 182
182 AR 419
419 B 26
26 BR 419
419 B 31
31 BR 419
420 A 227
227 AR 420
420 D 229
229 DR 420
420 D 326
326 DR 420
420 C 8
8 CR 420
420 B 11
11 BR 420
420 B 238
238 BR 420
420 B 51
51 BR 420
420 A 22
22 AR 420
420 A 55
55 AR 420
420 B 31
31 BR 420
421 A 224
224 AR 421
421 D 4
4 DR 421
421 C 70
70 CR 421
421 D 264
264 DR 421
421 B 201
201 BR 421
421 C 11
11 CR 421
421 B 302
302 BR 421
421 C 21
21 CR 421
421 D 91
91 DR 421
421 B 95
95 BR 421
422 C 128
128 CR 422
422 D 35
35 DR 422
422 A 259
259 AR 422
422 D 101
101 DR 422
422 A 199
199 AR 422
422 D 77
77 DR 422
422 B 302
302 BR 422
422 A 14
14 AR 422
422 C 217
217 CR 422
422 D 25
25 DR 422
423 B 161
161 BR 423
423 C 385
385 CR 423
423 A 388
388 AR 423
423 C 326
326 CR 423
423 B 73
73 BR 423
423 A 330
330 AR 423
423 A 14
14 AR 423
423 C 49
49 CR 423
423 C 370
370 CR 423
423 C 377
377 CR 423
424 C 96
96 CR 424
424 D 421
421 DR 424
424 B 135
135 BR 424
424 D 105
105 DR 424
424 A 10
10 AR 424
424 A 210
210 AR 424
424 C 212
212 CR 424
424 A 54
54 AR 424
424 A 189
189 AR 424
424 D 31
31 DR 424
425 B 128
128 BR 425
425 B 258
258 BR 425
425 D 2
2 DR 425
425 C 7
7 CR 425
425 D 74
74 DR 425
425 A 140
140 AR 425
425 D 302
302 DR 425
425 C 404
404 CR 425
425 D 343
343 DR 425
425 C 184
184 CR 425
426 B 2
2 BR 426
426 A 166
166 AR 426
426 C 135
135 CR 426
426 A 299
299 AR 426
426 C 171
171 CR 426
426 D 241
241 DR 426
426 C 244
244 CR 426
426 D 21
21 DR 426
426 D 23
23 DR 426
426 A 350
350 AR 426
427 A 162
162 AR 427
427 B 324
324 BR 427
427 A 4
4 AR 427
427 D 6
6 DR 427
427 B 9
9 BR 427
427 D 10
10 DR 427
427 D 75
75 DR 427
427 A 49
49 AR 427
427 B 86
86 BR 427
427 A 29
29 AR 427
428 D 1
1 DR 428
428 B 8
8 BR 428
428 B 137
137 BR 428
428 A 173
173 AR 428
428 B 14
14 BR 428
428 B 175
175 BR 428
428 B 120
120 BR 428
428 C 218
218 CR 428
428 B 123
123 BR 428
428 A 189
189 AR 428
429 D 1
1 DR 429
429 D 226
226 DR 429
429 C 265
265 CR 429
429 B 241
241 BR 429
429 C 17
17 CR 429
429 C 19
19 CR 429
429 C 26
26 CR 429
429 A 27
27 AR 429
429 C 60
60 CR 429
429 B 93
93 BR 429
430 B 1
1 BR 430
430 D 101
101 DR 430
430 C 137
137 CR 430
430 D 206
206 DR 430
430 D 78
78 DR 430
430 D 208
208 DR 430
430 A 48
48 AR 430
430 B 89
89 BR 430
430 B 28
28 BR 430
430 A 414
414 AR 430
431 D 4
4 DR 431
431 C 198
198 CR 431
431 B 199
199 BR 431
431 B 38
38 BR 431
431 D 10
10 DR 431
431 C 11
11 CR 431
431 C 212
212 CR 431
431 D 373
373 DR 431
431 B 57
57 BR 431
431 B 219
219 BR 431
432 C 0
0 CR 432
432 D 4
4 DR 432
432 D 6
6 DR 432
432 B 7
7 BR 432
432 A 171
171 AR 432
432 C 271
271 CR 432
432 A 144
144 AR 432
432 A 50
50 AR 432
432 B 23
23 BR 432
432 A 63
63 AR 432
433 D 2
2 DR 433
433 A 3
3 AR 433
433 C 294
294 CR 433
433 D 27
27 DR 433
433 A 298
298 AR 433
433 C 44
44 CR 433
433 A 13
13 AR 433
433 C 18
18 CR 433
433 A 57
57 AR 433
433 B 123
123 BR 433
434 B 1
1 BR 434
434 A 39
39 AR 434
434 B 10
10 BR 434
434 A 109
109 AR 434
434 A 16
16 AR 434
434 B 18
18 BR 434
434 C 371
371 CR 434
434 A 50
50 AR 434
434 A 26
26 AR 434
434 B 189
189 BR 434
435 C 0
0 CR 435
435 B 4
4 BR 435
435 A 5
5 AR 435
435 D 423
423 DR 435
435 A 360
360 AR 435
435 C 425
425 CR 435
435 A 200
200 AR 435
435 C 305
305 CR 435
435 B 82
82 BR 435
435 A 212
212 AR 435
436 B 384
384 BR 436
436 B 3
3 BR 436
436 A 36
36 AR 436
436 D 70
70 DR 436
436 B 327
327 BR 436
436 A 42
42 AR 436
436 D 10
10 DR 436
436 A 49
49 AR 436
436 D 89
89 DR 436
436 B 26
26 BR 436
437 B 35
35 BR 437
437 C 3
3 CR 437
437 B 6
6 BR 437
437 C 105
105 CR 437
437 C 210
210 CR 437
437 B 246
246 BR 437
437 C 279
279 CR 437
437 B 152
152 BR 437
437 D 377
377 DR 437
437 A 125
125 AR 437
438 B 103
103 BR 438
438 D 391
391 DR 438
438 B 425
425 BR 438
438 B 76
76 BR 438
438 A 240
240 AR 438
438 A 18
18 AR 438
438 B 115
115 BR 438
438 A 183
183 AR 438
438 A 25
25 AR 438
438 D 383
383 DR 438
439 C 32
32 CR 439
439 B 98
98 BR 439
439 C 3
3 CR 439
439 A 69
69 AR 439
439 A 391
391 AR 439
439 A 9
9 AR 439
439 A 238
238 AR 439
439 D 146
146 DR 439
439 C 54
54 CR 439
439 A 154
154 AR 439
440 D 97
97 DR 440
440 A 227
227 AR 440
440 C 264
264 CR 440
440 C 200
200 CR 440
440 D 44
44 DR 440
440 B 111
111 BR 440
440 C 337
337 CR 440
440 D 19
19 DR 440
440 B 374
374 BR 440
440 B 254
254 BR 440
441 C 0
0 CR 441
441 D 3
3 DR 441
441 B 4
4 BR 441
441 B 358
358 BR 441
441 B 168
168 BR 441
441 A 397
397 AR 441
441 D 207
207 DR 441
441 A 20
20 AR 441
441 C 21
21 CR 441
441 C 23
23 CR 441
442 D 0
0 DR 442
442 C 1
1 CR 442
442 C 162
162 CR 442
442 A 195
195 AR 442
442 C 359
359 CR 442
442 A 8
8 AR 442
442 A 108
108 AR 442
442 A 13
13 AR 442
442 A 172
172 AR 442
442 B 18
18 BR 442
443 D 3
3 DR 443
443 D 8
8 DR 443
443 C 41
41 CR 443
443 D 111
111 DR 443
443 D 335
335 DR 443
443 B 401
401 BR 443
443 C 241
241 CR 443
443 A 86
86 AR 443
443 A 24
24 AR 443
443 B 31
31 BR 443
444 A 2
2 AR 444
444 D 3
3 DR 444
444 B 296
296 BR 444
444 C 73
73 CR 444
444 C 11
11 CR 444
444 D 173
173 DR 444
444 A 17
17 AR 444
444 B 26
26 BR 444
444 C 62
62 CR 444
444 C 255
255 CR 444
445 C 1
1 CR 445
445 A 202
202 AR 445
445 C 43
43 CR 445
445 A 203
203 AR 445
445 A 109
109 AR 445
445 C 13
13 CR 445
445 B 185
185 BR 445
445 D 57
57 DR 445
445 B 318
318 BR 445
445 A 31
31 AR 445
446 C 33
33 CR 446
446 D 321
321 DR 446
446 D 291
291 DR 446
446 D 325
325 DR 446
446 B 6
6 BR 446
446 A 70
70 AR 446
446 D 82
82 DR 446
446 A 20
20 AR 446
446 D 379
379 DR 446
446 C 158
158 CR 446
447 A 97
97 AR 447
447 A 3
3 AR 447
447 C 7
7 CR 447
447 B 232
232 BR 447
447 B 264
264 BR 447
447 A 169
169 AR 447
447 C 12
12 CR 447
447 C 271
271 CR 447
447 A 123
123 AR 447
447 B 221
221 BR 447
448 A 1
1 AR 448
448 B 8
8 BR 448
448 D 335
335 DR 448
448 A 16
16 AR 448
448 C 177
177 CR 448
448 D 399
399 DR 448
448 D 115
115 DR 448
448 D 19
19 DR 448
448 D 186
186 DR 448
448 D 286
286 DR 448
449 B 261
261 BR 449
449 A 165
165 AR 449
449 D 8
8 DR 449
449 C 328
328 CR 449
449 C 74
74 CR 449
449 C 301
301 CR 449
449 B 433
433 BR 449
449 C 274
274 CR 449
449 D 150
150 DR 449
449 A 220
220 AR 449
450 B 448
448 BR 450
450 A 1
1 AR 450
450 B 161
161 BR 450
450 D 325
325 DR 450
450 D 6
6 DR 450
450 A 9
9 AR 450
450 C 13
13 CR 450
450 A 80
80 AR 450
450 D 18
18 DR 450
450 D 405
405 DR 450
451 B 228
228 BR 451
451 C 229
229 CR 451
451 D 5
5 DR 451
451 C 261
261 CR 451
451 B 10
10 BR 451
451 C 330
330 CR 451
451 D 19
19 DR 451
451 C 213
213 CR 451
451 A 24
24 AR 451
451 C 284
284 CR 451
452 C 407
407 CR 452
452 A 1
1 AR 452
452 C 14
14 CR 452
452 D 275
275 DR 452
452 A 19
19 AR 452
452 B 51
51 BR 452
452 B 183
183 BR 452
452 C 26
26 CR 452
452 D 279
279 DR 452
452 C 447
447 CR 452
453 B 0
0 BR 453
453 C 3
3 CR 453
453 D 6
6 DR 453
453 D 43
43 DR 453
453 B 301
301 BR 453
453 A 176
176 AR 453
453 C 435
435 CR 453
453 C 54
54 CR 453
453 D 377
377 DR 453
453 D 29
29 DR 453
454 A 32
32 AR 454
454 C 97
97 CR 454
454 D 101
101 DR 454
454 D 38
38 DR 454
454 B 140
140 BR 454
454 C 109
109 CR 454
454 B 240
240 BR 454
454 D 114
114 DR 454
454 D 87
87 DR 454
454 C 255
255 CR 454
455 B 32
32 BR 455
455 C 34
34 CR 455
455 C 3
3 CR 455
455 C 133
133 CR 455
455 A 6
6 AR 455
455 A 169
169 AR 455
455 D 77
77 DR 455
455 D 19
19 DR 455
455 D 152
152 DR 455
455 B 125
125 BR 455
456 B 321
321 BR 456
456 D 98
98 DR 456
456 C 26
26 CR 456
456 D 292
292 DR 456
456 C 133
133 CR 456
456 A 2
2 AR 456
456 A 329
329 AR 456
456 C 174
174 CR 456
456 B 110
110 BR 456
456 A 186
186 AR 456
457 C 66
66 CR 457
457 C 5
5 CR 457
457 A 422
422 AR 457
457 C 174
174 CR 457
457 B 304
304 BR 457
457 C 16
16 CR 457
457 A 244
244 AR 457
457 A 406
406 AR 457
457 D 311
311 DR 457
457 B 94
94 BR 457
458 C 291
291 CR 458
458 D 36
36 DR 458
458 D 5
5 DR 458
458 B 99
99 BR 458
458 C 171
171 CR 458
458 A 333
333 AR 458
458 B 269
269 BR 458
458 B 82
82 BR 458
458 D 314
314 DR 458
458 D 255
255 DR 458
459 D 384
384 DR 459
459 A 33
33 AR 459
459 A 2
2 AR 459
459 C 293
293 CR 459
459 A 6
6 AR 459
459 C 107
107 CR 459
459 D 87
87 DR 459
459 C 152
152 CR 459
459 A 26
26 AR 459
459 A 190
190 AR 459
460 D 4
4 DR 460
460 D 359
359 DR 460
460 A 301
301 AR 460
460 C 173
173 CR 460
460 A 347
347 AR 460
460 B 403
403 BR 460
460 B 339
339 BR 460
460 C 83
83 CR 460
460 C 438
438 CR 460
460 A 315
315 AR 460
461 D 1
1 DR 461
461 A 262
262 AR 461
461 B 105
105 BR 461
461 B 42
42 BR 461
461 C 171
171 CR 461
461 C 12
12 CR 461
461 D 14
14 DR 461
461 B 279
279 BR 461
461 C 413
413 CR 461
461 D 30
30 DR 461
462 C 193
193 CR 462
462 D 2
2 DR 462
462 B 357
357 BR 462
462 C 8
8 CR 462
462 A 10
10 AR 462
462 A 110
110 AR 462
462 D 208
208 DR 462
462 C 276
276 CR 462
462 D 181
181 DR 462
462 D 95
95 DR 462
463 D 357
357 DR 463
463 C 103
103 CR 463
463 D 423
423 DR 463
463 A 137
137 AR 463
463 D 203
203 DR 463
463 D 45
45 DR 463
463 C 303
303 CR 463
463 A 144
144 AR 463
463 B 19
19 BR 463
463 C 371
371 CR 463
464 D 321
321 DR 464
464 C 194
194 CR 464
464 C 3
3 CR 464
464 A 392
392 AR 464
464 A 9
9 AR 464
464 C 144
144 CR 464
464 B 21
21 BR 464
464 D 120
120 DR 464
464 A 152
152 AR 464
464 D 190
190 DR 464
465 B 13
13 BR 465
465 D 271
271 DR 465
465 A 16
16 AR 465
465 A 304
304 AR 465
465 D 52
52 DR 465
465 A 309
309 AR 465
465 D 438
438 DR 465
465 D 277
277 DR 465
465 D 61
61 DR 465
465 B 126
126 BR 465
466 A 33
33 AR 466
466 A 4
4 AR 466
466 C 167
167 CR 466
466 C 8
8 CR 466
466 A 112
112 AR 466
466 C 214
214 CR 466
466 C 189
189 CR 466
466 B 89
89 BR 466
466 B 29
29 BR 466
466 B 62
62 BR 466
467 C 0
0 CR 467
467 D 418
418 DR 467
467 B 2
2 BR 467
467 D 294
294 DR 467
467 B 11
11 BR 467
467 D 267
267 DR 467
467 A 175
175 AR 467
467 D 88
88 DR 467
467 D 217
217 DR 467
467 C 90
90 CR 467
468 C 1
1 CR 468
468 A 97
97 AR 468
468 C 3
3 CR 468
468 D 5
5 DR 468
468 A 135
135 AR 468
468 C 105
105 CR 468
468 A 268
268 AR 468
468 D 45
45 DR 468
468 A 142
142 AR 468
468 C 53
53 CR 468
469 B 262
262 BR 469
469 C 39
39 CR 469
469 C 7
7 CR 469
469 A 393
393 AR 469
469 B 172
172 BR 469
469 D 174
174 DR 469
469 C 404
404 CR 469
469 D 309
309 DR 469
469 B 215
215 BR 469
469 B 125
125 BR 469
470 D 32
32 DR 470
470 A 452
452 AR 470
470 A 199
199 AR 470
470 C 265
265 CR 470
470 B 204
204 BR 470
470 D 45
45 DR 470
470 B 337
337 BR 470
470 B 51
51 BR 470
470 C 57
57 CR 470
470 D 91
91 DR 470
471 A 450
450 AR 471
471 B 324
324 BR 471
471 D 362
362 DR 471
471 B 300
300 BR 471
471 C 460
460 CR 471
471 C 14
14 CR 471
471 A 244
244 AR 471
471 A 86
86 AR 471
471 C 119
119 CR 471
471 B 186
186 BR 471
472 B 3
3 BR 472
472 C 5
5 CR 472
472 A 422
422 AR 472
472 B 7
7 BR 472
472 C 180
180 CR 472
472 A 407
407 AR 472
472 C 153
153 CR 472
472 C 250
250 CR 472
472 C 27
27 CR 472
472 C 316
316 CR 472
473 B 418
418 BR 473
473 D 259
259 DR 473
473 B 4
4 BR 473
473 C 267
267 CR 473
473 C 300
300 CR 473
473 A 75
75 AR 473
473 D 82
82 DR 473
473 B 19
19 BR 473
473 A 279
279 AR 473
473 B 30
30 BR 473
474 C 419
419 CR 474
474 A 6
6 AR 474
474 D 70
70 DR 474
474 C 59
59 CR 474
474 C 10
10 CR 474
474 D 53
53 DR 474
474 C 407
407 CR 474
474 A 185
185 AR 474
474 B 123
123 BR 474
474 A 381
381 AR 474
475 A 448
448 AR 475
475 C 258
258 CR 475
475 C 327
327 CR 475
475 C 459
459 CR 475
475 D 12
12 DR 475
475 A 79
79 AR 475
475 C 338
338 CR 475
475 C 21
21 CR 475
475 C 311
311 CR 475
475 B 57
57 BR 475
476 B 33
33 BR 476
476 C 3
3 CR 476
476 B 37
37 BR 476
476 B 70
70 BR 476
476 A 422
422 AR 476
476 C 40
40 CR 476
476 B 169
169 BR 476
476 B 6
6 BR 476
476 A 54
54 AR 476
476 C 24
24 CR 476
477 C 0
0 CR 477
477 A 39
39 AR 477
477 D 8
8 DR 477
477 C 9
9 CR 477
477 A 105
105 AR 477
477 D 12
12 DR 477
477 A 173
173 AR 477
477 C 401
401 CR 477
477 C 212
212 CR 477
477 D 54
54 DR 477
478 A 8
8 AR 478
478 C 171
171 CR 478
478 C 143
143 CR 478
478 B 47
47 BR 478
478 A 144
144 AR 478
478 A 50
50 AR 478
478 C 83
83 CR 478
478 A 25
25 AR 478
478 C 26
26 CR 478
478 B 415
415 BR 478
479 C 130
130 CR 479
479 D 255
255 DR 479
479 A 298
298 AR 479
479 A 43
43 AR 479
479 A 461
461 AR 479
479 A 14
14 AR 479
479 A 315
315 AR 479
479 C 212
212 CR 479
479 C 347
347 CR 479
479 D 31
31 DR 479
480 D 96
96 DR 480
480 C 6
6 CR 480
480 A 240
240 AR 480
480 D 404
404 DR 480
480 A 214
214 AR 480
480 D 24
24 DR 480
480 B 57
57 BR 480
480 B 123
123 BR 480
480 A 221
221 AR 480
480 C 415
415 CR 480
481 D 256
256 DR 481
481 D 262
262 DR 481
481 C 102
102 CR 481
481 C 45
45 CR 481
481 C 80
80 CR 481
481 D 373
373 DR 481
481 D 56
56 DR 481
481 D 127
127 DR 481
481 C 253
253 CR 481
481 B 63
63 BR 481
482 D 33
33 DR 482
482 A 106
106 AR 482
482 D 171
171 DR 482
482 B 204
204 BR 482
482 D 303
303 DR 482
482 C 401
401 CR 482
482 B 54
54 BR 482
482 B 26
26 BR 482
482 C 252
252 CR 482
482 B 255
255 BR 482
483 C 70
70 CR 483
483 A 422
422 AR 483
483 D 9
9 DR 483
483 D 12
12 DR 483
483 C 45
45 CR 483
483 D 15
15 DR 483
483 C 217
217 CR 483
483 B 283
283 BR 483
483 C 284
284 CR 483
483 B 57
57 BR 483
484 C 33
33 CR 484
484 A 194
194 AR 484
484 A 35
35 AR 484
484 D 260
260 DR 484
484 D 37
37 DR 484
484 B 41
41 BR 484
484 D 76
76 DR 484
484 C 272
272 CR 484
484 D 375
375 DR 484
484 D 444
444 DR 484
485 D 416
416 DR 485
485 D 2
2 DR 485
485 D 3
3 DR 485
485 A 37
37 AR 485
485 D 38
38 DR 485
485 A 8
8 AR 485
485 C 275
275 CR 485
485 B 472
472 BR 485
485 D 315
315 DR 485
485 D 255
255 DR 485
486 A 5
5 AR 486
486 C 38
38 CR 486
486 B 43
43 BR 486
486 B 11
11 BR 486
486 D 205
205 DR 486
486 A 401
401 AR 486
486 C 19
19 CR 486
486 C 148
148 CR 486
486 C 375
375 CR 486
486 B 124
124 BR 486
487 C 0
0 CR 487
487 B 293
293 BR 487
487 A 9
9 AR 487
487 A 206
206 AR 487
487 C 347
347 CR 487
487 D 147
147 DR 487
487 A 185
185 AR 487
487 A 379
379 AR 487
487 B 414
414 BR 487
487 A 63
63 AR 487
488 D 0
0 DR 488
488 A 64
64 AR 488
488 B 195
195 BR 488
488 A 452
452 AR 488
488 D 42
42 DR 488
488 D 44
44 DR 488
488 A 400
400 AR 488
488 C 22
22 CR 488
488 D 25
25 DR 488
488 B 30
30 BR 488
489 D 0
0 DR 489
489 B 65
65 BR 489
489 D 456
456 DR 489
489 A 105
105 AR 489
489 C 242
242 CR 489
489 A 274
274 AR 489
489 A 180
180 AR 489
489 B 469
469 BR 489
489 B 186
186 BR 489
489 B 412
412 BR 489
490 A 4
4 AR 490
490 B 421
421 BR 490
490 B 296
296 BR 490
490 A 9
9 AR 490
490 B 424
424 BR 490
490 C 206
206 CR 490
490 D 376
376 DR 490
490 C 441
441 CR 490
490 A 27
27 AR 490
490 D 222
222 DR 490
491 B 419
419 BR 491
491 B 37
37 BR 491
491 C 6
6 CR 491
491 D 105
105 DR 491
491 B 305
305 BR 491
491 C 18
18 CR 491
491 B 308
308 BR 491
491 B 22
22 BR 491
491 B 186
186 BR 491
491 C 284
284 CR 491
492 A 0
0 AR 492
492 A 96
96 AR 492
492 A 33
33 AR 492
492 A 295
295 AR 492
492 D 338
338 DR 492
492 C 278
278 CR 492
492 C 375
375 CR 492
492 A 280
280 AR 492
492 B 282
282 BR 492
492 B 319
319 BR 492
493 D 0
0 DR 493
493 D 321
321 DR 493
493 D 485
485 DR 493
493 D 9
9 DR 493
493 D 112
112 DR 493
493 A 433
433 AR 493
493 B 22
22 BR 493
493 B 23
23 BR 493
493 C 152
152 CR 493
493 B 123
123 BR 493
494 A 64
64 AR 494
494 B 388
388 BR 494
494 A 6
6 AR 494
494 A 263
263 AR 494
494 C 137
137 CR 494
494 C 12
12 CR 494
494 D 124
124 DR 494
494 D 183
183 DR 494
494 C 27
27 CR 494
494 C 28
28 CR 494
495 C 324
324 CR 495
495 C 455
455 CR 495
495 B 8
8 BR 495
495 D 167
167 DR 495
495 A 202
202 AR 495
495 D 370
370 DR 495
495 B 25
25 BR 495
495 B 474
474 BR 495
495 D 27
27 DR 495
495 C 57
57 CR 495
496 D 2
2 DR 496
496 B 130
130 BR 496
496 B 488
488 BR 496
496 B 302
302 BR 496
496 B 16
16 BR 496
496 A 275
275 AR 496
496 A 339
339 AR 496
496 A 125
125 AR 496
496 B 313
313 BR 496
496 C 189
189 CR 496
497 C 70
70 CR 497
497 D 327
327 DR 497
497 D 8
8 DR 497
497 B 110
110 BR 497
497 D 14
14 DR 497
497 C 240
240 CR 497
497 A 308
308 AR 497
497 B 372
372 BR 497
497 C 185
185 CR 497
497 A 379
379 AR 497
498 D 66
66 DR 498
498 D 2
2 DR 498
498 C 386
386 CR 498
498 A 5
5 AR 498
498 D 422
422 DR 498
498 C 142
142 CR 498
498 D 49
49 DR 498
498 A 309
309 AR 498
498 D 153
153 DR 498
498 A 30
30 AR 498
499 C 1
1 CR 499
499 C 129
129 CR 499
499 A 452
452 AR 499
499 C 199
199 CR 499
499 C 40
40 CR 499
499 D 109
109 DR 499
499 D 239
239 DR 499
499 C 17
17 CR 499
499 B 81
81 BR 499
499 C 22
22 CR 499
