1 A 2
2 A 3
3 A 4
4 A 5
5 A 6
6 A 7
7 A 8
8 A 9
9 A 10
10 A 11
11 A 12
12 A 13
13 A 14
14 A 15
15 A 16
16 A 17
17 A 18
18 A 19
19 A 20
20 A 21
21 A 22
22 A 23
23 A 24
24 A 25
25 A 26
26 A 27
27 A 28
28 A 29
29 A 30
30 A 31
31 A 32
32 A 33
33 A 34
34 A 35
35 A 36
36 A 37
37 A 38
38 A 39
39 A 40
40 A 41
41 A 42
42 A 43
43 A 44
44 A 45
45 A 46
46 A 47
47 A 48
48 A 49
49 A 50
50 A 51
51 A 52
52 A 53
53 A 54
54 A 55
55 A 56
56 A 57
57 A 58
58 A 59
59 A 60
60 A 61
61 A 62
62 A 63
63 A 64
64 A 65
65 A 66
66 A 67
67 A 68
68 A 69
69 A 70
70 A 71
71 A 72
72 A 73
73 A 74
74 A 75
75 A 76
76 A 77
77 A 78
78 A 79
79 A 80
80 A 81
81 A 82
82 A 83
83 A 84
84 A 85
85 A 86
86 A 87
87 A 88
88 A 89
89 A 90
90 A 91
91 A 92
92 A 93
93 A 94
94 A 95
95 A 96
96 A 97
97 A 98
98 A 99
99 A 100
100 A 101
101 A 102
102 A 103
103 A 104
104 A 105
105 A 106
106 A 107
107 A 108
108 A 109
109 A 110
110 A 111
111 A 112
112 A 113
113 A 114
114 A 115
115 A 116
116 A 117
117 A 118
118 A 119
119 A 120
120 A 121
121 A 122
122 A 123
123 A 124
124 A 125
125 A 126
126 A 127
127 A 128
128 A 129
129 A 130
130 A 131
131 A 132
132 A 133
133 A 134
134 A 135
135 A 136
136 A 137
137 A 138
138 A 139
139 A 140
140 A 141
141 A 142
142 A 143
143 A 144
144 A 145
145 A 146
146 A 147
147 A 148
148 A 149
149 A 150
150 A 151
151 A 152
152 A 153
153 A 154
154 A 155
155 A 156
156 A 157
157 A 158
158 A 159
159 A 160
160 A 161
161 A 162
162 A 163
163 A 164
164 A 165
165 A 166
166 A 167
167 A 168
168 A 169
169 A 170
170 A 171
171 A 172
172 A 173
173 A 174
174 A 175
175 A 176
176 A 177
177 A 178
178 A 179
179 A 180
180 A 181
181 A 182
182 A 183
183 A 184
184 A 185
185 A 186
186 A 187
187 A 188
188 A 189
189 A 190
190 A 191
191 A 192
192 A 193
193 A 194
194 A 195
195 A 196
196 A 197
197 A 198
198 A 199
199 A 200
200 A 201
201 A 202
202 A 203
203 A 204
204 A 205
205 A 206
206 A 207
207 A 208
208 A 209
209 A 210
210 A 211
211 A 212
212 A 213
213 A 214
214 A 215
215 A 216
216 A 217
217 A 218
218 A 219
219 A 220
220 A 221
221 A 222
222 A 223
223 A 224
224 A 225
225 A 226
226 A 227
227 A 228
228 A 229
229 A 230
230 A 231
231 A 232
232 A 233
233 A 234
234 A 235
235 A 236
236 A 237
237 A 238
238 A 239
239 A 240
240 A 241
241 A 242
242 A 243
243 A 244
244 A 245
245 A 246
246 A 247
247 A 248
248 A 249
249 A 250
250 A 251
251 A 252
252 A 253
253 A 254
254 A 255
255 A 256
256 A 257
257 A 258
258 A 259
259 A 260
260 A 261
261 A 262
262 A 263
263 A 264
264 A 265
265 A 266
266 A 267
267 A 268
268 A 269
269 A 270
270 A 271
271 A 272
272 A 273
273 A 274
274 A 275
275 A 276
276 A 277
277 A 278
278 A 279
279 A 280
280 A 281
281 A 282
282 A 283
283 A 284
284 A 285
285 A 286
286 A 287
287 A 288
288 A 289
289 A 290
290 A 291
291 A 292
292 A 293
293 A 294
294 A 295
295 A 296
296 A 297
297 A 298
298 A 299
299 A 300
300 A 301
301 A 302
302 A 303
303 A 304
304 A 305
305 A 306
306 A 307
307 A 308
308 A 309
309 A 310
310 A 311
311 A 312
312 A 313
313 A 314
314 A 315
315 A 316
316 A 317
317 A 318
318 A 319
319 A 320
320 A 321
321 A 322
322 A 323
323 A 324
324 A 325
325 A 326
326 A 327
327 A 328
328 A 329
329 A 330
330 A 331
331 A 332
332 A 333
333 A 334
334 A 335
335 A 336
336 A 337
337 A 338
338 A 339
339 A 340
340 A 341
341 A 342
342 A 343
343 A 344
344 A 345
345 A 346
346 A 347
347 A 348
348 A 349
349 A 350
350 A 351
351 A 352
352 A 353
353 A 354
354 A 355
355 A 356
356 A 357
357 A 358
358 A 359
359 A 360
360 A 361
361 A 362
362 A 363
363 A 364
364 A 365
365 A 366
366 A 367
367 A 368
368 A 369
369 A 370
370 A 371
371 A 372
372 A 373
373 A 374
374 A 375
375 A 376
376 A 377
377 A 378
378 A 379
379 A 380
380 A 381
381 A 382
382 A 383
383 A 384
384 A 385
385 A 386
386 A 387
387 A 388
388 A 389
389 A 390
390 A 391
391 A 392
392 A 393
393 A 394
394 A 395
395 A 396
396 A 397
397 A 398
398 A 399
399 A 400
400 A 401
401 A 402
402 A 403
403 A 404
404 A 405
405 A 406
406 A 407
407 A 408
408 A 409
409 A 410
410 A 411
411 A 412
412 A 413
413 A 414
414 A 415
415 A 416
416 A 417
417 A 418
418 A 419
419 A 420
420 A 421
421 A 422
422 A 423
423 A 424
424 A 425
425 A 426
426 A 427
427 A 428
428 A 429
429 A 430
430 A 431
431 A 432
432 A 433
433 A 434
434 A 435
435 A 436
436 A 437
437 A 438
438 A 439
439 A 440
440 A 441
441 A 442
442 A 443
443 A 444
444 A 445
445 A 446
446 A 447
447 A 448
448 A 449
449 A 450
450 A 451
451 A 452
452 A 453
453 A 454
454 A 455
455 A 456
456 A 457
457 A 458
458 A 459
459 A 460
460 A 461
461 A 462
462 A 463
463 A 464
464 A 465
465 A 466
466 A 467
467 A 468
468 A 469
469 A 470
470 A 471
471 A 472
472 A 473
473 A 474
474 A 475
475 A 476
476 A 477
477 A 478
478 A 479
479 A 480
480 A 481
481 A 482
482 A 483
483 A 484
484 A 485
485 A 486
486 A 487
487 A 488
488 A 489
489 A 490
490 A 491
491 A 492
492 A 493
493 A 494
494 A 495
495 A 496
496 A 497
497 A 498
498 A 499
499 A 500
500 A 501
501 A 502
502 A 503
503 A 504
504 A 505
505 A 506
506 A 507
507 A 508
508 A 509
509 A 510
510 A 511
511 A 512
512 A 513
513 A 514
514 A 515
515 A 516
516 A 517
517 A 518
518 A 519
519 A 520
520 A 521
521 A 522
522 A 523
523 A 524
524 A 525
525 A 526
526 A 527
527 A 528
528 A 529
529 A 530
530 A 531
531 A 532
532 A 533
533 A 534
534 A 535
535 A 536
536 A 537
537 A 538
538 A 539
539 A 540
540 A 541
541 A 542
542 A 543
543 A 544
544 A 545
545 A 546
546 A 547
547 A 548
548 A 549
549 A 550
550 A 551
551 A 552
552 A 553
553 A 554
554 A 555
555 A 556
556 A 557
557 A 558
558 A 559
559 A 560
560 A 561
561 A 562
562 A 563
563 A 564
564 A 565
565 A 566
566 A 567
567 A 568
568 A 569
569 A 570
570 A 571
571 A 572
572 A 573
573 A 574
574 A 575
575 A 576
576 A 577
577 A 578
578 A 579
579 A 580
580 A 581
581 A 582
582 A 583
583 A 584
584 A 585
585 A 586
586 A 587
587 A 588
588 A 589
589 A 590
590 A 591
591 A 592
592 A 593
593 A 594
594 A 595
595 A 596
596 A 597
597 A 598
598 A 599
599 A 600
600 A 601
601 A 602
602 A 603
603 A 604
604 A 605
605 A 606
606 A 607
607 A 608
608 A 609
609 A 610
610 A 611
611 A 612
612 A 613
613 A 614
614 A 615
615 A 616
616 A 617
617 A 618
618 A 619
619 A 620
620 A 621
621 A 622
622 A 623
623 A 624
624 A 625
625 A 626
626 A 627
627 A 628
628 A 629
629 A 630
630 A 631
631 A 632
632 A 633
633 A 634
634 A 635
635 A 636
636 A 637
637 A 638
638 A 639
639 A 640
640 A 641
641 A 642
642 A 643
643 A 644
644 A 645
645 A 646
646 A 647
647 A 648
648 A 649
649 A 650
650 A 651
651 A 652
652 A 653
653 A 654
654 A 655
655 A 656
656 A 657
657 A 658
658 A 659
659 A 660
660 A 661
661 A 662
662 A 663
663 A 664
664 A 665
665 A 666
666 A 667
667 A 668
668 A 669
669 A 670
670 A 671
671 A 672
672 A 673
673 A 674
674 A 675
675 A 676
676 A 677
677 A 678
678 A 679
679 A 680
680 A 681
681 A 682
682 A 683
683 A 684
684 A 685
685 A 686
686 A 687
687 A 688
688 A 689
689 A 690
690 A 691
691 A 692
692 A 693
693 A 694
694 A 695
695 A 696
696 A 697
697 A 698
698 A 699
699 A 700
700 A 701
701 A 702
702 A 703
703 A 704
704 A 705
705 A 706
706 A 707
707 A 708
708 A 709
709 A 710
710 A 711
711 A 712
712 A 713
713 A 714
714 A 715
715 A 716
716 A 717
717 A 718
718 A 719
719 A 720
720 A 721
721 A 722
722 A 723
723 A 724
724 A 725
725 A 726
726 A 727
727 A 728
728 A 729
729 A 730
730 A 731
731 A 732
732 A 733
733 A 734
734 A 735
735 A 736
736 A 737
737 A 738
738 A 739
739 A 740
740 A 741
741 A 742
742 A 743
743 A 744
744 A 745
745 A 746
746 A 747
747 A 748
748 A 749
749 A 750
750 A 751
751 A 752
752 A 753
753 A 754
754 A 755
755 A 756
756 A 757
757 A 758
758 A 759
759 A 760
760 A 761
761 A 762
762 A 763
763 A 764
764 A 765
765 A 766
766 A 767
767 A 768
768 A 769
769 A 770
770 A 771
771 A 772
772 A 773
773 A 774
774 A 775
775 A 776
776 A 777
777 A 778
778 A 779
779 A 780
780 A 781
781 A 782
782 A 783
783 A 784
784 A 785
785 A 786
786 A 787
787 A 788
788 A 789
789 A 790
790 A 791
791 A 792
792 A 793
793 A 794
794 A 795
795 A 796
796 A 797
797 A 798
798 A 799
799 A 800
800 A 801
801 A 802
802 A 803
803 A 804
804 A 805
805 A 806
806 A 807
807 A 808
808 A 809
809 A 810
810 A 811
811 A 812
812 A 813
813 A 814
814 A 815
815 A 816
816 A 817
817 A 818
818 A 819
819 A 820
820 A 821
821 A 822
822 A 823
823 A 824
824 A 825
825 A 826
826 A 827
827 A 828
828 A 829
829 A 830
830 A 831
831 A 832
832 A 833
833 A 834
834 A 835
835 A 836
836 A 837
837 A 838
838 A 839
839 A 840
840 A 841
841 A 842
842 A 843
843 A 844
844 A 845
845 A 846
846 A 847
847 A 848
848 A 849
849 A 850
850 A 851
851 A 852
852 A 853
853 A 854
854 A 855
855 A 856
856 A 857
857 A 858
858 A 859
859 A 860
860 A 861
861 A 862
862 A 863
863 A 864
864 A 865
865 A 866
866 A 867
867 A 868
868 A 869
869 A 870
870 A 871
871 A 872
872 A 873
873 A 874
874 A 875
875 A 876
876 A 877
877 A 878
878 A 879
879 A 880
880 A 881
881 A 882
882 A 883
883 A 884
884 A 885
885 A 886
886 A 887
887 A 888
888 A 889
889 A 890
890 A 891
891 A 892
892 A 893
893 A 894
894 A 895
895 A 896
896 A 897
897 A 898
898 A 899
899 A 900
900 A 901
901 A 902
902 A 903
903 A 904
904 A 905
905 A 906
906 A 907
907 A 908
908 A 909
909 A 910
910 A 911
911 A 912
912 A 913
913 A 914
914 A 915
915 A 916
916 A 917
917 A 918
918 A 919
919 A 920
920 A 921
921 A 922
922 A 923
923 A 924
924 A 925
925 A 926
926 A 927
927 A 928
928 A 929
929 A 930
930 A 931
931 A 932
932 A 933
933 A 934
934 A 935
935 A 936
936 A 937
937 A 938
938 A 939
939 A 940
940 A 941
941 A 942
942 A 943
943 A 944
944 A 945
945 A 946
946 A 947
947 A 948
948 A 949
949 A 950
950 A 951
951 A 952
952 A 953
953 A 954
954 A 955
955 A 956
956 A 957
957 A 958
958 A 959
959 A 960
960 A 961
961 A 962
962 A 963
963 A 964
964 A 965
965 A 966
966 A 967
967 A 968
968 A 969
969 A 970
970 A 971
971 A 972
972 A 973
973 A 974
974 A 975
975 A 976
976 A 977
977 A 978
978 A 979
979 A 980
980 A 981
981 A 982
982 A 983
983 A 984
984 A 985
985 A 986
986 A 987
987 A 988
988 A 989
989 A 990
990 A 991
991 A 992
992 A 993
993 A 994
994 A 995
995 A 996
996 A 997
997 A 998
998 A 999
999 A 1000
1000 A 1001
1001 A 1002
1002 A 1003
1003 A 1004
1004 A 1005
1005 A 1006
1006 A 1007
1007 A 1008
1008 A 1009
1009 A 1010
1010 A 1011
1011 A 1012
1012 A 1013
1013 A 1014
1014 A 1015
1015 A 1016
1016 A 1017
1017 A 1018
1018 A 1019
1019 A 1020
1020 A 1021
1021 A 1022
1022 A 1023
1023 A 1024
1024 A 1025
1025 A 1026
1026 A 1027
1027 A 1028
1028 A 1029
1029 A 1030
1030 A 1031
1031 A 1032
1032 A 1033
1033 A 1034
1034 A 1035
1035 A 1036
1036 A 1037
1037 A 1038
1038 A 1039
1039 A 1040
1040 A 1041
1041 A 1042
1042 A 1043
1043 A 1044
1044 A 1045
1045 A 1046
1046 A 1047
1047 A 1048
1048 A 1049
1049 A 1050
1050 A 1051
1051 A 1052
1052 A 1053
1053 A 1054
1054 A 1055
1055 A 1056
1056 A 1057
1057 A 1058
1058 A 1059
1059 A 1060
1060 A 1061
1061 A 1062
1062 A 1063
1063 A 1064
1064 A 1065
1065 A 1066
1066 A 1067
1067 A 1068
1068 A 1069
1069 A 1070
1070 A 1071
1071 A 1072
1072 A 1073
1073 A 1074
1074 A 1075
1075 A 1076
1076 A 1077
1077 A 1078
1078 A 1079
1079 A 1080
1080 A 1081
1081 A 1082
1082 A 1083
1083 A 1084
1084 A 1085
1085 A 1086
1086 A 1087
1087 A 1088
1088 A 1089
1089 A 1090
1090 A 1091
1091 A 1092
1092 A 1093
1093 A 1094
1094 A 1095
1095 A 1096
1096 A 1097
1097 A 1098
1098 A 1099
1099 A 1100
1100 A 1101
1101 A 1102
1102 A 1103
1103 A 1104
1104 A 1105
1105 A 1106
1106 A 1107
1107 A 1108
1108 A 1109
1109 A 1110
1110 A 1111
1111 A 1112
1112 A 1113
1113 A 1114
1114 A 1115
1115 A 1116
1116 A 1117
1117 A 1118
1118 A 1119
1119 A 1120
1120 A 1121
1121 A 1122
1122 A 1123
1123 A 1124
1124 A 1125
1125 A 1126
1126 A 1127
1127 A 1128
1128 A 1129
1129 A 1130
1130 A 1131
1131 A 1132
1132 A 1133
1133 A 1134
1134 A 1135
1135 A 1136
1136 A 1137
1137 A 1138
1138 A 1139
1139 A 1140
1140 A 1141
1141 A 1142
1142 A 1143
1143 A 1144
1144 A 1145
1145 A 1146
1146 A 1147
1147 A 1148
1148 A 1149
1149 A 1150
1150 A 1151
1151 A 1152
1152 A 1153
1153 A 1154
1154 A 1155
1155 A 1156
1156 A 1157
1157 A 1158
1158 A 1159
1159 A 1160
1160 A 1161
1161 A 1162
1162 A 1163
1163 A 1164
1164 A 1165
1165 A 1166
1166 A 1167
1167 A 1168
1168 A 1169
1169 A 1170
1170 A 1171
1171 A 1172
1172 A 1173
1173 A 1174
1174 A 1175
1175 A 1176
1176 A 1177
1177 A 1178
1178 A 1179
1179 A 1180
1180 A 1181
1181 A 1182
1182 A 1183
1183 A 1184
1184 A 1185
1185 A 1186
1186 A 1187
1187 A 1188
1188 A 1189
1189 A 1190
1190 A 1191
1191 A 1192
1192 A 1193
1193 A 1194
1194 A 1195
1195 A 1196
1196 A 1197
1197 A 1198
1198 A 1199
1199 A 1200
1200 A 1201
1201 A 1202
1202 A 1203
1203 A 1204
1204 A 1205
1205 A 1206
1206 A 1207
1207 A 1208
1208 A 1209
1209 A 1210
1210 A 1211
1211 A 1212
1212 A 1213
1213 A 1214
1214 A 1215
1215 A 1216
1216 A 1217
1217 A 1218
1218 A 1219
1219 A 1220
1220 A 1221
1221 A 1222
1222 A 1223
1223 A 1224
1224 A 1225
1225 A 1226
1226 A 1227
1227 A 1228
1228 A 1229
1229 A 1230
1230 A 1231
1231 A 1232
1232 A 1233
1233 A 1234
1234 A 1235
1235 A 1236
1236 A 1237
1237 A 1238
1238 A 1239
1239 A 1240
1240 A 1241
1241 A 1242
1242 A 1243
1243 A 1244
1244 A 1245
1245 A 1246
1246 A 1247
1247 A 1248
1248 A 1249
1249 A 1250
1250 A 1251
1251 A 1252
1252 A 1253
1253 A 1254
1254 A 1255
1255 A 1256
1256 A 1257
1257 A 1258
1258 A 1259
1259 A 1260
1260 A 1261
1261 A 1262
1262 A 1263
1263 A 1264
1264 A 1265
1265 A 1266
1266 A 1267
1267 A 1268
1268 A 1269
1269 A 1270
1270 A 1271
1271 A 1272
1272 A 1273
1273 A 1274
1274 A 1275
1275 A 1276
1276 A 1277
1277 A 1278
1278 A 1279
1279 A 1280
1280 A 1281
1281 A 1282
1282 A 1283
1283 A 1284
1284 A 1285
1285 A 1286
1286 A 1287
1287 A 1288
1288 A 1289
1289 A 1290
1290 A 1291
1291 A 1292
1292 A 1293
1293 A 1294
1294 A 1295
1295 A 1296
1296 A 1297
1297 A 1298
1298 A 1299
1299 A 1300
1300 A 1301
1301 A 1302
1302 A 1303
1303 A 1304
1304 A 1305
1305 A 1306
1306 A 1307
1307 A 1308
1308 A 1309
1309 A 1310
1310 A 1311
1311 A 1312
1312 A 1313
1313 A 1314
1314 A 1315
1315 A 1316
1316 A 1317
1317 A 1318
1318 A 1319
1319 A 1320
1320 A 1321
1321 A 1322
1322 A 1323
1323 A 1324
1324 A 1325
1325 A 1326
1326 A 1327
1327 A 1328
1328 A 1329
1329 A 1330
1330 A 1331
1331 A 1332
1332 A 1333
1333 A 1334
1334 A 1335
1335 A 1336
1336 A 1337
1337 A 1338
1338 A 1339
1339 A 1340
1340 A 1341
1341 A 1342
1342 A 1343
1343 A 1344
1344 A 1345
1345 A 1346
1346 A 1347
1347 A 1348
1348 A 1349
1349 A 1350
1350 A 1351
1351 A 1352
1352 A 1353
1353 A 1354
1354 A 1355
1355 A 1356
1356 A 1357
1357 A 1358
1358 A 1359
1359 A 1360
1360 A 1361
1361 A 1362
1362 A 1363
1363 A 1364
1364 A 1365
1365 A 1366
1366 A 1367
1367 A 1368
1368 A 1369
1369 A 1370
1370 A 1371
1371 A 1372
1372 A 1373
1373 A 1374
1374 A 1375
1375 A 1376
1376 A 1377
1377 A 1378
1378 A 1379
1379 A 1380
1380 A 1381
1381 A 1382
1382 A 1383
1383 A 1384
1384 A 1385
1385 A 1386
1386 A 1387
1387 A 1388
1388 A 1389
1389 A 1390
1390 A 1391
1391 A 1392
1392 A 1393
1393 A 1394
1394 A 1395
1395 A 1396
1396 A 1397
1397 A 1398
1398 A 1399
1399 A 1400
1400 A 1401
1401 A 1402
1402 A 1403
1403 A 1404
1404 A 1405
1405 A 1406
1406 A 1407
1407 A 1408
1408 A 1409
1409 A 1410
1410 A 1411
1411 A 1412
1412 A 1413
1413 A 1414
1414 A 1415
1415 A 1416
1416 A 1417
1417 A 1418
1418 A 1419
1419 A 1420
1420 A 1421
1421 A 1422
1422 A 1423
1423 A 1424
1424 A 1425
1425 A 1426
1426 A 1427
1427 A 1428
1428 A 1429
1429 A 1430
1430 A 1431
1431 A 1432
1432 A 1433
1433 A 1434
1434 A 1435
1435 A 1436
1436 A 1437
1437 A 1438
1438 A 1439
1439 A 1440
1440 A 1441
1441 A 1442
1442 A 1443
1443 A 1444
1444 A 1445
1445 A 1446
1446 A 1447
1447 A 1448
1448 A 1449
1449 A 1450
1450 A 1451
1451 A 1452
1452 A 1453
1453 A 1454
1454 A 1455
1455 A 1456
1456 A 1457
1457 A 1458
1458 A 1459
1459 A 1460
1460 A 1461
1461 A 1462
1462 A 1463
1463 A 1464
1464 A 1465
1465 A 1466
1466 A 1467
1467 A 1468
1468 A 1469
1469 A 1470
1470 A 1471
1471 A 1472
1472 A 1473
1473 A 1474
1474 A 1475
1475 A 1476
1476 A 1477
1477 A 1478
1478 A 1479
1479 A 1480
1480 A 1481
1481 A 1482
1482 A 1483
1483 A 1484
1484 A 1485
1485 A 1486
1486 A 1487
1487 A 1488
1488 A 1489
1489 A 1490
1490 A 1491
1491 A 1492
1492 A 1493
1493 A 1494
1494 A 1495
1495 A 1496
1496 A 1497
1497 A 1498
1498 A 1499
1499 A 1500
1500 A 1501
1501 B 1502
1502 B 1503
1503 B 1504
1504 B 1505
1505 B 1506
1506 B 1507
1507 B 1508
1508 B 1509
1509 B 1510
1510 B 1511
1511 B 1512
1512 B 1513
1513 B 1514
1514 B 1515
1515 B 1516
1516 B 1517
1517 B 1518
1518 B 1519
1519 B 1520
1520 B 1521
1521 B 1522
1522 B 1523
1523 B 1524
1524 B 1525
1525 B 1526
1526 B 1527
1527 B 1528
1528 B 1529
1529 B 1530
1530 B 1531
1531 B 1532
1532 B 1533
1533 B 1534
1534 B 1535
1535 B 1536
1536 B 1537
1537 B 1538
1538 B 1539
1539 B 1540
1540 B 1541
1541 B 1542
1542 B 1543
1543 B 1544
1544 B 1545
1545 B 1546
1546 B 1547
1547 B 1548
1548 B 1549
1549 B 1550
1550 B 1551
1551 B 1552
1552 B 1553
1553 B 1554
1554 B 1555
1555 B 1556
1556 B 1557
1557 B 1558
1558 B 1559
1559 B 1560
1560 B 1561
1561 B 1562
1562 B 1563
1563 B 1564
1564 B 1565
1565 B 1566
1566 B 1567
1567 B 1568
1568 B 1569
1569 B 1570
1570 B 1571
1571 B 1572
1572 B 1573
1573 B 1574
1574 B 1575
1575 B 1576
1576 B 1577
1577 B 1578
1578 B 1579
1579 B 1580
1580 B 1581
1581 B 1582
1582 B 1583
1583 B 1584
1584 B 1585
1585 B 1586
1586 B 1587
1587 B 1588
1588 B 1589
1589 B 1590
1590 B 1591
1591 B 1592
1592 B 1593
1593 B 1594
1594 B 1595
1595 B 1596
1596 B 1597
1597 B 1598
1598 B 1599
1599 B 1600
1600 B 1601
1601 B 1602
1602 B 1603
1603 B 1604
1604 B 1605
1605 B 1606
1606 B 1607
1607 B 1608
1608 B 1609
1609 B 1610
1610 B 1611
1611 B 1612
1612 B 1613
1613 B 1614
1614 B 1615
1615 B 1616
1616 B 1617
1617 B 1618
1618 B 1619
1619 B 1620
1620 B 1621
1621 B 1622
1622 B 1623
1623 B 1624
1624 B 1625
1625 B 1626
1626 B 1627
1627 B 1628
1628 B 1629
1629 B 1630
1630 B 1631
1631 B 1632
1632 B 1633
1633 B 1634
1634 B 1635
1635 B 1636
1636 B 1637
1637 B 1638
1638 B 1639
1639 B 1640
1640 B 1641
1641 B 1642
1642 B 1643
1643 B 1644
1644 B 1645
1645 B 1646
1646 B 1647
1647 B 1648
1648 B 1649
1649 B 1650
1650 B 1651
1651 B 1652
1652 B 1653
1653 B 1654
1654 B 1655
1655 B 1656
1656 B 1657
1657 B 1658
1658 B 1659
1659 B 1660
1660 B 1661
1661 B 1662
1662 B 1663
1663 B 1664
1664 B 1665
1665 B 1666
1666 B 1667
1667 B 1668
1668 B 1669
1669 B 1670
1670 B 1671
1671 B 1672
1672 B 1673
1673 B 1674
1674 B 1675
1675 B 1676
1676 B 1677
1677 B 1678
1678 B 1679
1679 B 1680
1680 B 1681
1681 B 1682
1682 B 1683
1683 B 1684
1684 B 1685
1685 B 1686
1686 B 1687
1687 B 1688
1688 B 1689
1689 B 1690
1690 B 1691
1691 B 1692
1692 B 1693
1693 B 1694
1694 B 1695
1695 B 1696
1696 B 1697
1697 B 1698
1698 B 1699
1699 B 1700
1700 B 1701
1701 B 1702
1702 B 1703
1703 B 1704
1704 B 1705
1705 B 1706
1706 B 1707
1707 B 1708
1708 B 1709
1709 B 1710
1710 B 1711
1711 B 1712
1712 B 1713
1713 B 1714
1714 B 1715
1715 B 1716
1716 B 1717
1717 B 1718
1718 B 1719
1719 B 1720
1720 B 1721
1721 B 1722
1722 B 1723
1723 B 1724
1724 B 1725
1725 B 1726
1726 B 1727
1727 B 1728
1728 B 1729
1729 B 1730
1730 B 1731
1731 B 1732
1732 B 1733
1733 B 1734
1734 B 1735
1735 B 1736
1736 B 1737
1737 B 1738
1738 B 1739
1739 B 1740
1740 B 1741
1741 B 1742
1742 B 1743
1743 B 1744
1744 B 1745
1745 B 1746
1746 B 1747
1747 B 1748
1748 B 1749
1749 B 1750
1750 B 1751
1751 B 1752
1752 B 1753
1753 B 1754
1754 B 1755
1755 B 1756
1756 B 1757
1757 B 1758
1758 B 1759
1759 B 1760
1760 B 1761
1761 B 1762
1762 B 1763
1763 B 1764
1764 B 1765
1765 B 1766
1766 B 1767
1767 B 1768
1768 B 1769
1769 B 1770
1770 B 1771
1771 B 1772
1772 B 1773
1773 B 1774
1774 B 1775
1775 B 1776
1776 B 1777
1777 B 1778
1778 B 1779
1779 B 1780
1780 B 1781
1781 B 1782
1782 B 1783
1783 B 1784
1784 B 1785
1785 B 1786
1786 B 1787
1787 B 1788
1788 B 1789
1789 B 1790
1790 B 1791
1791 B 1792
1792 B 1793
1793 B 1794
1794 B 1795
1795 B 1796
1796 B 1797
1797 B 1798
1798 B 1799
1799 B 1800
1800 B 1801
1801 B 1802
1802 B 1803
1803 B 1804
1804 B 1805
1805 B 1806
1806 B 1807
1807 B 1808
1808 B 1809
1809 B 1810
1810 B 1811
1811 B 1812
1812 B 1813
1813 B 1814
1814 B 1815
1815 B 1816
1816 B 1817
1817 B 1818
1818 B 1819
1819 B 1820
1820 B 1821
1821 B 1822
1822 B 1823
1823 B 1824
1824 B 1825
1825 B 1826
1826 B 1827
1827 B 1828
1828 B 1829
1829 B 1830
1830 B 1831
1831 B 1832
1832 B 1833
1833 B 1834
1834 B 1835
1835 B 1836
1836 B 1837
1837 B 1838
1838 B 1839
1839 B 1840
1840 B 1841
1841 B 1842
1842 B 1843
1843 B 1844
1844 B 1845
1845 B 1846
1846 B 1847
1847 B 1848
1848 B 1849
1849 B 1850
1850 B 1851
1851 B 1852
1852 B 1853
1853 B 1854
1854 B 1855
1855 B 1856
1856 B 1857
1857 B 1858
1858 B 1859
1859 B 1860
1860 B 1861
1861 B 1862
1862 B 1863
1863 B 1864
1864 B 1865
1865 B 1866
1866 B 1867
1867 B 1868
1868 B 1869
1869 B 1870
1870 B 1871
1871 B 1872
1872 B 1873
1873 B 1874
1874 B 1875
1875 B 1876
1876 B 1877
1877 B 1878
1878 B 1879
1879 B 1880
1880 B 1881
1881 B 1882
1882 B 1883
1883 B 1884
1884 B 1885
1885 B 1886
1886 B 1887
1887 B 1888
1888 B 1889
1889 B 1890
1890 B 1891
1891 B 1892
1892 B 1893
1893 B 1894
1894 B 1895
1895 B 1896
1896 B 1897
1897 B 1898
1898 B 1899
1899 B 1900
1900 B 1901
1901 B 1902
1902 B 1903
1903 B 1904
1904 B 1905
1905 B 1906
1906 B 1907
1907 B 1908
1908 B 1909
1909 B 1910
1910 B 1911
1911 B 1912
1912 B 1913
1913 B 1914
1914 B 1915
1915 B 1916
1916 B 1917
1917 B 1918
1918 B 1919
1919 B 1920
1920 B 1921
1921 B 1922
1922 B 1923
1923 B 1924
1924 B 1925
1925 B 1926
1926 B 1927
1927 B 1928
1928 B 1929
1929 B 1930
1930 B 1931
1931 B 1932
1932 B 1933
1933 B 1934
1934 B 1935
1935 B 1936
1936 B 1937
1937 B 1938
1938 B 1939
1939 B 1940
1940 B 1941
1941 B 1942
1942 B 1943
1943 B 1944
1944 B 1945
1945 B 1946
1946 B 1947
1947 B 1948
1948 B 1949
1949 B 1950
1950 B 1951
1951 B 1952
1952 B 1953
1953 B 1954
1954 B 1955
1955 B 1956
1956 B 1957
1957 B 1958
1958 B 1959
1959 B 1960
1960 B 1961
1961 B 1962
1962 B 1963
1963 B 1964
1964 B 1965
1965 B 1966
1966 B 1967
1967 B 1968
1968 B 1969
1969 B 1970
1970 B 1971
1971 B 1972
1972 B 1973
1973 B 1974
1974 B 1975
1975 B 1976
1976 B 1977
1977 B 1978
1978 B 1979
1979 B 1980
1980 B 1981
1981 B 1982
1982 B 1983
1983 B 1984
1984 B 1985
1985 B 1986
1986 B 1987
1987 B 1988
1988 B 1989
1989 B 1990
1990 B 1991
1991 B 1992
1992 B 1993
1993 B 1994
1994 B 1995
1995 B 1996
1996 B 1997
1997 B 1998
1998 B 1999
1999 B 2000
2000 B 2001
2001 B 2002
2002 B 2003
2003 B 2004
2004 B 2005
2005 B 2006
2006 B 2007
2007 B 2008
2008 B 2009
2009 B 2010
2010 B 2011
2011 B 2012
2012 B 2013
2013 B 2014
2014 B 2015
2015 B 2016
2016 B 2017
2017 B 2018
2018 B 2019
2019 B 2020
2020 B 2021
2021 B 2022
2022 B 2023
2023 B 2024
2024 B 2025
2025 B 2026
2026 B 2027
2027 B 2028
2028 B 2029
2029 B 2030
2030 B 2031
2031 B 2032
2032 B 2033
2033 B 2034
2034 B 2035
2035 B 2036
2036 B 2037
2037 B 2038
2038 B 2039
2039 B 2040
2040 B 2041
2041 B 2042
2042 B 2043
2043 B 2044
2044 B 2045
2045 B 2046
2046 B 2047
2047 B 2048
2048 B 2049
2049 B 2050
2050 B 2051
2051 B 2052
2052 B 2053
2053 B 2054
2054 B 2055
2055 B 2056
2056 B 2057
2057 B 2058
2058 B 2059
2059 B 2060
2060 B 2061
2061 B 2062
2062 B 2063
2063 B 2064
2064 B 2065
2065 B 2066
2066 B 2067
2067 B 2068
2068 B 2069
2069 B 2070
2070 B 2071
2071 B 2072
2072 B 2073
2073 B 2074
2074 B 2075
2075 B 2076
2076 B 2077
2077 B 2078
2078 B 2079
2079 B 2080
2080 B 2081
2081 B 2082
2082 B 2083
2083 B 2084
2084 B 2085
2085 B 2086
2086 B 2087
2087 B 2088
2088 B 2089
2089 B 2090
2090 B 2091
2091 B 2092
2092 B 2093
2093 B 2094
2094 B 2095
2095 B 2096
2096 B 2097
2097 B 2098
2098 B 2099
2099 B 2100
2100 B 2101
2101 B 2102
2102 B 2103
2103 B 2104
2104 B 2105
2105 B 2106
2106 B 2107
2107 B 2108
2108 B 2109
2109 B 2110
2110 B 2111
2111 B 2112
2112 B 2113
2113 B 2114
2114 B 2115
2115 B 2116
2116 B 2117
2117 B 2118
2118 B 2119
2119 B 2120
2120 B 2121
2121 B 2122
2122 B 2123
2123 B 2124
2124 B 2125
2125 B 2126
2126 B 2127
2127 B 2128
2128 B 2129
2129 B 2130
2130 B 2131
2131 B 2132
2132 B 2133
2133 B 2134
2134 B 2135
2135 B 2136
2136 B 2137
2137 B 2138
2138 B 2139
2139 B 2140
2140 B 2141
2141 B 2142
2142 B 2143
2143 B 2144
2144 B 2145
2145 B 2146
2146 B 2147
2147 B 2148
2148 B 2149
2149 B 2150
2150 B 2151
2151 B 2152
2152 B 2153
2153 B 2154
2154 B 2155
2155 B 2156
2156 B 2157
2157 B 2158
2158 B 2159
2159 B 2160
2160 B 2161
2161 B 2162
2162 B 2163
2163 B 2164
2164 B 2165
2165 B 2166
2166 B 2167
2167 B 2168
2168 B 2169
2169 B 2170
2170 B 2171
2171 B 2172
2172 B 2173
2173 B 2174
2174 B 2175
2175 B 2176
2176 B 2177
2177 B 2178
2178 B 2179
2179 B 2180
2180 B 2181
2181 B 2182
2182 B 2183
2183 B 2184
2184 B 2185
2185 B 2186
2186 B 2187
2187 B 2188
2188 B 2189
2189 B 2190
2190 B 2191
2191 B 2192
2192 B 2193
2193 B 2194
2194 B 2195
2195 B 2196
2196 B 2197
2197 B 2198
2198 B 2199
2199 B 2200
2200 B 2201
2201 B 2202
2202 B 2203
2203 B 2204
2204 B 2205
2205 B 2206
2206 B 2207
2207 B 2208
2208 B 2209
2209 B 2210
2210 B 2211
2211 B 2212
2212 B 2213
2213 B 2214
2214 B 2215
2215 B 2216
2216 B 2217
2217 B 2218
2218 B 2219
2219 B 2220
2220 B 2221
2221 B 2222
2222 B 2223
2223 B 2224
2224 B 2225
2225 B 2226
2226 B 2227
2227 B 2228
2228 B 2229
2229 B 2230
2230 B 2231
2231 B 2232
2232 B 2233
2233 B 2234
2234 B 2235
2235 B 2236
2236 B 2237
2237 B 2238
2238 B 2239
2239 B 2240
2240 B 2241
2241 B 2242
2242 B 2243
2243 B 2244
2244 B 2245
2245 B 2246
2246 B 2247
2247 B 2248
2248 B 2249
2249 B 2250
2250 B 2251
2251 B 2252
2252 B 2253
2253 B 2254
2254 B 2255
2255 B 2256
2256 B 2257
2257 B 2258
2258 B 2259
2259 B 2260
2260 B 2261
2261 B 2262
2262 B 2263
2263 B 2264
2264 B 2265
2265 B 2266
2266 B 2267
2267 B 2268
2268 B 2269
2269 B 2270
2270 B 2271
2271 B 2272
2272 B 2273
2273 B 2274
2274 B 2275
2275 B 2276
2276 B 2277
2277 B 2278
2278 B 2279
2279 B 2280
2280 B 2281
2281 B 2282
2282 B 2283
2283 B 2284
2284 B 2285
2285 B 2286
2286 B 2287
2287 B 2288
2288 B 2289
2289 B 2290
2290 B 2291
2291 B 2292
2292 B 2293
2293 B 2294
2294 B 2295
2295 B 2296
2296 B 2297
2297 B 2298
2298 B 2299
2299 B 2300
2300 B 2301
2301 B 2302
2302 B 2303
2303 B 2304
2304 B 2305
2305 B 2306
2306 B 2307
2307 B 2308
2308 B 2309
2309 B 2310
2310 B 2311
2311 B 2312
2312 B 2313
2313 B 2314
2314 B 2315
2315 B 2316
2316 B 2317
2317 B 2318
2318 B 2319
2319 B 2320
2320 B 2321
2321 B 2322
2322 B 2323
2323 B 2324
2324 B 2325
2325 B 2326
2326 B 2327
2327 B 2328
2328 B 2329
2329 B 2330
2330 B 2331
2331 B 2332
2332 B 2333
2333 B 2334
2334 B 2335
2335 B 2336
2336 B 2337
2337 B 2338
2338 B 2339
2339 B 2340
2340 B 2341
2341 B 2342
2342 B 2343
2343 B 2344
2344 B 2345
2345 B 2346
2346 B 2347
2347 B 2348
2348 B 2349
2349 B 2350
2350 B 2351
2351 B 2352
2352 B 2353
2353 B 2354
2354 B 2355
2355 B 2356
2356 B 2357
2357 B 2358
2358 B 2359
2359 B 2360
2360 B 2361
2361 B 2362
2362 B 2363
2363 B 2364
2364 B 2365
2365 B 2366
2366 B 2367
2367 B 2368
2368 B 2369
2369 B 2370
2370 B 2371
2371 B 2372
2372 B 2373
2373 B 2374
2374 B 2375
2375 B 2376
2376 B 2377
2377 B 2378
2378 B 2379
2379 B 2380
2380 B 2381
2381 B 2382
2382 B 2383
2383 B 2384
2384 B 2385
2385 B 2386
2386 B 2387
2387 B 2388
2388 B 2389
2389 B 2390
2390 B 2391
2391 B 2392
2392 B 2393
2393 B 2394
2394 B 2395
2395 B 2396
2396 B 2397
2397 B 2398
2398 B 2399
2399 B 2400
2400 B 2401
2401 B 2402
2402 B 2403
2403 B 2404
2404 B 2405
2405 B 2406
2406 B 2407
2407 B 2408
2408 B 2409
2409 B 2410
2410 B 2411
2411 B 2412
2412 B 2413
2413 B 2414
2414 B 2415
2415 B 2416
2416 B 2417
2417 B 2418
2418 B 2419
2419 B 2420
2420 B 2421
2421 B 2422
2422 B 2423
2423 B 2424
2424 B 2425
2425 B 2426
2426 B 2427
2427 B 2428
2428 B 2429
2429 B 2430
2430 B 2431
2431 B 2432
2432 B 2433
2433 B 2434
2434 B 2435
2435 B 2436
2436 B 2437
2437 B 2438
2438 B 2439
2439 B 2440
2440 B 2441
2441 B 2442
2442 B 2443
2443 B 2444
2444 B 2445
2445 B 2446
2446 B 2447
2447 B 2448
2448 B 2449
2449 B 2450
2450 B 2451
2451 B 2452
2452 B 2453
2453 B 2454
2454 B 2455
2455 B 2456
2456 B 2457
2457 B 2458
2458 B 2459
2459 B 2460
2460 B 2461
2461 B 2462
2462 B 2463
2463 B 2464
2464 B 2465
2465 B 2466
2466 B 2467
2467 B 2468
2468 B 2469
2469 B 2470
2470 B 2471
2471 B 2472
2472 B 2473
2473 B 2474
2474 B 2475
2475 B 2476
2476 B 2477
2477 B 2478
2478 B 2479
2479 B 2480
2480 B 2481
2481 B 2482
2482 B 2483
2483 B 2484
2484 B 2485
2485 B 2486
2486 B 2487
2487 B 2488
2488 B 2489
2489 B 2490
2490 B 2491
2491 B 2492
2492 B 2493
2493 B 2494
2494 B 2495
2495 B 2496
2496 B 2497
2497 B 2498
2498 B 2499
2499 B 2500
2500 B 2501
2501 B 2502
2502 B 2503
2503 B 2504
2504 B 2505
2505 B 2506
2506 B 2507
2507 B 2508
2508 B 2509
2509 B 2510
2510 B 2511
2511 B 2512
2512 B 2513
2513 B 2514
2514 B 2515
2515 B 2516
2516 B 2517
2517 B 2518
2518 B 2519
2519 B 2520
2520 B 2521
2521 B 2522
2522 B 2523
2523 B 2524
2524 B 2525
2525 B 2526
2526 B 2527
2527 B 2528
2528 B 2529
2529 B 2530
2530 B 2531
2531 B 2532
2532 B 2533
2533 B 2534
2534 B 2535
2535 B 2536
2536 B 2537
2537 B 2538
2538 B 2539
2539 B 2540
2540 B 2541
2541 B 2542
2542 B 2543
2543 B 2544
2544 B 2545
2545 B 2546
2546 B 2547
2547 B 2548
2548 B 2549
2549 B 2550
2550 B 2551
2551 B 2552
2552 B 2553
2553 B 2554
2554 B 2555
2555 B 2556
2556 B 2557
2557 B 2558
2558 B 2559
2559 B 2560
2560 B 2561
2561 B 2562
2562 B 2563
2563 B 2564
2564 B 2565
2565 B 2566
2566 B 2567
2567 B 2568
2568 B 2569
2569 B 2570
2570 B 2571
2571 B 2572
2572 B 2573
2573 B 2574
2574 B 2575
2575 B 2576
2576 B 2577
2577 B 2578
2578 B 2579
2579 B 2580
2580 B 2581
2581 B 2582
2582 B 2583
2583 B 2584
2584 B 2585
2585 B 2586
2586 B 2587
2587 B 2588
2588 B 2589
2589 B 2590
2590 B 2591
2591 B 2592
2592 B 2593
2593 B 2594
2594 B 2595
2595 B 2596
2596 B 2597
2597 B 2598
2598 B 2599
2599 B 2600
2600 B 2601
2601 B 2602
2602 B 2603
2603 B 2604
2604 B 2605
2605 B 2606
2606 B 2607
2607 B 2608
2608 B 2609
2609 B 2610
2610 B 2611
2611 B 2612
2612 B 2613
2613 B 2614
2614 B 2615
2615 B 2616
2616 B 2617
2617 B 2618
2618 B 2619
2619 B 2620
2620 B 2621
2621 B 2622
2622 B 2623
2623 B 2624
2624 B 2625
2625 B 2626
2626 B 2627
2627 B 2628
2628 B 2629
2629 B 2630
2630 B 2631
2631 B 2632
2632 B 2633
2633 B 2634
2634 B 2635
2635 B 2636
2636 B 2637
2637 B 2638
2638 B 2639
2639 B 2640
2640 B 2641
2641 B 2642
2642 B 2643
2643 B 2644
2644 B 2645
2645 B 2646
2646 B 2647
2647 B 2648
2648 B 2649
2649 B 2650
2650 B 2651
2651 B 2652
2652 B 2653
2653 B 2654
2654 B 2655
2655 B 2656
2656 B 2657
2657 B 2658
2658 B 2659
2659 B 2660
2660 B 2661
2661 B 2662
2662 B 2663
2663 B 2664
2664 B 2665
2665 B 2666
2666 B 2667
2667 B 2668
2668 B 2669
2669 B 2670
2670 B 2671
2671 B 2672
2672 B 2673
2673 B 2674
2674 B 2675
2675 B 2676
2676 B 2677
2677 B 2678
2678 B 2679
2679 B 2680
2680 B 2681
2681 B 2682
2682 B 2683
2683 B 2684
2684 B 2685
2685 B 2686
2686 B 2687
2687 B 2688
2688 B 2689
2689 B 2690
2690 B 2691
2691 B 2692
2692 B 2693
2693 B 2694
2694 B 2695
2695 B 2696
2696 B 2697
2697 B 2698
2698 B 2699
2699 B 2700
2700 B 2701
2701 B 2702
2702 B 2703
2703 B 2704
2704 B 2705
2705 B 2706
2706 B 2707
2707 B 2708
2708 B 2709
2709 B 2710
2710 B 2711
2711 B 2712
2712 B 2713
2713 B 2714
2714 B 2715
2715 B 2716
2716 B 2717
2717 B 2718
2718 B 2719
2719 B 2720
2720 B 2721
2721 B 2722
2722 B 2723
2723 B 2724
2724 B 2725
2725 B 2726
2726 B 2727
2727 B 2728
2728 B 2729
2729 B 2730
2730 B 2731
2731 B 2732
2732 B 2733
2733 B 2734
2734 B 2735
2735 B 2736
2736 B 2737
2737 B 2738
2738 B 2739
2739 B 2740
2740 B 2741
2741 B 2742
2742 B 2743
2743 B 2744
2744 B 2745
2745 B 2746
2746 B 2747
2747 B 2748
2748 B 2749
2749 B 2750
2750 B 2751
2751 B 2752
2752 B 2753
2753 B 2754
2754 B 2755
2755 B 2756
2756 B 2757
2757 B 2758
2758 B 2759
2759 B 2760
2760 B 2761
2761 B 2762
2762 B 2763
2763 B 2764
2764 B 2765
2765 B 2766
2766 B 2767
2767 B 2768
2768 B 2769
2769 B 2770
2770 B 2771
2771 B 2772
2772 B 2773
2773 B 2774
2774 B 2775
2775 B 2776
2776 B 2777
2777 B 2778
2778 B 2779
2779 B 2780
2780 B 2781
2781 B 2782
2782 B 2783
2783 B 2784
2784 B 2785
2785 B 2786
2786 B 2787
2787 B 2788
2788 B 2789
2789 B 2790
2790 B 2791
2791 B 2792
2792 B 2793
2793 B 2794
2794 B 2795
2795 B 2796
2796 B 2797
2797 B 2798
2798 B 2799
2799 B 2800
2800 B 2801
2801 B 2802
2802 B 2803
2803 B 2804
2804 B 2805
2805 B 2806
2806 B 2807
2807 B 2808
2808 B 2809
2809 B 2810
2810 B 2811
2811 B 2812
2812 B 2813
2813 B 2814
2814 B 2815
2815 B 2816
2816 B 2817
2817 B 2818
2818 B 2819
2819 B 2820
2820 B 2821
2821 B 2822
2822 B 2823
2823 B 2824
2824 B 2825
2825 B 2826
2826 B 2827
2827 B 2828
2828 B 2829
2829 B 2830
2830 B 2831
2831 B 2832
2832 B 2833
2833 B 2834
2834 B 2835
2835 B 2836
2836 B 2837
2837 B 2838
2838 B 2839
2839 B 2840
2840 B 2841
2841 B 2842
2842 B 2843
2843 B 2844
2844 B 2845
2845 B 2846
2846 B 2847
2847 B 2848
2848 B 2849
2849 B 2850
2850 B 2851
2851 B 2852
2852 B 2853
2853 B 2854
2854 B 2855
2855 B 2856
2856 B 2857
2857 B 2858
2858 B 2859
2859 B 2860
2860 B 2861
2861 B 2862
2862 B 2863
2863 B 2864
2864 B 2865
2865 B 2866
2866 B 2867
2867 B 2868
2868 B 2869
2869 B 2870
2870 B 2871
2871 B 2872
2872 B 2873
2873 B 2874
2874 B 2875
2875 B 2876
2876 B 2877
2877 B 2878
2878 B 2879
2879 B 2880
2880 B 2881
2881 B 2882
2882 B 2883
2883 B 2884
2884 B 2885
2885 B 2886
2886 B 2887
2887 B 2888
2888 B 2889
2889 B 2890
2890 B 2891
2891 B 2892
2892 B 2893
2893 B 2894
2894 B 2895
2895 B 2896
2896 B 2897
2897 B 2898
2898 B 2899
2899 B 2900
2900 B 2901
2901 B 2902
2902 B 2903
2903 B 2904
2904 B 2905
2905 B 2906
2906 B 2907
2907 B 2908
2908 B 2909
2909 B 2910
2910 B 2911
2911 B 2912
2912 B 2913
2913 B 2914
2914 B 2915
2915 B 2916
2916 B 2917
2917 B 2918
2918 B 2919
2919 B 2920
2920 B 2921
2921 B 2922
2922 B 2923
2923 B 2924
2924 B 2925
2925 B 2926
2926 B 2927
2927 B 2928
2928 B 2929
2929 B 2930
2930 B 2931
2931 B 2932
2932 B 2933
2933 B 2934
2934 B 2935
2935 B 2936
2936 B 2937
2937 B 2938
2938 B 2939
2939 B 2940
2940 B 2941
2941 B 2942
2942 B 2943
2943 B 2944
2944 B 2945
2945 B 2946
2946 B 2947
2947 B 2948
2948 B 2949
2949 B 2950
2950 B 2951
2951 B 2952
2952 B 2953
2953 B 2954
2954 B 2955
2955 B 2956
2956 B 2957
2957 B 2958
2958 B 2959
2959 B 2960
2960 B 2961
2961 B 2962
2962 B 2963
2963 B 2964
2964 B 2965
2965 B 2966
2966 B 2967
2967 B 2968
2968 B 2969
2969 B 2970
2970 B 2971
2971 B 2972
2972 B 2973
2973 B 2974
2974 B 2975
2975 B 2976
2976 B 2977
2977 B 2978
2978 B 2979
2979 B 2980
2980 B 2981
2981 B 2982
2982 B 2983
2983 B 2984
2984 B 2985
2985 B 2986
2986 B 2987
2987 B 2988
2988 B 2989
2989 B 2990
2990 B 2991
2991 B 2992
2992 B 2993
2993 B 2994
2994 B 2995
2995 B 2996
2996 B 2997
2997 B 2998
2998 B 2999
2999 B 3000
