1 A 1
1 A 2
1 A 3
1 A 4
1 A 5
1 A 6
1 A 7
1 A 8
1 A 9
1 A 10
1 A 11
1 A 12
1 A 13
1 A 14
1 A 15
1 A 16
1 A 17
1 A 18
1 A 19
1 A 20
1 A 21
1 A 22
1 A 23
1 A 24
1 A 25
1 A 26
1 A 27
1 A 28
1 A 29
1 A 30
1 A 31
1 A 32
1 A 33
1 A 34
1 A 35
1 A 36
1 A 37
1 A 38
1 A 39
1 A 40
1 A 41
1 A 42
1 A 43
1 A 44
1 A 45
1 A 46
1 A 47
1 A 48
1 A 49
1 A 50
1 A 51
1 A 52
1 A 53
1 A 54
1 A 55
1 A 56
1 A 57
1 A 58
1 A 59
1 A 60
1 A 61
1 A 62
1 A 63
1 A 64
1 A 65
1 A 66
1 A 67
1 A 68
1 A 69
1 A 70
1 A 71
1 A 72
1 A 73
1 A 74
1 A 75
1 A 76
1 A 77
1 A 78
1 A 79
1 A 80
1 A 81
1 A 82
1 A 83
1 A 84
1 A 85
1 A 86
1 A 87
1 A 88
1 A 89
1 A 90
1 A 91
1 A 92
1 A 93
1 A 94
1 A 95
1 A 96
1 A 97
1 A 98
1 A 99
1 A 100
2 A 1
2 A 2
2 A 3
2 A 4
2 A 5
2 A 6
2 A 7
2 A 8
2 A 9
2 A 10
2 A 11
2 A 12
2 A 13
2 A 14
2 A 15
2 A 16
2 A 17
2 A 18
2 A 19
2 A 20
2 A 21
2 A 22
2 A 23
2 A 24
2 A 25
2 A 26
2 A 27
2 A 28
2 A 29
2 A 30
2 A 31
2 A 32
2 A 33
2 A 34
2 A 35
2 A 36
2 A 37
2 A 38
2 A 39
2 A 40
2 A 41
2 A 42
2 A 43
2 A 44
2 A 45
2 A 46
2 A 47
2 A 48
2 A 49
2 A 50
2 A 51
2 A 52
2 A 53
2 A 54
2 A 55
2 A 56
2 A 57
2 A 58
2 A 59
2 A 60
2 A 61
2 A 62
2 A 63
2 A 64
2 A 65
2 A 66
2 A 67
2 A 68
2 A 69
2 A 70
2 A 71
2 A 72
2 A 73
2 A 74
2 A 75
2 A 76
2 A 77
2 A 78
2 A 79
2 A 80
2 A 81
2 A 82
2 A 83
2 A 84
2 A 85
2 A 86
2 A 87
2 A 88
2 A 89
2 A 90
2 A 91
2 A 92
2 A 93
2 A 94
2 A 95
2 A 96
2 A 97
2 A 98
2 A 99
2 A 100
3 A 1
3 A 2
3 A 3
3 A 4
3 A 5
3 A 6
3 A 7
3 A 8
3 A 9
3 A 10
3 A 11
3 A 12
3 A 13
3 A 14
3 A 15
3 A 16
3 A 17
3 A 18
3 A 19
3 A 20
3 A 21
3 A 22
3 A 23
3 A 24
3 A 25
3 A 26
3 A 27
3 A 28
3 A 29
3 A 30
3 A 31
3 A 32
3 A 33
3 A 34
3 A 35
3 A 36
3 A 37
3 A 38
3 A 39
3 A 40
3 A 41
3 A 42
3 A 43
3 A 44
3 A 45
3 A 46
3 A 47
3 A 48
3 A 49
3 A 50
3 A 51
3 A 52
3 A 53
3 A 54
3 A 55
3 A 56
3 A 57
3 A 58
3 A 59
3 A 60
3 A 61
3 A 62
3 A 63
3 A 64
3 A 65
3 A 66
3 A 67
3 A 68
3 A 69
3 A 70
3 A 71
3 A 72
3 A 73
3 A 74
3 A 75
3 A 76
3 A 77
3 A 78
3 A 79
3 A 80
3 A 81
3 A 82
3 A 83
3 A 84
3 A 85
3 A 86
3 A 87
3 A 88
3 A 89
3 A 90
3 A 91
3 A 92
3 A 93
3 A 94
3 A 95
3 A 96
3 A 97
3 A 98
3 A 99
3 A 100
4 A 1
4 A 2
4 A 3
4 A 4
4 A 5
4 A 6
4 A 7
4 A 8
4 A 9
4 A 10
4 A 11
4 A 12
4 A 13
4 A 14
4 A 15
4 A 16
4 A 17
4 A 18
4 A 19
4 A 20
4 A 21
4 A 22
4 A 23
4 A 24
4 A 25
4 A 26
4 A 27
4 A 28
4 A 29
4 A 30
4 A 31
4 A 32
4 A 33
4 A 34
4 A 35
4 A 36
4 A 37
4 A 38
4 A 39
4 A 40
4 A 41
4 A 42
4 A 43
4 A 44
4 A 45
4 A 46
4 A 47
4 A 48
4 A 49
4 A 50
4 A 51
4 A 52
4 A 53
4 A 54
4 A 55
4 A 56
4 A 57
4 A 58
4 A 59
4 A 60
4 A 61
4 A 62
4 A 63
4 A 64
4 A 65
4 A 66
4 A 67
4 A 68
4 A 69
4 A 70
4 A 71
4 A 72
4 A 73
4 A 74
4 A 75
4 A 76
4 A 77
4 A 78
4 A 79
4 A 80
4 A 81
4 A 82
4 A 83
4 A 84
4 A 85
4 A 86
4 A 87
4 A 88
4 A 89
4 A 90
4 A 91
4 A 92
4 A 93
4 A 94
4 A 95
4 A 96
4 A 97
4 A 98
4 A 99
4 A 100
5 A 1
5 A 2
5 A 3
5 A 4
5 A 5
5 A 6
5 A 7
5 A 8
5 A 9
5 A 10
5 A 11
5 A 12
5 A 13
5 A 14
5 A 15
5 A 16
5 A 17
5 A 18
5 A 19
5 A 20
5 A 21
5 A 22
5 A 23
5 A 24
5 A 25
5 A 26
5 A 27
5 A 28
5 A 29
5 A 30
5 A 31
5 A 32
5 A 33
5 A 34
5 A 35
5 A 36
5 A 37
5 A 38
5 A 39
5 A 40
5 A 41
5 A 42
5 A 43
5 A 44
5 A 45
5 A 46
5 A 47
5 A 48
5 A 49
5 A 50
5 A 51
5 A 52
5 A 53
5 A 54
5 A 55
5 A 56
5 A 57
5 A 58
5 A 59
5 A 60
5 A 61
5 A 62
5 A 63
5 A 64
5 A 65
5 A 66
5 A 67
5 A 68
5 A 69
5 A 70
5 A 71
5 A 72
5 A 73
5 A 74
5 A 75
5 A 76
5 A 77
5 A 78
5 A 79
5 A 80
5 A 81
5 A 82
5 A 83
5 A 84
5 A 85
5 A 86
5 A 87
5 A 88
5 A 89
5 A 90
5 A 91
5 A 92
5 A 93
5 A 94
5 A 95
5 A 96
5 A 97
5 A 98
5 A 99
5 A 100
6 A 1
6 A 2
6 A 3
6 A 4
6 A 5
6 A 6
6 A 7
6 A 8
6 A 9
6 A 10
6 A 11
6 A 12
6 A 13
6 A 14
6 A 15
6 A 16
6 A 17
6 A 18
6 A 19
6 A 20
6 A 21
6 A 22
6 A 23
6 A 24
6 A 25
6 A 26
6 A 27
6 A 28
6 A 29
6 A 30
6 A 31
6 A 32
6 A 33
6 A 34
6 A 35
6 A 36
6 A 37
6 A 38
6 A 39
6 A 40
6 A 41
6 A 42
6 A 43
6 A 44
6 A 45
6 A 46
6 A 47
6 A 48
6 A 49
6 A 50
6 A 51
6 A 52
6 A 53
6 A 54
6 A 55
6 A 56
6 A 57
6 A 58
6 A 59
6 A 60
6 A 61
6 A 62
6 A 63
6 A 64
6 A 65
6 A 66
6 A 67
6 A 68
6 A 69
6 A 70
6 A 71
6 A 72
6 A 73
6 A 74
6 A 75
6 A 76
6 A 77
6 A 78
6 A 79
6 A 80
6 A 81
6 A 82
6 A 83
6 A 84
6 A 85
6 A 86
6 A 87
6 A 88
6 A 89
6 A 90
6 A 91
6 A 92
6 A 93
6 A 94
6 A 95
6 A 96
6 A 97
6 A 98
6 A 99
6 A 100
7 A 1
7 A 2
7 A 3
7 A 4
7 A 5
7 A 6
7 A 7
7 A 8
7 A 9
7 A 10
7 A 11
7 A 12
7 A 13
7 A 14
7 A 15
7 A 16
7 A 17
7 A 18
7 A 19
7 A 20
7 A 21
7 A 22
7 A 23
7 A 24
7 A 25
7 A 26
7 A 27
7 A 28
7 A 29
7 A 30
7 A 31
7 A 32
7 A 33
7 A 34
7 A 35
7 A 36
7 A 37
7 A 38
7 A 39
7 A 40
7 A 41
7 A 42
7 A 43
7 A 44
7 A 45
7 A 46
7 A 47
7 A 48
7 A 49
7 A 50
7 A 51
7 A 52
7 A 53
7 A 54
7 A 55
7 A 56
7 A 57
7 A 58
7 A 59
7 A 60
7 A 61
7 A 62
7 A 63
7 A 64
7 A 65
7 A 66
7 A 67
7 A 68
7 A 69
7 A 70
7 A 71
7 A 72
7 A 73
7 A 74
7 A 75
7 A 76
7 A 77
7 A 78
7 A 79
7 A 80
7 A 81
7 A 82
7 A 83
7 A 84
7 A 85
7 A 86
7 A 87
7 A 88
7 A 89
7 A 90
7 A 91
7 A 92
7 A 93
7 A 94
7 A 95
7 A 96
7 A 97
7 A 98
7 A 99
7 A 100
8 A 1
8 A 2
8 A 3
8 A 4
8 A 5
8 A 6
8 A 7
8 A 8
8 A 9
8 A 10
8 A 11
8 A 12
8 A 13
8 A 14
8 A 15
8 A 16
8 A 17
8 A 18
8 A 19
8 A 20
8 A 21
8 A 22
8 A 23
8 A 24
8 A 25
8 A 26
8 A 27
8 A 28
8 A 29
8 A 30
8 A 31
8 A 32
8 A 33
8 A 34
8 A 35
8 A 36
8 A 37
8 A 38
8 A 39
8 A 40
8 A 41
8 A 42
8 A 43
8 A 44
8 A 45
8 A 46
8 A 47
8 A 48
8 A 49
8 A 50
8 A 51
8 A 52
8 A 53
8 A 54
8 A 55
8 A 56
8 A 57
8 A 58
8 A 59
8 A 60
8 A 61
8 A 62
8 A 63
8 A 64
8 A 65
8 A 66
8 A 67
8 A 68
8 A 69
8 A 70
8 A 71
8 A 72
8 A 73
8 A 74
8 A 75
8 A 76
8 A 77
8 A 78
8 A 79
8 A 80
8 A 81
8 A 82
8 A 83
8 A 84
8 A 85
8 A 86
8 A 87
8 A 88
8 A 89
8 A 90
8 A 91
8 A 92
8 A 93
8 A 94
8 A 95
8 A 96
8 A 97
8 A 98
8 A 99
8 A 100
9 A 1
9 A 2
9 A 3
9 A 4
9 A 5
9 A 6
9 A 7
9 A 8
9 A 9
9 A 10
9 A 11
9 A 12
9 A 13
9 A 14
9 A 15
9 A 16
9 A 17
9 A 18
9 A 19
9 A 20
9 A 21
9 A 22
9 A 23
9 A 24
9 A 25
9 A 26
9 A 27
9 A 28
9 A 29
9 A 30
9 A 31
9 A 32
9 A 33
9 A 34
9 A 35
9 A 36
9 A 37
9 A 38
9 A 39
9 A 40
9 A 41
9 A 42
9 A 43
9 A 44
9 A 45
9 A 46
9 A 47
9 A 48
9 A 49
9 A 50
9 A 51
9 A 52
9 A 53
9 A 54
9 A 55
9 A 56
9 A 57
9 A 58
9 A 59
9 A 60
9 A 61
9 A 62
9 A 63
9 A 64
9 A 65
9 A 66
9 A 67
9 A 68
9 A 69
9 A 70
9 A 71
9 A 72
9 A 73
9 A 74
9 A 75
9 A 76
9 A 77
9 A 78
9 A 79
9 A 80
9 A 81
9 A 82
9 A 83
9 A 84
9 A 85
9 A 86
9 A 87
9 A 88
9 A 89
9 A 90
9 A 91
9 A 92
9 A 93
9 A 94
9 A 95
9 A 96
9 A 97
9 A 98
9 A 99
9 A 100
10 A 1
10 A 2
10 A 3
10 A 4
10 A 5
10 A 6
10 A 7
10 A 8
10 A 9
10 A 10
10 A 11
10 A 12
10 A 13
10 A 14
10 A 15
10 A 16
10 A 17
10 A 18
10 A 19
10 A 20
10 A 21
10 A 22
10 A 23
10 A 24
10 A 25
10 A 26
10 A 27
10 A 28
10 A 29
10 A 30
10 A 31
10 A 32
10 A 33
10 A 34
10 A 35
10 A 36
10 A 37
10 A 38
10 A 39
10 A 40
10 A 41
10 A 42
10 A 43
10 A 44
10 A 45
10 A 46
10 A 47
10 A 48
10 A 49
10 A 50
10 A 51
10 A 52
10 A 53
10 A 54
10 A 55
10 A 56
10 A 57
10 A 58
10 A 59
10 A 60
10 A 61
10 A 62
10 A 63
10 A 64
10 A 65
10 A 66
10 A 67
10 A 68
10 A 69
10 A 70
10 A 71
10 A 72
10 A 73
10 A 74
10 A 75
10 A 76
10 A 77
10 A 78
10 A 79
10 A 80
10 A 81
10 A 82
10 A 83
10 A 84
10 A 85
10 A 86
10 A 87
10 A 88
10 A 89
10 A 90
10 A 91
10 A 92
10 A 93
10 A 94
10 A 95
10 A 96
10 A 97
10 A 98
10 A 99
10 A 100
11 A 1
11 A 2
11 A 3
11 A 4
11 A 5
11 A 6
11 A 7
11 A 8
11 A 9
11 A 10
11 A 11
11 A 12
11 A 13
11 A 14
11 A 15
11 A 16
11 A 17
11 A 18
11 A 19
11 A 20
11 A 21
11 A 22
11 A 23
11 A 24
11 A 25
11 A 26
11 A 27
11 A 28
11 A 29
11 A 30
11 A 31
11 A 32
11 A 33
11 A 34
11 A 35
11 A 36
11 A 37
11 A 38
11 A 39
11 A 40
11 A 41
11 A 42
11 A 43
11 A 44
11 A 45
11 A 46
11 A 47
11 A 48
11 A 49
11 A 50
11 A 51
11 A 52
11 A 53
11 A 54
11 A 55
11 A 56
11 A 57
11 A 58
11 A 59
11 A 60
11 A 61
11 A 62
11 A 63
11 A 64
11 A 65
11 A 66
11 A 67
11 A 68
11 A 69
11 A 70
11 A 71
11 A 72
11 A 73
11 A 74
11 A 75
11 A 76
11 A 77
11 A 78
11 A 79
11 A 80
11 A 81
11 A 82
11 A 83
11 A 84
11 A 85
11 A 86
11 A 87
11 A 88
11 A 89
11 A 90
11 A 91
11 A 92
11 A 93
11 A 94
11 A 95
11 A 96
11 A 97
11 A 98
11 A 99
11 A 100
12 A 1
12 A 2
12 A 3
12 A 4
12 A 5
12 A 6
12 A 7
12 A 8
12 A 9
12 A 10
12 A 11
12 A 12
12 A 13
12 A 14
12 A 15
12 A 16
12 A 17
12 A 18
12 A 19
12 A 20
12 A 21
12 A 22
12 A 23
12 A 24
12 A 25
12 A 26
12 A 27
12 A 28
12 A 29
12 A 30
12 A 31
12 A 32
12 A 33
12 A 34
12 A 35
12 A 36
12 A 37
12 A 38
12 A 39
12 A 40
12 A 41
12 A 42
12 A 43
12 A 44
12 A 45
12 A 46
12 A 47
12 A 48
12 A 49
12 A 50
12 A 51
12 A 52
12 A 53
12 A 54
12 A 55
12 A 56
12 A 57
12 A 58
12 A 59
12 A 60
12 A 61
12 A 62
12 A 63
12 A 64
12 A 65
12 A 66
12 A 67
12 A 68
12 A 69
12 A 70
12 A 71
12 A 72
12 A 73
12 A 74
12 A 75
12 A 76
12 A 77
12 A 78
12 A 79
12 A 80
12 A 81
12 A 82
12 A 83
12 A 84
12 A 85
12 A 86
12 A 87
12 A 88
12 A 89
12 A 90
12 A 91
12 A 92
12 A 93
12 A 94
12 A 95
12 A 96
12 A 97
12 A 98
12 A 99
12 A 100
13 A 1
13 A 2
13 A 3
13 A 4
13 A 5
13 A 6
13 A 7
13 A 8
13 A 9
13 A 10
13 A 11
13 A 12
13 A 13
13 A 14
13 A 15
13 A 16
13 A 17
13 A 18
13 A 19
13 A 20
13 A 21
13 A 22
13 A 23
13 A 24
13 A 25
13 A 26
13 A 27
13 A 28
13 A 29
13 A 30
13 A 31
13 A 32
13 A 33
13 A 34
13 A 35
13 A 36
13 A 37
13 A 38
13 A 39
13 A 40
13 A 41
13 A 42
13 A 43
13 A 44
13 A 45
13 A 46
13 A 47
13 A 48
13 A 49
13 A 50
13 A 51
13 A 52
13 A 53
13 A 54
13 A 55
13 A 56
13 A 57
13 A 58
13 A 59
13 A 60
13 A 61
13 A 62
13 A 63
13 A 64
13 A 65
13 A 66
13 A 67
13 A 68
13 A 69
13 A 70
13 A 71
13 A 72
13 A 73
13 A 74
13 A 75
13 A 76
13 A 77
13 A 78
13 A 79
13 A 80
13 A 81
13 A 82
13 A 83
13 A 84
13 A 85
13 A 86
13 A 87
13 A 88
13 A 89
13 A 90
13 A 91
13 A 92
13 A 93
13 A 94
13 A 95
13 A 96
13 A 97
13 A 98
13 A 99
13 A 100
14 A 1
14 A 2
14 A 3
14 A 4
14 A 5
14 A 6
14 A 7
14 A 8
14 A 9
14 A 10
14 A 11
14 A 12
14 A 13
14 A 14
14 A 15
14 A 16
14 A 17
14 A 18
14 A 19
14 A 20
14 A 21
14 A 22
14 A 23
14 A 24
14 A 25
14 A 26
14 A 27
14 A 28
14 A 29
14 A 30
14 A 31
14 A 32
14 A 33
14 A 34
14 A 35
14 A 36
14 A 37
14 A 38
14 A 39
14 A 40
14 A 41
14 A 42
14 A 43
14 A 44
14 A 45
14 A 46
14 A 47
14 A 48
14 A 49
14 A 50
14 A 51
14 A 52
14 A 53
14 A 54
14 A 55
14 A 56
14 A 57
14 A 58
14 A 59
14 A 60
14 A 61
14 A 62
14 A 63
14 A 64
14 A 65
14 A 66
14 A 67
14 A 68
14 A 69
14 A 70
14 A 71
14 A 72
14 A 73
14 A 74
14 A 75
14 A 76
14 A 77
14 A 78
14 A 79
14 A 80
14 A 81
14 A 82
14 A 83
14 A 84
14 A 85
14 A 86
14 A 87
14 A 88
14 A 89
14 A 90
14 A 91
14 A 92
14 A 93
14 A 94
14 A 95
14 A 96
14 A 97
14 A 98
14 A 99
14 A 100
15 A 1
15 A 2
15 A 3
15 A 4
15 A 5
15 A 6
15 A 7
15 A 8
15 A 9
15 A 10
15 A 11
15 A 12
15 A 13
15 A 14
15 A 15
15 A 16
15 A 17
15 A 18
15 A 19
15 A 20
15 A 21
15 A 22
15 A 23
15 A 24
15 A 25
15 A 26
15 A 27
15 A 28
15 A 29
15 A 30
15 A 31
15 A 32
15 A 33
15 A 34
15 A 35
15 A 36
15 A 37
15 A 38
15 A 39
15 A 40
15 A 41
15 A 42
15 A 43
15 A 44
15 A 45
15 A 46
15 A 47
15 A 48
15 A 49
15 A 50
15 A 51
15 A 52
15 A 53
15 A 54
15 A 55
15 A 56
15 A 57
15 A 58
15 A 59
15 A 60
15 A 61
15 A 62
15 A 63
15 A 64
15 A 65
15 A 66
15 A 67
15 A 68
15 A 69
15 A 70
15 A 71
15 A 72
15 A 73
15 A 74
15 A 75
15 A 76
15 A 77
15 A 78
15 A 79
15 A 80
15 A 81
15 A 82
15 A 83
15 A 84
15 A 85
15 A 86
15 A 87
15 A 88
15 A 89
15 A 90
15 A 91
15 A 92
15 A 93
15 A 94
15 A 95
15 A 96
15 A 97
15 A 98
15 A 99
15 A 100
16 A 1
16 A 2
16 A 3
16 A 4
16 A 5
16 A 6
16 A 7
16 A 8
16 A 9
16 A 10
16 A 11
16 A 12
16 A 13
16 A 14
16 A 15
16 A 16
16 A 17
16 A 18
16 A 19
16 A 20
16 A 21
16 A 22
16 A 23
16 A 24
16 A 25
16 A 26
16 A 27
16 A 28
16 A 29
16 A 30
16 A 31
16 A 32
16 A 33
16 A 34
16 A 35
16 A 36
16 A 37
16 A 38
16 A 39
16 A 40
16 A 41
16 A 42
16 A 43
16 A 44
16 A 45
16 A 46
16 A 47
16 A 48
16 A 49
16 A 50
16 A 51
16 A 52
16 A 53
16 A 54
16 A 55
16 A 56
16 A 57
16 A 58
16 A 59
16 A 60
16 A 61
16 A 62
16 A 63
16 A 64
16 A 65
16 A 66
16 A 67
16 A 68
16 A 69
16 A 70
16 A 71
16 A 72
16 A 73
16 A 74
16 A 75
16 A 76
16 A 77
16 A 78
16 A 79
16 A 80
16 A 81
16 A 82
16 A 83
16 A 84
16 A 85
16 A 86
16 A 87
16 A 88
16 A 89
16 A 90
16 A 91
16 A 92
16 A 93
16 A 94
16 A 95
16 A 96
16 A 97
16 A 98
16 A 99
16 A 100
17 A 1
17 A 2
17 A 3
17 A 4
17 A 5
17 A 6
17 A 7
17 A 8
17 A 9
17 A 10
17 A 11
17 A 12
17 A 13
17 A 14
17 A 15
17 A 16
17 A 17
17 A 18
17 A 19
17 A 20
17 A 21
17 A 22
17 A 23
17 A 24
17 A 25
17 A 26
17 A 27
17 A 28
17 A 29
17 A 30
17 A 31
17 A 32
17 A 33
17 A 34
17 A 35
17 A 36
17 A 37
17 A 38
17 A 39
17 A 40
17 A 41
17 A 42
17 A 43
17 A 44
17 A 45
17 A 46
17 A 47
17 A 48
17 A 49
17 A 50
17 A 51
17 A 52
17 A 53
17 A 54
17 A 55
17 A 56
17 A 57
17 A 58
17 A 59
17 A 60
17 A 61
17 A 62
17 A 63
17 A 64
17 A 65
17 A 66
17 A 67
17 A 68
17 A 69
17 A 70
17 A 71
17 A 72
17 A 73
17 A 74
17 A 75
17 A 76
17 A 77
17 A 78
17 A 79
17 A 80
17 A 81
17 A 82
17 A 83
17 A 84
17 A 85
17 A 86
17 A 87
17 A 88
17 A 89
17 A 90
17 A 91
17 A 92
17 A 93
17 A 94
17 A 95
17 A 96
17 A 97
17 A 98
17 A 99
17 A 100
18 A 1
18 A 2
18 A 3
18 A 4
18 A 5
18 A 6
18 A 7
18 A 8
18 A 9
18 A 10
18 A 11
18 A 12
18 A 13
18 A 14
18 A 15
18 A 16
18 A 17
18 A 18
18 A 19
18 A 20
18 A 21
18 A 22
18 A 23
18 A 24
18 A 25
18 A 26
18 A 27
18 A 28
18 A 29
18 A 30
18 A 31
18 A 32
18 A 33
18 A 34
18 A 35
18 A 36
18 A 37
18 A 38
18 A 39
18 A 40
18 A 41
18 A 42
18 A 43
18 A 44
18 A 45
18 A 46
18 A 47
18 A 48
18 A 49
18 A 50
18 A 51
18 A 52
18 A 53
18 A 54
18 A 55
18 A 56
18 A 57
18 A 58
18 A 59
18 A 60
18 A 61
18 A 62
18 A 63
18 A 64
18 A 65
18 A 66
18 A 67
18 A 68
18 A 69
18 A 70
18 A 71
18 A 72
18 A 73
18 A 74
18 A 75
18 A 76
18 A 77
18 A 78
18 A 79
18 A 80
18 A 81
18 A 82
18 A 83
18 A 84
18 A 85
18 A 86
18 A 87
18 A 88
18 A 89
18 A 90
18 A 91
18 A 92
18 A 93
18 A 94
18 A 95
18 A 96
18 A 97
18 A 98
18 A 99
18 A 100
19 A 1
19 A 2
19 A 3
19 A 4
19 A 5
19 A 6
19 A 7
19 A 8
19 A 9
19 A 10
19 A 11
19 A 12
19 A 13
19 A 14
19 A 15
19 A 16
19 A 17
19 A 18
19 A 19
19 A 20
19 A 21
19 A 22
19 A 23
19 A 24
19 A 25
19 A 26
19 A 27
19 A 28
19 A 29
19 A 30
19 A 31
19 A 32
19 A 33
19 A 34
19 A 35
19 A 36
19 A 37
19 A 38
19 A 39
19 A 40
19 A 41
19 A 42
19 A 43
19 A 44
19 A 45
19 A 46
19 A 47
19 A 48
19 A 49
19 A 50
19 A 51
19 A 52
19 A 53
19 A 54
19 A 55
19 A 56
19 A 57
19 A 58
19 A 59
19 A 60
19 A 61
19 A 62
19 A 63
19 A 64
19 A 65
19 A 66
19 A 67
19 A 68
19 A 69
19 A 70
19 A 71
19 A 72
19 A 73
19 A 74
19 A 75
19 A 76
19 A 77
19 A 78
19 A 79
19 A 80
19 A 81
19 A 82
19 A 83
19 A 84
19 A 85
19 A 86
19 A 87
19 A 88
19 A 89
19 A 90
19 A 91
19 A 92
19 A 93
19 A 94
19 A 95
19 A 96
19 A 97
19 A 98
19 A 99
19 A 100
20 A 1
20 A 2
20 A 3
20 A 4
20 A 5
20 A 6
20 A 7
20 A 8
20 A 9
20 A 10
20 A 11
20 A 12
20 A 13
20 A 14
20 A 15
20 A 16
20 A 17
20 A 18
20 A 19
20 A 20
20 A 21
20 A 22
20 A 23
20 A 24
20 A 25
20 A 26
20 A 27
20 A 28
20 A 29
20 A 30
20 A 31
20 A 32
20 A 33
20 A 34
20 A 35
20 A 36
20 A 37
20 A 38
20 A 39
20 A 40
20 A 41
20 A 42
20 A 43
20 A 44
20 A 45
20 A 46
20 A 47
20 A 48
20 A 49
20 A 50
20 A 51
20 A 52
20 A 53
20 A 54
20 A 55
20 A 56
20 A 57
20 A 58
20 A 59
20 A 60
20 A 61
20 A 62
20 A 63
20 A 64
20 A 65
20 A 66
20 A 67
20 A 68
20 A 69
20 A 70
20 A 71
20 A 72
20 A 73
20 A 74
20 A 75
20 A 76
20 A 77
20 A 78
20 A 79
20 A 80
20 A 81
20 A 82
20 A 83
20 A 84
20 A 85
20 A 86
20 A 87
20 A 88
20 A 89
20 A 90
20 A 91
20 A 92
20 A 93
20 A 94
20 A 95
20 A 96
20 A 97
20 A 98
20 A 99
20 A 100
21 A 1
21 A 2
21 A 3
21 A 4
21 A 5
21 A 6
21 A 7
21 A 8
21 A 9
21 A 10
21 A 11
21 A 12
21 A 13
21 A 14
21 A 15
21 A 16
21 A 17
21 A 18
21 A 19
21 A 20
21 A 21
21 A 22
21 A 23
21 A 24
21 A 25
21 A 26
21 A 27
21 A 28
21 A 29
21 A 30
21 A 31
21 A 32
21 A 33
21 A 34
21 A 35
21 A 36
21 A 37
21 A 38
21 A 39
21 A 40
21 A 41
21 A 42
21 A 43
21 A 44
21 A 45
21 A 46
21 A 47
21 A 48
21 A 49
21 A 50
21 A 51
21 A 52
21 A 53
21 A 54
21 A 55
21 A 56
21 A 57
21 A 58
21 A 59
21 A 60
21 A 61
21 A 62
21 A 63
21 A 64
21 A 65
21 A 66
21 A 67
21 A 68
21 A 69
21 A 70
21 A 71
21 A 72
21 A 73
21 A 74
21 A 75
21 A 76
21 A 77
21 A 78
21 A 79
21 A 80
21 A 81
21 A 82
21 A 83
21 A 84
21 A 85
21 A 86
21 A 87
21 A 88
21 A 89
21 A 90
21 A 91
21 A 92
21 A 93
21 A 94
21 A 95
21 A 96
21 A 97
21 A 98
21 A 99
21 A 100
22 A 1
22 A 2
22 A 3
22 A 4
22 A 5
22 A 6
22 A 7
22 A 8
22 A 9
22 A 10
22 A 11
22 A 12
22 A 13
22 A 14
22 A 15
22 A 16
22 A 17
22 A 18
22 A 19
22 A 20
22 A 21
22 A 22
22 A 23
22 A 24
22 A 25
22 A 26
22 A 27
22 A 28
22 A 29
22 A 30
22 A 31
22 A 32
22 A 33
22 A 34
22 A 35
22 A 36
22 A 37
22 A 38
22 A 39
22 A 40
22 A 41
22 A 42
22 A 43
22 A 44
22 A 45
22 A 46
22 A 47
22 A 48
22 A 49
22 A 50
22 A 51
22 A 52
22 A 53
22 A 54
22 A 55
22 A 56
22 A 57
22 A 58
22 A 59
22 A 60
22 A 61
22 A 62
22 A 63
22 A 64
22 A 65
22 A 66
22 A 67
22 A 68
22 A 69
22 A 70
22 A 71
22 A 72
22 A 73
22 A 74
22 A 75
22 A 76
22 A 77
22 A 78
22 A 79
22 A 80
22 A 81
22 A 82
22 A 83
22 A 84
22 A 85
22 A 86
22 A 87
22 A 88
22 A 89
22 A 90
22 A 91
22 A 92
22 A 93
22 A 94
22 A 95
22 A 96
22 A 97
22 A 98
22 A 99
22 A 100
23 A 1
23 A 2
23 A 3
23 A 4
23 A 5
23 A 6
23 A 7
23 A 8
23 A 9
23 A 10
23 A 11
23 A 12
23 A 13
23 A 14
23 A 15
23 A 16
23 A 17
23 A 18
23 A 19
23 A 20
23 A 21
23 A 22
23 A 23
23 A 24
23 A 25
23 A 26
23 A 27
23 A 28
23 A 29
23 A 30
23 A 31
23 A 32
23 A 33
23 A 34
23 A 35
23 A 36
23 A 37
23 A 38
23 A 39
23 A 40
23 A 41
23 A 42
23 A 43
23 A 44
23 A 45
23 A 46
23 A 47
23 A 48
23 A 49
23 A 50
23 A 51
23 A 52
23 A 53
23 A 54
23 A 55
23 A 56
23 A 57
23 A 58
23 A 59
23 A 60
23 A 61
23 A 62
23 A 63
23 A 64
23 A 65
23 A 66
23 A 67
23 A 68
23 A 69
23 A 70
23 A 71
23 A 72
23 A 73
23 A 74
23 A 75
23 A 76
23 A 77
23 A 78
23 A 79
23 A 80
23 A 81
23 A 82
23 A 83
23 A 84
23 A 85
23 A 86
23 A 87
23 A 88
23 A 89
23 A 90
23 A 91
23 A 92
23 A 93
23 A 94
23 A 95
23 A 96
23 A 97
23 A 98
23 A 99
23 A 100
24 A 1
24 A 2
24 A 3
24 A 4
24 A 5
24 A 6
24 A 7
24 A 8
24 A 9
24 A 10
24 A 11
24 A 12
24 A 13
24 A 14
24 A 15
24 A 16
24 A 17
24 A 18
24 A 19
24 A 20
24 A 21
24 A 22
24 A 23
24 A 24
24 A 25
24 A 26
24 A 27
24 A 28
24 A 29
24 A 30
24 A 31
24 A 32
24 A 33
24 A 34
24 A 35
24 A 36
24 A 37
24 A 38
24 A 39
24 A 40
24 A 41
24 A 42
24 A 43
24 A 44
24 A 45
24 A 46
24 A 47
24 A 48
24 A 49
24 A 50
24 A 51
24 A 52
24 A 53
24 A 54
24 A 55
24 A 56
24 A 57
24 A 58
24 A 59
24 A 60
24 A 61
24 A 62
24 A 63
24 A 64
24 A 65
24 A 66
24 A 67
24 A 68
24 A 69
24 A 70
24 A 71
24 A 72
24 A 73
24 A 74
24 A 75
24 A 76
24 A 77
24 A 78
24 A 79
24 A 80
24 A 81
24 A 82
24 A 83
24 A 84
24 A 85
24 A 86
24 A 87
24 A 88
24 A 89
24 A 90
24 A 91
24 A 92
24 A 93
24 A 94
24 A 95
24 A 96
24 A 97
24 A 98
24 A 99
24 A 100
25 A 1
25 A 2
25 A 3
25 A 4
25 A 5
25 A 6
25 A 7
25 A 8
25 A 9
25 A 10
25 A 11
25 A 12
25 A 13
25 A 14
25 A 15
25 A 16
25 A 17
25 A 18
25 A 19
25 A 20
25 A 21
25 A 22
25 A 23
25 A 24
25 A 25
25 A 26
25 A 27
25 A 28
25 A 29
25 A 30
25 A 31
25 A 32
25 A 33
25 A 34
25 A 35
25 A 36
25 A 37
25 A 38
25 A 39
25 A 40
25 A 41
25 A 42
25 A 43
25 A 44
25 A 45
25 A 46
25 A 47
25 A 48
25 A 49
25 A 50
25 A 51
25 A 52
25 A 53
25 A 54
25 A 55
25 A 56
25 A 57
25 A 58
25 A 59
25 A 60
25 A 61
25 A 62
25 A 63
25 A 64
25 A 65
25 A 66
25 A 67
25 A 68
25 A 69
25 A 70
25 A 71
25 A 72
25 A 73
25 A 74
25 A 75
25 A 76
25 A 77
25 A 78
25 A 79
25 A 80
25 A 81
25 A 82
25 A 83
25 A 84
25 A 85
25 A 86
25 A 87
25 A 88
25 A 89
25 A 90
25 A 91
25 A 92
25 A 93
25 A 94
25 A 95
25 A 96
25 A 97
25 A 98
25 A 99
25 A 100
26 A 1
26 A 2
26 A 3
26 A 4
26 A 5
26 A 6
26 A 7
26 A 8
26 A 9
26 A 10
26 A 11
26 A 12
26 A 13
26 A 14
26 A 15
26 A 16
26 A 17
26 A 18
26 A 19
26 A 20
26 A 21
26 A 22
26 A 23
26 A 24
26 A 25
26 A 26
26 A 27
26 A 28
26 A 29
26 A 30
26 A 31
26 A 32
26 A 33
26 A 34
26 A 35
26 A 36
26 A 37
26 A 38
26 A 39
26 A 40
26 A 41
26 A 42
26 A 43
26 A 44
26 A 45
26 A 46
26 A 47
26 A 48
26 A 49
26 A 50
26 A 51
26 A 52
26 A 53
26 A 54
26 A 55
26 A 56
26 A 57
26 A 58
26 A 59
26 A 60
26 A 61
26 A 62
26 A 63
26 A 64
26 A 65
26 A 66
26 A 67
26 A 68
26 A 69
26 A 70
26 A 71
26 A 72
26 A 73
26 A 74
26 A 75
26 A 76
26 A 77
26 A 78
26 A 79
26 A 80
26 A 81
26 A 82
26 A 83
26 A 84
26 A 85
26 A 86
26 A 87
26 A 88
26 A 89
26 A 90
26 A 91
26 A 92
26 A 93
26 A 94
26 A 95
26 A 96
26 A 97
26 A 98
26 A 99
26 A 100
27 A 1
27 A 2
27 A 3
27 A 4
27 A 5
27 A 6
27 A 7
27 A 8
27 A 9
27 A 10
27 A 11
27 A 12
27 A 13
27 A 14
27 A 15
27 A 16
27 A 17
27 A 18
27 A 19
27 A 20
27 A 21
27 A 22
27 A 23
27 A 24
27 A 25
27 A 26
27 A 27
27 A 28
27 A 29
27 A 30
27 A 31
27 A 32
27 A 33
27 A 34
27 A 35
27 A 36
27 A 37
27 A 38
27 A 39
27 A 40
27 A 41
27 A 42
27 A 43
27 A 44
27 A 45
27 A 46
27 A 47
27 A 48
27 A 49
27 A 50
27 A 51
27 A 52
27 A 53
27 A 54
27 A 55
27 A 56
27 A 57
27 A 58
27 A 59
27 A 60
27 A 61
27 A 62
27 A 63
27 A 64
27 A 65
27 A 66
27 A 67
27 A 68
27 A 69
27 A 70
27 A 71
27 A 72
27 A 73
27 A 74
27 A 75
27 A 76
27 A 77
27 A 78
27 A 79
27 A 80
27 A 81
27 A 82
27 A 83
27 A 84
27 A 85
27 A 86
27 A 87
27 A 88
27 A 89
27 A 90
27 A 91
27 A 92
27 A 93
27 A 94
27 A 95
27 A 96
27 A 97
27 A 98
27 A 99
27 A 100
28 A 1
28 A 2
28 A 3
28 A 4
28 A 5
28 A 6
28 A 7
28 A 8
28 A 9
28 A 10
28 A 11
28 A 12
28 A 13
28 A 14
28 A 15
28 A 16
28 A 17
28 A 18
28 A 19
28 A 20
28 A 21
28 A 22
28 A 23
28 A 24
28 A 25
28 A 26
28 A 27
28 A 28
28 A 29
28 A 30
28 A 31
28 A 32
28 A 33
28 A 34
28 A 35
28 A 36
28 A 37
28 A 38
28 A 39
28 A 40
28 A 41
28 A 42
28 A 43
28 A 44
28 A 45
28 A 46
28 A 47
28 A 48
28 A 49
28 A 50
28 A 51
28 A 52
28 A 53
28 A 54
28 A 55
28 A 56
28 A 57
28 A 58
28 A 59
28 A 60
28 A 61
28 A 62
28 A 63
28 A 64
28 A 65
28 A 66
28 A 67
28 A 68
28 A 69
28 A 70
28 A 71
28 A 72
28 A 73
28 A 74
28 A 75
28 A 76
28 A 77
28 A 78
28 A 79
28 A 80
28 A 81
28 A 82
28 A 83
28 A 84
28 A 85
28 A 86
28 A 87
28 A 88
28 A 89
28 A 90
28 A 91
28 A 92
28 A 93
28 A 94
28 A 95
28 A 96
28 A 97
28 A 98
28 A 99
28 A 100
29 A 1
29 A 2
29 A 3
29 A 4
29 A 5
29 A 6
29 A 7
29 A 8
29 A 9
29 A 10
29 A 11
29 A 12
29 A 13
29 A 14
29 A 15
29 A 16
29 A 17
29 A 18
29 A 19
29 A 20
29 A 21
29 A 22
29 A 23
29 A 24
29 A 25
29 A 26
29 A 27
29 A 28
29 A 29
29 A 30
29 A 31
29 A 32
29 A 33
29 A 34
29 A 35
29 A 36
29 A 37
29 A 38
29 A 39
29 A 40
29 A 41
29 A 42
29 A 43
29 A 44
29 A 45
29 A 46
29 A 47
29 A 48
29 A 49
29 A 50
29 A 51
29 A 52
29 A 53
29 A 54
29 A 55
29 A 56
29 A 57
29 A 58
29 A 59
29 A 60
29 A 61
29 A 62
29 A 63
29 A 64
29 A 65
29 A 66
29 A 67
29 A 68
29 A 69
29 A 70
29 A 71
29 A 72
29 A 73
29 A 74
29 A 75
29 A 76
29 A 77
29 A 78
29 A 79
29 A 80
29 A 81
29 A 82
29 A 83
29 A 84
29 A 85
29 A 86
29 A 87
29 A 88
29 A 89
29 A 90
29 A 91
29 A 92
29 A 93
29 A 94
29 A 95
29 A 96
29 A 97
29 A 98
29 A 99
29 A 100
30 A 1
30 A 2
30 A 3
30 A 4
30 A 5
30 A 6
30 A 7
30 A 8
30 A 9
30 A 10
30 A 11
30 A 12
30 A 13
30 A 14
30 A 15
30 A 16
30 A 17
30 A 18
30 A 19
30 A 20
30 A 21
30 A 22
30 A 23
30 A 24
30 A 25
30 A 26
30 A 27
30 A 28
30 A 29
30 A 30
30 A 31
30 A 32
30 A 33
30 A 34
30 A 35
30 A 36
30 A 37
30 A 38
30 A 39
30 A 40
30 A 41
30 A 42
30 A 43
30 A 44
30 A 45
30 A 46
30 A 47
30 A 48
30 A 49
30 A 50
30 A 51
30 A 52
30 A 53
30 A 54
30 A 55
30 A 56
30 A 57
30 A 58
30 A 59
30 A 60
30 A 61
30 A 62
30 A 63
30 A 64
30 A 65
30 A 66
30 A 67
30 A 68
30 A 69
30 A 70
30 A 71
30 A 72
30 A 73
30 A 74
30 A 75
30 A 76
30 A 77
30 A 78
30 A 79
30 A 80
30 A 81
30 A 82
30 A 83
30 A 84
30 A 85
30 A 86
30 A 87
30 A 88
30 A 89
30 A 90
30 A 91
30 A 92
30 A 93
30 A 94
30 A 95
30 A 96
30 A 97
30 A 98
30 A 99
30 A 100
31 A 1
31 A 2
31 A 3
31 A 4
31 A 5
31 A 6
31 A 7
31 A 8
31 A 9
31 A 10
31 A 11
31 A 12
31 A 13
31 A 14
31 A 15
31 A 16
31 A 17
31 A 18
31 A 19
31 A 20
31 A 21
31 A 22
31 A 23
31 A 24
31 A 25
31 A 26
31 A 27
31 A 28
31 A 29
31 A 30
31 A 31
31 A 32
31 A 33
31 A 34
31 A 35
31 A 36
31 A 37
31 A 38
31 A 39
31 A 40
31 A 41
31 A 42
31 A 43
31 A 44
31 A 45
31 A 46
31 A 47
31 A 48
31 A 49
31 A 50
31 A 51
31 A 52
31 A 53
31 A 54
31 A 55
31 A 56
31 A 57
31 A 58
31 A 59
31 A 60
31 A 61
31 A 62
31 A 63
31 A 64
31 A 65
31 A 66
31 A 67
31 A 68
31 A 69
31 A 70
31 A 71
31 A 72
31 A 73
31 A 74
31 A 75
31 A 76
31 A 77
31 A 78
31 A 79
31 A 80
31 A 81
31 A 82
31 A 83
31 A 84
31 A 85
31 A 86
31 A 87
31 A 88
31 A 89
31 A 90
31 A 91
31 A 92
31 A 93
31 A 94
31 A 95
31 A 96
31 A 97
31 A 98
31 A 99
31 A 100
32 A 1
32 A 2
32 A 3
32 A 4
32 A 5
32 A 6
32 A 7
32 A 8
32 A 9
32 A 10
32 A 11
32 A 12
32 A 13
32 A 14
32 A 15
32 A 16
32 A 17
32 A 18
32 A 19
32 A 20
32 A 21
32 A 22
32 A 23
32 A 24
32 A 25
32 A 26
32 A 27
32 A 28
32 A 29
32 A 30
32 A 31
32 A 32
32 A 33
32 A 34
32 A 35
32 A 36
32 A 37
32 A 38
32 A 39
32 A 40
32 A 41
32 A 42
32 A 43
32 A 44
32 A 45
32 A 46
32 A 47
32 A 48
32 A 49
32 A 50
32 A 51
32 A 52
32 A 53
32 A 54
32 A 55
32 A 56
32 A 57
32 A 58
32 A 59
32 A 60
32 A 61
32 A 62
32 A 63
32 A 64
32 A 65
32 A 66
32 A 67
32 A 68
32 A 69
32 A 70
32 A 71
32 A 72
32 A 73
32 A 74
32 A 75
32 A 76
32 A 77
32 A 78
32 A 79
32 A 80
32 A 81
32 A 82
32 A 83
32 A 84
32 A 85
32 A 86
32 A 87
32 A 88
32 A 89
32 A 90
32 A 91
32 A 92
32 A 93
32 A 94
32 A 95
32 A 96
32 A 97
32 A 98
32 A 99
32 A 100
33 A 1
33 A 2
33 A 3
33 A 4
33 A 5
33 A 6
33 A 7
33 A 8
33 A 9
33 A 10
33 A 11
33 A 12
33 A 13
33 A 14
33 A 15
33 A 16
33 A 17
33 A 18
33 A 19
33 A 20
33 A 21
33 A 22
33 A 23
33 A 24
33 A 25
33 A 26
33 A 27
33 A 28
33 A 29
33 A 30
33 A 31
33 A 32
33 A 33
33 A 34
33 A 35
33 A 36
33 A 37
33 A 38
33 A 39
33 A 40
33 A 41
33 A 42
33 A 43
33 A 44
33 A 45
33 A 46
33 A 47
33 A 48
33 A 49
33 A 50
33 A 51
33 A 52
33 A 53
33 A 54
33 A 55
33 A 56
33 A 57
33 A 58
33 A 59
33 A 60
33 A 61
33 A 62
33 A 63
33 A 64
33 A 65
33 A 66
33 A 67
33 A 68
33 A 69
33 A 70
33 A 71
33 A 72
33 A 73
33 A 74
33 A 75
33 A 76
33 A 77
33 A 78
33 A 79
33 A 80
33 A 81
33 A 82
33 A 83
33 A 84
33 A 85
33 A 86
33 A 87
33 A 88
33 A 89
33 A 90
33 A 91
33 A 92
33 A 93
33 A 94
33 A 95
33 A 96
33 A 97
33 A 98
33 A 99
33 A 100
34 A 1
34 A 2
34 A 3
34 A 4
34 A 5
34 A 6
34 A 7
34 A 8
34 A 9
34 A 10
34 A 11
34 A 12
34 A 13
34 A 14
34 A 15
34 A 16
34 A 17
34 A 18
34 A 19
34 A 20
34 A 21
34 A 22
34 A 23
34 A 24
34 A 25
34 A 26
34 A 27
34 A 28
34 A 29
34 A 30
34 A 31
34 A 32
34 A 33
34 A 34
34 A 35
34 A 36
34 A 37
34 A 38
34 A 39
34 A 40
34 A 41
34 A 42
34 A 43
34 A 44
34 A 45
34 A 46
34 A 47
34 A 48
34 A 49
34 A 50
34 A 51
34 A 52
34 A 53
34 A 54
34 A 55
34 A 56
34 A 57
34 A 58
34 A 59
34 A 60
34 A 61
34 A 62
34 A 63
34 A 64
34 A 65
34 A 66
34 A 67
34 A 68
34 A 69
34 A 70
34 A 71
34 A 72
34 A 73
34 A 74
34 A 75
34 A 76
34 A 77
34 A 78
34 A 79
34 A 80
34 A 81
34 A 82
34 A 83
34 A 84
34 A 85
34 A 86
34 A 87
34 A 88
34 A 89
34 A 90
34 A 91
34 A 92
34 A 93
34 A 94
34 A 95
34 A 96
34 A 97
34 A 98
34 A 99
34 A 100
35 A 1
35 A 2
35 A 3
35 A 4
35 A 5
35 A 6
35 A 7
35 A 8
35 A 9
35 A 10
35 A 11
35 A 12
35 A 13
35 A 14
35 A 15
35 A 16
35 A 17
35 A 18
35 A 19
35 A 20
35 A 21
35 A 22
35 A 23
35 A 24
35 A 25
35 A 26
35 A 27
35 A 28
35 A 29
35 A 30
35 A 31
35 A 32
35 A 33
35 A 34
35 A 35
35 A 36
35 A 37
35 A 38
35 A 39
35 A 40
35 A 41
35 A 42
35 A 43
35 A 44
35 A 45
35 A 46
35 A 47
35 A 48
35 A 49
35 A 50
35 A 51
35 A 52
35 A 53
35 A 54
35 A 55
35 A 56
35 A 57
35 A 58
35 A 59
35 A 60
35 A 61
35 A 62
35 A 63
35 A 64
35 A 65
35 A 66
35 A 67
35 A 68
35 A 69
35 A 70
35 A 71
35 A 72
35 A 73
35 A 74
35 A 75
35 A 76
35 A 77
35 A 78
35 A 79
35 A 80
35 A 81
35 A 82
35 A 83
35 A 84
35 A 85
35 A 86
35 A 87
35 A 88
35 A 89
35 A 90
35 A 91
35 A 92
35 A 93
35 A 94
35 A 95
35 A 96
35 A 97
35 A 98
35 A 99
35 A 100
36 A 1
36 A 2
36 A 3
36 A 4
36 A 5
36 A 6
36 A 7
36 A 8
36 A 9
36 A 10
36 A 11
36 A 12
36 A 13
36 A 14
36 A 15
36 A 16
36 A 17
36 A 18
36 A 19
36 A 20
36 A 21
36 A 22
36 A 23
36 A 24
36 A 25
36 A 26
36 A 27
36 A 28
36 A 29
36 A 30
36 A 31
36 A 32
36 A 33
36 A 34
36 A 35
36 A 36
36 A 37
36 A 38
36 A 39
36 A 40
36 A 41
36 A 42
36 A 43
36 A 44
36 A 45
36 A 46
36 A 47
36 A 48
36 A 49
36 A 50
36 A 51
36 A 52
36 A 53
36 A 54
36 A 55
36 A 56
36 A 57
36 A 58
36 A 59
36 A 60
36 A 61
36 A 62
36 A 63
36 A 64
36 A 65
36 A 66
36 A 67
36 A 68
36 A 69
36 A 70
36 A 71
36 A 72
36 A 73
36 A 74
36 A 75
36 A 76
36 A 77
36 A 78
36 A 79
36 A 80
36 A 81
36 A 82
36 A 83
36 A 84
36 A 85
36 A 86
36 A 87
36 A 88
36 A 89
36 A 90
36 A 91
36 A 92
36 A 93
36 A 94
36 A 95
36 A 96
36 A 97
36 A 98
36 A 99
36 A 100
37 A 1
37 A 2
37 A 3
37 A 4
37 A 5
37 A 6
37 A 7
37 A 8
37 A 9
37 A 10
37 A 11
37 A 12
37 A 13
37 A 14
37 A 15
37 A 16
37 A 17
37 A 18
37 A 19
37 A 20
37 A 21
37 A 22
37 A 23
37 A 24
37 A 25
37 A 26
37 A 27
37 A 28
37 A 29
37 A 30
37 A 31
37 A 32
37 A 33
37 A 34
37 A 35
37 A 36
37 A 37
37 A 38
37 A 39
37 A 40
37 A 41
37 A 42
37 A 43
37 A 44
37 A 45
37 A 46
37 A 47
37 A 48
37 A 49
37 A 50
37 A 51
37 A 52
37 A 53
37 A 54
37 A 55
37 A 56
37 A 57
37 A 58
37 A 59
37 A 60
37 A 61
37 A 62
37 A 63
37 A 64
37 A 65
37 A 66
37 A 67
37 A 68
37 A 69
37 A 70
37 A 71
37 A 72
37 A 73
37 A 74
37 A 75
37 A 76
37 A 77
37 A 78
37 A 79
37 A 80
37 A 81
37 A 82
37 A 83
37 A 84
37 A 85
37 A 86
37 A 87
37 A 88
37 A 89
37 A 90
37 A 91
37 A 92
37 A 93
37 A 94
37 A 95
37 A 96
37 A 97
37 A 98
37 A 99
37 A 100
38 A 1
38 A 2
38 A 3
38 A 4
38 A 5
38 A 6
38 A 7
38 A 8
38 A 9
38 A 10
38 A 11
38 A 12
38 A 13
38 A 14
38 A 15
38 A 16
38 A 17
38 A 18
38 A 19
38 A 20
38 A 21
38 A 22
38 A 23
38 A 24
38 A 25
38 A 26
38 A 27
38 A 28
38 A 29
38 A 30
38 A 31
38 A 32
38 A 33
38 A 34
38 A 35
38 A 36
38 A 37
38 A 38
38 A 39
38 A 40
38 A 41
38 A 42
38 A 43
38 A 44
38 A 45
38 A 46
38 A 47
38 A 48
38 A 49
38 A 50
38 A 51
38 A 52
38 A 53
38 A 54
38 A 55
38 A 56
38 A 57
38 A 58
38 A 59
38 A 60
38 A 61
38 A 62
38 A 63
38 A 64
38 A 65
38 A 66
38 A 67
38 A 68
38 A 69
38 A 70
38 A 71
38 A 72
38 A 73
38 A 74
38 A 75
38 A 76
38 A 77
38 A 78
38 A 79
38 A 80
38 A 81
38 A 82
38 A 83
38 A 84
38 A 85
38 A 86
38 A 87
38 A 88
38 A 89
38 A 90
38 A 91
38 A 92
38 A 93
38 A 94
38 A 95
38 A 96
38 A 97
38 A 98
38 A 99
38 A 100
39 A 1
39 A 2
39 A 3
39 A 4
39 A 5
39 A 6
39 A 7
39 A 8
39 A 9
39 A 10
39 A 11
39 A 12
39 A 13
39 A 14
39 A 15
39 A 16
39 A 17
39 A 18
39 A 19
39 A 20
39 A 21
39 A 22
39 A 23
39 A 24
39 A 25
39 A 26
39 A 27
39 A 28
39 A 29
39 A 30
39 A 31
39 A 32
39 A 33
39 A 34
39 A 35
39 A 36
39 A 37
39 A 38
39 A 39
39 A 40
39 A 41
39 A 42
39 A 43
39 A 44
39 A 45
39 A 46
39 A 47
39 A 48
39 A 49
39 A 50
39 A 51
39 A 52
39 A 53
39 A 54
39 A 55
39 A 56
39 A 57
39 A 58
39 A 59
39 A 60
39 A 61
39 A 62
39 A 63
39 A 64
39 A 65
39 A 66
39 A 67
39 A 68
39 A 69
39 A 70
39 A 71
39 A 72
39 A 73
39 A 74
39 A 75
39 A 76
39 A 77
39 A 78
39 A 79
39 A 80
39 A 81
39 A 82
39 A 83
39 A 84
39 A 85
39 A 86
39 A 87
39 A 88
39 A 89
39 A 90
39 A 91
39 A 92
39 A 93
39 A 94
39 A 95
39 A 96
39 A 97
39 A 98
39 A 99
39 A 100
40 A 1
40 A 2
40 A 3
40 A 4
40 A 5
40 A 6
40 A 7
40 A 8
40 A 9
40 A 10
40 A 11
40 A 12
40 A 13
40 A 14
40 A 15
40 A 16
40 A 17
40 A 18
40 A 19
40 A 20
40 A 21
40 A 22
40 A 23
40 A 24
40 A 25
40 A 26
40 A 27
40 A 28
40 A 29
40 A 30
40 A 31
40 A 32
40 A 33
40 A 34
40 A 35
40 A 36
40 A 37
40 A 38
40 A 39
40 A 40
40 A 41
40 A 42
40 A 43
40 A 44
40 A 45
40 A 46
40 A 47
40 A 48
40 A 49
40 A 50
40 A 51
40 A 52
40 A 53
40 A 54
40 A 55
40 A 56
40 A 57
40 A 58
40 A 59
40 A 60
40 A 61
40 A 62
40 A 63
40 A 64
40 A 65
40 A 66
40 A 67
40 A 68
40 A 69
40 A 70
40 A 71
40 A 72
40 A 73
40 A 74
40 A 75
40 A 76
40 A 77
40 A 78
40 A 79
40 A 80
40 A 81
40 A 82
40 A 83
40 A 84
40 A 85
40 A 86
40 A 87
40 A 88
40 A 89
40 A 90
40 A 91
40 A 92
40 A 93
40 A 94
40 A 95
40 A 96
40 A 97
40 A 98
40 A 99
40 A 100
41 A 1
41 A 2
41 A 3
41 A 4
41 A 5
41 A 6
41 A 7
41 A 8
41 A 9
41 A 10
41 A 11
41 A 12
41 A 13
41 A 14
41 A 15
41 A 16
41 A 17
41 A 18
41 A 19
41 A 20
41 A 21
41 A 22
41 A 23
41 A 24
41 A 25
41 A 26
41 A 27
41 A 28
41 A 29
41 A 30
41 A 31
41 A 32
41 A 33
41 A 34
41 A 35
41 A 36
41 A 37
41 A 38
41 A 39
41 A 40
41 A 41
41 A 42
41 A 43
41 A 44
41 A 45
41 A 46
41 A 47
41 A 48
41 A 49
41 A 50
41 A 51
41 A 52
41 A 53
41 A 54
41 A 55
41 A 56
41 A 57
41 A 58
41 A 59
41 A 60
41 A 61
41 A 62
41 A 63
41 A 64
41 A 65
41 A 66
41 A 67
41 A 68
41 A 69
41 A 70
41 A 71
41 A 72
41 A 73
41 A 74
41 A 75
41 A 76
41 A 77
41 A 78
41 A 79
41 A 80
41 A 81
41 A 82
41 A 83
41 A 84
41 A 85
41 A 86
41 A 87
41 A 88
41 A 89
41 A 90
41 A 91
41 A 92
41 A 93
41 A 94
41 A 95
41 A 96
41 A 97
41 A 98
41 A 99
41 A 100
42 A 1
42 A 2
42 A 3
42 A 4
42 A 5
42 A 6
42 A 7
42 A 8
42 A 9
42 A 10
42 A 11
42 A 12
42 A 13
42 A 14
42 A 15
42 A 16
42 A 17
42 A 18
42 A 19
42 A 20
42 A 21
42 A 22
42 A 23
42 A 24
42 A 25
42 A 26
42 A 27
42 A 28
42 A 29
42 A 30
42 A 31
42 A 32
42 A 33
42 A 34
42 A 35
42 A 36
42 A 37
42 A 38
42 A 39
42 A 40
42 A 41
42 A 42
42 A 43
42 A 44
42 A 45
42 A 46
42 A 47
42 A 48
42 A 49
42 A 50
42 A 51
42 A 52
42 A 53
42 A 54
42 A 55
42 A 56
42 A 57
42 A 58
42 A 59
42 A 60
42 A 61
42 A 62
42 A 63
42 A 64
42 A 65
42 A 66
42 A 67
42 A 68
42 A 69
42 A 70
42 A 71
42 A 72
42 A 73
42 A 74
42 A 75
42 A 76
42 A 77
42 A 78
42 A 79
42 A 80
42 A 81
42 A 82
42 A 83
42 A 84
42 A 85
42 A 86
42 A 87
42 A 88
42 A 89
42 A 90
42 A 91
42 A 92
42 A 93
42 A 94
42 A 95
42 A 96
42 A 97
42 A 98
42 A 99
42 A 100
43 A 1
43 A 2
43 A 3
43 A 4
43 A 5
43 A 6
43 A 7
43 A 8
43 A 9
43 A 10
43 A 11
43 A 12
43 A 13
43 A 14
43 A 15
43 A 16
43 A 17
43 A 18
43 A 19
43 A 20
43 A 21
43 A 22
43 A 23
43 A 24
43 A 25
43 A 26
43 A 27
43 A 28
43 A 29
43 A 30
43 A 31
43 A 32
43 A 33
43 A 34
43 A 35
43 A 36
43 A 37
43 A 38
43 A 39
43 A 40
43 A 41
43 A 42
43 A 43
43 A 44
43 A 45
43 A 46
43 A 47
43 A 48
43 A 49
43 A 50
43 A 51
43 A 52
43 A 53
43 A 54
43 A 55
43 A 56
43 A 57
43 A 58
43 A 59
43 A 60
43 A 61
43 A 62
43 A 63
43 A 64
43 A 65
43 A 66
43 A 67
43 A 68
43 A 69
43 A 70
43 A 71
43 A 72
43 A 73
43 A 74
43 A 75
43 A 76
43 A 77
43 A 78
43 A 79
43 A 80
43 A 81
43 A 82
43 A 83
43 A 84
43 A 85
43 A 86
43 A 87
43 A 88
43 A 89
43 A 90
43 A 91
43 A 92
43 A 93
43 A 94
43 A 95
43 A 96
43 A 97
43 A 98
43 A 99
43 A 100
44 A 1
44 A 2
44 A 3
44 A 4
44 A 5
44 A 6
44 A 7
44 A 8
44 A 9
44 A 10
44 A 11
44 A 12
44 A 13
44 A 14
44 A 15
44 A 16
44 A 17
44 A 18
44 A 19
44 A 20
44 A 21
44 A 22
44 A 23
44 A 24
44 A 25
44 A 26
44 A 27
44 A 28
44 A 29
44 A 30
44 A 31
44 A 32
44 A 33
44 A 34
44 A 35
44 A 36
44 A 37
44 A 38
44 A 39
44 A 40
44 A 41
44 A 42
44 A 43
44 A 44
44 A 45
44 A 46
44 A 47
44 A 48
44 A 49
44 A 50
44 A 51
44 A 52
44 A 53
44 A 54
44 A 55
44 A 56
44 A 57
44 A 58
44 A 59
44 A 60
44 A 61
44 A 62
44 A 63
44 A 64
44 A 65
44 A 66
44 A 67
44 A 68
44 A 69
44 A 70
44 A 71
44 A 72
44 A 73
44 A 74
44 A 75
44 A 76
44 A 77
44 A 78
44 A 79
44 A 80
44 A 81
44 A 82
44 A 83
44 A 84
44 A 85
44 A 86
44 A 87
44 A 88
44 A 89
44 A 90
44 A 91
44 A 92
44 A 93
44 A 94
44 A 95
44 A 96
44 A 97
44 A 98
44 A 99
44 A 100
45 A 1
45 A 2
45 A 3
45 A 4
45 A 5
45 A 6
45 A 7
45 A 8
45 A 9
45 A 10
45 A 11
45 A 12
45 A 13
45 A 14
45 A 15
45 A 16
45 A 17
45 A 18
45 A 19
45 A 20
45 A 21
45 A 22
45 A 23
45 A 24
45 A 25
45 A 26
45 A 27
45 A 28
45 A 29
45 A 30
45 A 31
45 A 32
45 A 33
45 A 34
45 A 35
45 A 36
45 A 37
45 A 38
45 A 39
45 A 40
45 A 41
45 A 42
45 A 43
45 A 44
45 A 45
45 A 46
45 A 47
45 A 48
45 A 49
45 A 50
45 A 51
45 A 52
45 A 53
45 A 54
45 A 55
45 A 56
45 A 57
45 A 58
45 A 59
45 A 60
45 A 61
45 A 62
45 A 63
45 A 64
45 A 65
45 A 66
45 A 67
45 A 68
45 A 69
45 A 70
45 A 71
45 A 72
45 A 73
45 A 74
45 A 75
45 A 76
45 A 77
45 A 78
45 A 79
45 A 80
45 A 81
45 A 82
45 A 83
45 A 84
45 A 85
45 A 86
45 A 87
45 A 88
45 A 89
45 A 90
45 A 91
45 A 92
45 A 93
45 A 94
45 A 95
45 A 96
45 A 97
45 A 98
45 A 99
45 A 100
46 A 1
46 A 2
46 A 3
46 A 4
46 A 5
46 A 6
46 A 7
46 A 8
46 A 9
46 A 10
46 A 11
46 A 12
46 A 13
46 A 14
46 A 15
46 A 16
46 A 17
46 A 18
46 A 19
46 A 20
46 A 21
46 A 22
46 A 23
46 A 24
46 A 25
46 A 26
46 A 27
46 A 28
46 A 29
46 A 30
46 A 31
46 A 32
46 A 33
46 A 34
46 A 35
46 A 36
46 A 37
46 A 38
46 A 39
46 A 40
46 A 41
46 A 42
46 A 43
46 A 44
46 A 45
46 A 46
46 A 47
46 A 48
46 A 49
46 A 50
46 A 51
46 A 52
46 A 53
46 A 54
46 A 55
46 A 56
46 A 57
46 A 58
46 A 59
46 A 60
46 A 61
46 A 62
46 A 63
46 A 64
46 A 65
46 A 66
46 A 67
46 A 68
46 A 69
46 A 70
46 A 71
46 A 72
46 A 73
46 A 74
46 A 75
46 A 76
46 A 77
46 A 78
46 A 79
46 A 80
46 A 81
46 A 82
46 A 83
46 A 84
46 A 85
46 A 86
46 A 87
46 A 88
46 A 89
46 A 90
46 A 91
46 A 92
46 A 93
46 A 94
46 A 95
46 A 96
46 A 97
46 A 98
46 A 99
46 A 100
47 A 1
47 A 2
47 A 3
47 A 4
47 A 5
47 A 6
47 A 7
47 A 8
47 A 9
47 A 10
47 A 11
47 A 12
47 A 13
47 A 14
47 A 15
47 A 16
47 A 17
47 A 18
47 A 19
47 A 20
47 A 21
47 A 22
47 A 23
47 A 24
47 A 25
47 A 26
47 A 27
47 A 28
47 A 29
47 A 30
47 A 31
47 A 32
47 A 33
47 A 34
47 A 35
47 A 36
47 A 37
47 A 38
47 A 39
47 A 40
47 A 41
47 A 42
47 A 43
47 A 44
47 A 45
47 A 46
47 A 47
47 A 48
47 A 49
47 A 50
47 A 51
47 A 52
47 A 53
47 A 54
47 A 55
47 A 56
47 A 57
47 A 58
47 A 59
47 A 60
47 A 61
47 A 62
47 A 63
47 A 64
47 A 65
47 A 66
47 A 67
47 A 68
47 A 69
47 A 70
47 A 71
47 A 72
47 A 73
47 A 74
47 A 75
47 A 76
47 A 77
47 A 78
47 A 79
47 A 80
47 A 81
47 A 82
47 A 83
47 A 84
47 A 85
47 A 86
47 A 87
47 A 88
47 A 89
47 A 90
47 A 91
47 A 92
47 A 93
47 A 94
47 A 95
47 A 96
47 A 97
47 A 98
47 A 99
47 A 100
48 A 1
48 A 2
48 A 3
48 A 4
48 A 5
48 A 6
48 A 7
48 A 8
48 A 9
48 A 10
48 A 11
48 A 12
48 A 13
48 A 14
48 A 15
48 A 16
48 A 17
48 A 18
48 A 19
48 A 20
48 A 21
48 A 22
48 A 23
48 A 24
48 A 25
48 A 26
48 A 27
48 A 28
48 A 29
48 A 30
48 A 31
48 A 32
48 A 33
48 A 34
48 A 35
48 A 36
48 A 37
48 A 38
48 A 39
48 A 40
48 A 41
48 A 42
48 A 43
48 A 44
48 A 45
48 A 46
48 A 47
48 A 48
48 A 49
48 A 50
48 A 51
48 A 52
48 A 53
48 A 54
48 A 55
48 A 56
48 A 57
48 A 58
48 A 59
48 A 60
48 A 61
48 A 62
48 A 63
48 A 64
48 A 65
48 A 66
48 A 67
48 A 68
48 A 69
48 A 70
48 A 71
48 A 72
48 A 73
48 A 74
48 A 75
48 A 76
48 A 77
48 A 78
48 A 79
48 A 80
48 A 81
48 A 82
48 A 83
48 A 84
48 A 85
48 A 86
48 A 87
48 A 88
48 A 89
48 A 90
48 A 91
48 A 92
48 A 93
48 A 94
48 A 95
48 A 96
48 A 97
48 A 98
48 A 99
48 A 100
49 A 1
49 A 2
49 A 3
49 A 4
49 A 5
49 A 6
49 A 7
49 A 8
49 A 9
49 A 10
49 A 11
49 A 12
49 A 13
49 A 14
49 A 15
49 A 16
49 A 17
49 A 18
49 A 19
49 A 20
49 A 21
49 A 22
49 A 23
49 A 24
49 A 25
49 A 26
49 A 27
49 A 28
49 A 29
49 A 30
49 A 31
49 A 32
49 A 33
49 A 34
49 A 35
49 A 36
49 A 37
49 A 38
49 A 39
49 A 40
49 A 41
49 A 42
49 A 43
49 A 44
49 A 45
49 A 46
49 A 47
49 A 48
49 A 49
49 A 50
49 A 51
49 A 52
49 A 53
49 A 54
49 A 55
49 A 56
49 A 57
49 A 58
49 A 59
49 A 60
49 A 61
49 A 62
49 A 63
49 A 64
49 A 65
49 A 66
49 A 67
49 A 68
49 A 69
49 A 70
49 A 71
49 A 72
49 A 73
49 A 74
49 A 75
49 A 76
49 A 77
49 A 78
49 A 79
49 A 80
49 A 81
49 A 82
49 A 83
49 A 84
49 A 85
49 A 86
49 A 87
49 A 88
49 A 89
49 A 90
49 A 91
49 A 92
49 A 93
49 A 94
49 A 95
49 A 96
49 A 97
49 A 98
49 A 99
49 A 100
50 A 1
50 A 2
50 A 3
50 A 4
50 A 5
50 A 6
50 A 7
50 A 8
50 A 9
50 A 10
50 A 11
50 A 12
50 A 13
50 A 14
50 A 15
50 A 16
50 A 17
50 A 18
50 A 19
50 A 20
50 A 21
50 A 22
50 A 23
50 A 24
50 A 25
50 A 26
50 A 27
50 A 28
50 A 29
50 A 30
50 A 31
50 A 32
50 A 33
50 A 34
50 A 35
50 A 36
50 A 37
50 A 38
50 A 39
50 A 40
50 A 41
50 A 42
50 A 43
50 A 44
50 A 45
50 A 46
50 A 47
50 A 48
50 A 49
50 A 50
50 A 51
50 A 52
50 A 53
50 A 54
50 A 55
50 A 56
50 A 57
50 A 58
50 A 59
50 A 60
50 A 61
50 A 62
50 A 63
50 A 64
50 A 65
50 A 66
50 A 67
50 A 68
50 A 69
50 A 70
50 A 71
50 A 72
50 A 73
50 A 74
50 A 75
50 A 76
50 A 77
50 A 78
50 A 79
50 A 80
50 A 81
50 A 82
50 A 83
50 A 84
50 A 85
50 A 86
50 A 87
50 A 88
50 A 89
50 A 90
50 A 91
50 A 92
50 A 93
50 A 94
50 A 95
50 A 96
50 A 97
50 A 98
50 A 99
50 A 100
51 A 1
51 A 2
51 A 3
51 A 4
51 A 5
51 A 6
51 A 7
51 A 8
51 A 9
51 A 10
51 A 11
51 A 12
51 A 13
51 A 14
51 A 15
51 A 16
51 A 17
51 A 18
51 A 19
51 A 20
51 A 21
51 A 22
51 A 23
51 A 24
51 A 25
51 A 26
51 A 27
51 A 28
51 A 29
51 A 30
51 A 31
51 A 32
51 A 33
51 A 34
51 A 35
51 A 36
51 A 37
51 A 38
51 A 39
51 A 40
51 A 41
51 A 42
51 A 43
51 A 44
51 A 45
51 A 46
51 A 47
51 A 48
51 A 49
51 A 50
51 A 51
51 A 52
51 A 53
51 A 54
51 A 55
51 A 56
51 A 57
51 A 58
51 A 59
51 A 60
51 A 61
51 A 62
51 A 63
51 A 64
51 A 65
51 A 66
51 A 67
51 A 68
51 A 69
51 A 70
51 A 71
51 A 72
51 A 73
51 A 74
51 A 75
51 A 76
51 A 77
51 A 78
51 A 79
51 A 80
51 A 81
51 A 82
51 A 83
51 A 84
51 A 85
51 A 86
51 A 87
51 A 88
51 A 89
51 A 90
51 A 91
51 A 92
51 A 93
51 A 94
51 A 95
51 A 96
51 A 97
51 A 98
51 A 99
51 A 100
52 A 1
52 A 2
52 A 3
52 A 4
52 A 5
52 A 6
52 A 7
52 A 8
52 A 9
52 A 10
52 A 11
52 A 12
52 A 13
52 A 14
52 A 15
52 A 16
52 A 17
52 A 18
52 A 19
52 A 20
52 A 21
52 A 22
52 A 23
52 A 24
52 A 25
52 A 26
52 A 27
52 A 28
52 A 29
52 A 30
52 A 31
52 A 32
52 A 33
52 A 34
52 A 35
52 A 36
52 A 37
52 A 38
52 A 39
52 A 40
52 A 41
52 A 42
52 A 43
52 A 44
52 A 45
52 A 46
52 A 47
52 A 48
52 A 49
52 A 50
52 A 51
52 A 52
52 A 53
52 A 54
52 A 55
52 A 56
52 A 57
52 A 58
52 A 59
52 A 60
52 A 61
52 A 62
52 A 63
52 A 64
52 A 65
52 A 66
52 A 67
52 A 68
52 A 69
52 A 70
52 A 71
52 A 72
52 A 73
52 A 74
52 A 75
52 A 76
52 A 77
52 A 78
52 A 79
52 A 80
52 A 81
52 A 82
52 A 83
52 A 84
52 A 85
52 A 86
52 A 87
52 A 88
52 A 89
52 A 90
52 A 91
52 A 92
52 A 93
52 A 94
52 A 95
52 A 96
52 A 97
52 A 98
52 A 99
52 A 100
53 A 1
53 A 2
53 A 3
53 A 4
53 A 5
53 A 6
53 A 7
53 A 8
53 A 9
53 A 10
53 A 11
53 A 12
53 A 13
53 A 14
53 A 15
53 A 16
53 A 17
53 A 18
53 A 19
53 A 20
53 A 21
53 A 22
53 A 23
53 A 24
53 A 25
53 A 26
53 A 27
53 A 28
53 A 29
53 A 30
53 A 31
53 A 32
53 A 33
53 A 34
53 A 35
53 A 36
53 A 37
53 A 38
53 A 39
53 A 40
53 A 41
53 A 42
53 A 43
53 A 44
53 A 45
53 A 46
53 A 47
53 A 48
53 A 49
53 A 50
53 A 51
53 A 52
53 A 53
53 A 54
53 A 55
53 A 56
53 A 57
53 A 58
53 A 59
53 A 60
53 A 61
53 A 62
53 A 63
53 A 64
53 A 65
53 A 66
53 A 67
53 A 68
53 A 69
53 A 70
53 A 71
53 A 72
53 A 73
53 A 74
53 A 75
53 A 76
53 A 77
53 A 78
53 A 79
53 A 80
53 A 81
53 A 82
53 A 83
53 A 84
53 A 85
53 A 86
53 A 87
53 A 88
53 A 89
53 A 90
53 A 91
53 A 92
53 A 93
53 A 94
53 A 95
53 A 96
53 A 97
53 A 98
53 A 99
53 A 100
54 A 1
54 A 2
54 A 3
54 A 4
54 A 5
54 A 6
54 A 7
54 A 8
54 A 9
54 A 10
54 A 11
54 A 12
54 A 13
54 A 14
54 A 15
54 A 16
54 A 17
54 A 18
54 A 19
54 A 20
54 A 21
54 A 22
54 A 23
54 A 24
54 A 25
54 A 26
54 A 27
54 A 28
54 A 29
54 A 30
54 A 31
54 A 32
54 A 33
54 A 34
54 A 35
54 A 36
54 A 37
54 A 38
54 A 39
54 A 40
54 A 41
54 A 42
54 A 43
54 A 44
54 A 45
54 A 46
54 A 47
54 A 48
54 A 49
54 A 50
54 A 51
54 A 52
54 A 53
54 A 54
54 A 55
54 A 56
54 A 57
54 A 58
54 A 59
54 A 60
54 A 61
54 A 62
54 A 63
54 A 64
54 A 65
54 A 66
54 A 67
54 A 68
54 A 69
54 A 70
54 A 71
54 A 72
54 A 73
54 A 74
54 A 75
54 A 76
54 A 77
54 A 78
54 A 79
54 A 80
54 A 81
54 A 82
54 A 83
54 A 84
54 A 85
54 A 86
54 A 87
54 A 88
54 A 89
54 A 90
54 A 91
54 A 92
54 A 93
54 A 94
54 A 95
54 A 96
54 A 97
54 A 98
54 A 99
54 A 100
55 A 1
55 A 2
55 A 3
55 A 4
55 A 5
55 A 6
55 A 7
55 A 8
55 A 9
55 A 10
55 A 11
55 A 12
55 A 13
55 A 14
55 A 15
55 A 16
55 A 17
55 A 18
55 A 19
55 A 20
55 A 21
55 A 22
55 A 23
55 A 24
55 A 25
55 A 26
55 A 27
55 A 28
55 A 29
55 A 30
55 A 31
55 A 32
55 A 33
55 A 34
55 A 35
55 A 36
55 A 37
55 A 38
55 A 39
55 A 40
55 A 41
55 A 42
55 A 43
55 A 44
55 A 45
55 A 46
55 A 47
55 A 48
55 A 49
55 A 50
55 A 51
55 A 52
55 A 53
55 A 54
55 A 55
55 A 56
55 A 57
55 A 58
55 A 59
55 A 60
55 A 61
55 A 62
55 A 63
55 A 64
55 A 65
55 A 66
55 A 67
55 A 68
55 A 69
55 A 70
55 A 71
55 A 72
55 A 73
55 A 74
55 A 75
55 A 76
55 A 77
55 A 78
55 A 79
55 A 80
55 A 81
55 A 82
55 A 83
55 A 84
55 A 85
55 A 86
55 A 87
55 A 88
55 A 89
55 A 90
55 A 91
55 A 92
55 A 93
55 A 94
55 A 95
55 A 96
55 A 97
55 A 98
55 A 99
55 A 100
56 A 1
56 A 2
56 A 3
56 A 4
56 A 5
56 A 6
56 A 7
56 A 8
56 A 9
56 A 10
56 A 11
56 A 12
56 A 13
56 A 14
56 A 15
56 A 16
56 A 17
56 A 18
56 A 19
56 A 20
56 A 21
56 A 22
56 A 23
56 A 24
56 A 25
56 A 26
56 A 27
56 A 28
56 A 29
56 A 30
56 A 31
56 A 32
56 A 33
56 A 34
56 A 35
56 A 36
56 A 37
56 A 38
56 A 39
56 A 40
56 A 41
56 A 42
56 A 43
56 A 44
56 A 45
56 A 46
56 A 47
56 A 48
56 A 49
56 A 50
56 A 51
56 A 52
56 A 53
56 A 54
56 A 55
56 A 56
56 A 57
56 A 58
56 A 59
56 A 60
56 A 61
56 A 62
56 A 63
56 A 64
56 A 65
56 A 66
56 A 67
56 A 68
56 A 69
56 A 70
56 A 71
56 A 72
56 A 73
56 A 74
56 A 75
56 A 76
56 A 77
56 A 78
56 A 79
56 A 80
56 A 81
56 A 82
56 A 83
56 A 84
56 A 85
56 A 86
56 A 87
56 A 88
56 A 89
56 A 90
56 A 91
56 A 92
56 A 93
56 A 94
56 A 95
56 A 96
56 A 97
56 A 98
56 A 99
56 A 100
57 A 1
57 A 2
57 A 3
57 A 4
57 A 5
57 A 6
57 A 7
57 A 8
57 A 9
57 A 10
57 A 11
57 A 12
57 A 13
57 A 14
57 A 15
57 A 16
57 A 17
57 A 18
57 A 19
57 A 20
57 A 21
57 A 22
57 A 23
57 A 24
57 A 25
57 A 26
57 A 27
57 A 28
57 A 29
57 A 30
57 A 31
57 A 32
57 A 33
57 A 34
57 A 35
57 A 36
57 A 37
57 A 38
57 A 39
57 A 40
57 A 41
57 A 42
57 A 43
57 A 44
57 A 45
57 A 46
57 A 47
57 A 48
57 A 49
57 A 50
57 A 51
57 A 52
57 A 53
57 A 54
57 A 55
57 A 56
57 A 57
57 A 58
57 A 59
57 A 60
57 A 61
57 A 62
57 A 63
57 A 64
57 A 65
57 A 66
57 A 67
57 A 68
57 A 69
57 A 70
57 A 71
57 A 72
57 A 73
57 A 74
57 A 75
57 A 76
57 A 77
57 A 78
57 A 79
57 A 80
57 A 81
57 A 82
57 A 83
57 A 84
57 A 85
57 A 86
57 A 87
57 A 88
57 A 89
57 A 90
57 A 91
57 A 92
57 A 93
57 A 94
57 A 95
57 A 96
57 A 97
57 A 98
57 A 99
57 A 100
58 A 1
58 A 2
58 A 3
58 A 4
58 A 5
58 A 6
58 A 7
58 A 8
58 A 9
58 A 10
58 A 11
58 A 12
58 A 13
58 A 14
58 A 15
58 A 16
58 A 17
58 A 18
58 A 19
58 A 20
58 A 21
58 A 22
58 A 23
58 A 24
58 A 25
58 A 26
58 A 27
58 A 28
58 A 29
58 A 30
58 A 31
58 A 32
58 A 33
58 A 34
58 A 35
58 A 36
58 A 37
58 A 38
58 A 39
58 A 40
58 A 41
58 A 42
58 A 43
58 A 44
58 A 45
58 A 46
58 A 47
58 A 48
58 A 49
58 A 50
58 A 51
58 A 52
58 A 53
58 A 54
58 A 55
58 A 56
58 A 57
58 A 58
58 A 59
58 A 60
58 A 61
58 A 62
58 A 63
58 A 64
58 A 65
58 A 66
58 A 67
58 A 68
58 A 69
58 A 70
58 A 71
58 A 72
58 A 73
58 A 74
58 A 75
58 A 76
58 A 77
58 A 78
58 A 79
58 A 80
58 A 81
58 A 82
58 A 83
58 A 84
58 A 85
58 A 86
58 A 87
58 A 88
58 A 89
58 A 90
58 A 91
58 A 92
58 A 93
58 A 94
58 A 95
58 A 96
58 A 97
58 A 98
58 A 99
58 A 100
59 A 1
59 A 2
59 A 3
59 A 4
59 A 5
59 A 6
59 A 7
59 A 8
59 A 9
59 A 10
59 A 11
59 A 12
59 A 13
59 A 14
59 A 15
59 A 16
59 A 17
59 A 18
59 A 19
59 A 20
59 A 21
59 A 22
59 A 23
59 A 24
59 A 25
59 A 26
59 A 27
59 A 28
59 A 29
59 A 30
59 A 31
59 A 32
59 A 33
59 A 34
59 A 35
59 A 36
59 A 37
59 A 38
59 A 39
59 A 40
59 A 41
59 A 42
59 A 43
59 A 44
59 A 45
59 A 46
59 A 47
59 A 48
59 A 49
59 A 50
59 A 51
59 A 52
59 A 53
59 A 54
59 A 55
59 A 56
59 A 57
59 A 58
59 A 59
59 A 60
59 A 61
59 A 62
59 A 63
59 A 64
59 A 65
59 A 66
59 A 67
59 A 68
59 A 69
59 A 70
59 A 71
59 A 72
59 A 73
59 A 74
59 A 75
59 A 76
59 A 77
59 A 78
59 A 79
59 A 80
59 A 81
59 A 82
59 A 83
59 A 84
59 A 85
59 A 86
59 A 87
59 A 88
59 A 89
59 A 90
59 A 91
59 A 92
59 A 93
59 A 94
59 A 95
59 A 96
59 A 97
59 A 98
59 A 99
59 A 100
60 A 1
60 A 2
60 A 3
60 A 4
60 A 5
60 A 6
60 A 7
60 A 8
60 A 9
60 A 10
60 A 11
60 A 12
60 A 13
60 A 14
60 A 15
60 A 16
60 A 17
60 A 18
60 A 19
60 A 20
60 A 21
60 A 22
60 A 23
60 A 24
60 A 25
60 A 26
60 A 27
60 A 28
60 A 29
60 A 30
60 A 31
60 A 32
60 A 33
60 A 34
60 A 35
60 A 36
60 A 37
60 A 38
60 A 39
60 A 40
60 A 41
60 A 42
60 A 43
60 A 44
60 A 45
60 A 46
60 A 47
60 A 48
60 A 49
60 A 50
60 A 51
60 A 52
60 A 53
60 A 54
60 A 55
60 A 56
60 A 57
60 A 58
60 A 59
60 A 60
60 A 61
60 A 62
60 A 63
60 A 64
60 A 65
60 A 66
60 A 67
60 A 68
60 A 69
60 A 70
60 A 71
60 A 72
60 A 73
60 A 74
60 A 75
60 A 76
60 A 77
60 A 78
60 A 79
60 A 80
60 A 81
60 A 82
60 A 83
60 A 84
60 A 85
60 A 86
60 A 87
60 A 88
60 A 89
60 A 90
60 A 91
60 A 92
60 A 93
60 A 94
60 A 95
60 A 96
60 A 97
60 A 98
60 A 99
60 A 100
61 A 1
61 A 2
61 A 3
61 A 4
61 A 5
61 A 6
61 A 7
61 A 8
61 A 9
61 A 10
61 A 11
61 A 12
61 A 13
61 A 14
61 A 15
61 A 16
61 A 17
61 A 18
61 A 19
61 A 20
61 A 21
61 A 22
61 A 23
61 A 24
61 A 25
61 A 26
61 A 27
61 A 28
61 A 29
61 A 30
61 A 31
61 A 32
61 A 33
61 A 34
61 A 35
61 A 36
61 A 37
61 A 38
61 A 39
61 A 40
61 A 41
61 A 42
61 A 43
61 A 44
61 A 45
61 A 46
61 A 47
61 A 48
61 A 49
61 A 50
61 A 51
61 A 52
61 A 53
61 A 54
61 A 55
61 A 56
61 A 57
61 A 58
61 A 59
61 A 60
61 A 61
61 A 62
61 A 63
61 A 64
61 A 65
61 A 66
61 A 67
61 A 68
61 A 69
61 A 70
61 A 71
61 A 72
61 A 73
61 A 74
61 A 75
61 A 76
61 A 77
61 A 78
61 A 79
61 A 80
61 A 81
61 A 82
61 A 83
61 A 84
61 A 85
61 A 86
61 A 87
61 A 88
61 A 89
61 A 90
61 A 91
61 A 92
61 A 93
61 A 94
61 A 95
61 A 96
61 A 97
61 A 98
61 A 99
61 A 100
62 A 1
62 A 2
62 A 3
62 A 4
62 A 5
62 A 6
62 A 7
62 A 8
62 A 9
62 A 10
62 A 11
62 A 12
62 A 13
62 A 14
62 A 15
62 A 16
62 A 17
62 A 18
62 A 19
62 A 20
62 A 21
62 A 22
62 A 23
62 A 24
62 A 25
62 A 26
62 A 27
62 A 28
62 A 29
62 A 30
62 A 31
62 A 32
62 A 33
62 A 34
62 A 35
62 A 36
62 A 37
62 A 38
62 A 39
62 A 40
62 A 41
62 A 42
62 A 43
62 A 44
62 A 45
62 A 46
62 A 47
62 A 48
62 A 49
62 A 50
62 A 51
62 A 52
62 A 53
62 A 54
62 A 55
62 A 56
62 A 57
62 A 58
62 A 59
62 A 60
62 A 61
62 A 62
62 A 63
62 A 64
62 A 65
62 A 66
62 A 67
62 A 68
62 A 69
62 A 70
62 A 71
62 A 72
62 A 73
62 A 74
62 A 75
62 A 76
62 A 77
62 A 78
62 A 79
62 A 80
62 A 81
62 A 82
62 A 83
62 A 84
62 A 85
62 A 86
62 A 87
62 A 88
62 A 89
62 A 90
62 A 91
62 A 92
62 A 93
62 A 94
62 A 95
62 A 96
62 A 97
62 A 98
62 A 99
62 A 100
63 A 1
63 A 2
63 A 3
63 A 4
63 A 5
63 A 6
63 A 7
63 A 8
63 A 9
63 A 10
63 A 11
63 A 12
63 A 13
63 A 14
63 A 15
63 A 16
63 A 17
63 A 18
63 A 19
63 A 20
63 A 21
63 A 22
63 A 23
63 A 24
63 A 25
63 A 26
63 A 27
63 A 28
63 A 29
63 A 30
63 A 31
63 A 32
63 A 33
63 A 34
63 A 35
63 A 36
63 A 37
63 A 38
63 A 39
63 A 40
63 A 41
63 A 42
63 A 43
63 A 44
63 A 45
63 A 46
63 A 47
63 A 48
63 A 49
63 A 50
63 A 51
63 A 52
63 A 53
63 A 54
63 A 55
63 A 56
63 A 57
63 A 58
63 A 59
63 A 60
63 A 61
63 A 62
63 A 63
63 A 64
63 A 65
63 A 66
63 A 67
63 A 68
63 A 69
63 A 70
63 A 71
63 A 72
63 A 73
63 A 74
63 A 75
63 A 76
63 A 77
63 A 78
63 A 79
63 A 80
63 A 81
63 A 82
63 A 83
63 A 84
63 A 85
63 A 86
63 A 87
63 A 88
63 A 89
63 A 90
63 A 91
63 A 92
63 A 93
63 A 94
63 A 95
63 A 96
63 A 97
63 A 98
63 A 99
63 A 100
64 A 1
64 A 2
64 A 3
64 A 4
64 A 5
64 A 6
64 A 7
64 A 8
64 A 9
64 A 10
64 A 11
64 A 12
64 A 13
64 A 14
64 A 15
64 A 16
64 A 17
64 A 18
64 A 19
64 A 20
64 A 21
64 A 22
64 A 23
64 A 24
64 A 25
64 A 26
64 A 27
64 A 28
64 A 29
64 A 30
64 A 31
64 A 32
64 A 33
64 A 34
64 A 35
64 A 36
64 A 37
64 A 38
64 A 39
64 A 40
64 A 41
64 A 42
64 A 43
64 A 44
64 A 45
64 A 46
64 A 47
64 A 48
64 A 49
64 A 50
64 A 51
64 A 52
64 A 53
64 A 54
64 A 55
64 A 56
64 A 57
64 A 58
64 A 59
64 A 60
64 A 61
64 A 62
64 A 63
64 A 64
64 A 65
64 A 66
64 A 67
64 A 68
64 A 69
64 A 70
64 A 71
64 A 72
64 A 73
64 A 74
64 A 75
64 A 76
64 A 77
64 A 78
64 A 79
64 A 80
64 A 81
64 A 82
64 A 83
64 A 84
64 A 85
64 A 86
64 A 87
64 A 88
64 A 89
64 A 90
64 A 91
64 A 92
64 A 93
64 A 94
64 A 95
64 A 96
64 A 97
64 A 98
64 A 99
64 A 100
65 A 1
65 A 2
65 A 3
65 A 4
65 A 5
65 A 6
65 A 7
65 A 8
65 A 9
65 A 10
65 A 11
65 A 12
65 A 13
65 A 14
65 A 15
65 A 16
65 A 17
65 A 18
65 A 19
65 A 20
65 A 21
65 A 22
65 A 23
65 A 24
65 A 25
65 A 26
65 A 27
65 A 28
65 A 29
65 A 30
65 A 31
65 A 32
65 A 33
65 A 34
65 A 35
65 A 36
65 A 37
65 A 38
65 A 39
65 A 40
65 A 41
65 A 42
65 A 43
65 A 44
65 A 45
65 A 46
65 A 47
65 A 48
65 A 49
65 A 50
65 A 51
65 A 52
65 A 53
65 A 54
65 A 55
65 A 56
65 A 57
65 A 58
65 A 59
65 A 60
65 A 61
65 A 62
65 A 63
65 A 64
65 A 65
65 A 66
65 A 67
65 A 68
65 A 69
65 A 70
65 A 71
65 A 72
65 A 73
65 A 74
65 A 75
65 A 76
65 A 77
65 A 78
65 A 79
65 A 80
65 A 81
65 A 82
65 A 83
65 A 84
65 A 85
65 A 86
65 A 87
65 A 88
65 A 89
65 A 90
65 A 91
65 A 92
65 A 93
65 A 94
65 A 95
65 A 96
65 A 97
65 A 98
65 A 99
65 A 100
66 A 1
66 A 2
66 A 3
66 A 4
66 A 5
66 A 6
66 A 7
66 A 8
66 A 9
66 A 10
66 A 11
66 A 12
66 A 13
66 A 14
66 A 15
66 A 16
66 A 17
66 A 18
66 A 19
66 A 20
66 A 21
66 A 22
66 A 23
66 A 24
66 A 25
66 A 26
66 A 27
66 A 28
66 A 29
66 A 30
66 A 31
66 A 32
66 A 33
66 A 34
66 A 35
66 A 36
66 A 37
66 A 38
66 A 39
66 A 40
66 A 41
66 A 42
66 A 43
66 A 44
66 A 45
66 A 46
66 A 47
66 A 48
66 A 49
66 A 50
66 A 51
66 A 52
66 A 53
66 A 54
66 A 55
66 A 56
66 A 57
66 A 58
66 A 59
66 A 60
66 A 61
66 A 62
66 A 63
66 A 64
66 A 65
66 A 66
66 A 67
66 A 68
66 A 69
66 A 70
66 A 71
66 A 72
66 A 73
66 A 74
66 A 75
66 A 76
66 A 77
66 A 78
66 A 79
66 A 80
66 A 81
66 A 82
66 A 83
66 A 84
66 A 85
66 A 86
66 A 87
66 A 88
66 A 89
66 A 90
66 A 91
66 A 92
66 A 93
66 A 94
66 A 95
66 A 96
66 A 97
66 A 98
66 A 99
66 A 100
67 A 1
67 A 2
67 A 3
67 A 4
67 A 5
67 A 6
67 A 7
67 A 8
67 A 9
67 A 10
67 A 11
67 A 12
67 A 13
67 A 14
67 A 15
67 A 16
67 A 17
67 A 18
67 A 19
67 A 20
67 A 21
67 A 22
67 A 23
67 A 24
67 A 25
67 A 26
67 A 27
67 A 28
67 A 29
67 A 30
67 A 31
67 A 32
67 A 33
67 A 34
67 A 35
67 A 36
67 A 37
67 A 38
67 A 39
67 A 40
67 A 41
67 A 42
67 A 43
67 A 44
67 A 45
67 A 46
67 A 47
67 A 48
67 A 49
67 A 50
67 A 51
67 A 52
67 A 53
67 A 54
67 A 55
67 A 56
67 A 57
67 A 58
67 A 59
67 A 60
67 A 61
67 A 62
67 A 63
67 A 64
67 A 65
67 A 66
67 A 67
67 A 68
67 A 69
67 A 70
67 A 71
67 A 72
67 A 73
67 A 74
67 A 75
67 A 76
67 A 77
67 A 78
67 A 79
67 A 80
67 A 81
67 A 82
67 A 83
67 A 84
67 A 85
67 A 86
67 A 87
67 A 88
67 A 89
67 A 90
67 A 91
67 A 92
67 A 93
67 A 94
67 A 95
67 A 96
67 A 97
67 A 98
67 A 99
67 A 100
68 A 1
68 A 2
68 A 3
68 A 4
68 A 5
68 A 6
68 A 7
68 A 8
68 A 9
68 A 10
68 A 11
68 A 12
68 A 13
68 A 14
68 A 15
68 A 16
68 A 17
68 A 18
68 A 19
68 A 20
68 A 21
68 A 22
68 A 23
68 A 24
68 A 25
68 A 26
68 A 27
68 A 28
68 A 29
68 A 30
68 A 31
68 A 32
68 A 33
68 A 34
68 A 35
68 A 36
68 A 37
68 A 38
68 A 39
68 A 40
68 A 41
68 A 42
68 A 43
68 A 44
68 A 45
68 A 46
68 A 47
68 A 48
68 A 49
68 A 50
68 A 51
68 A 52
68 A 53
68 A 54
68 A 55
68 A 56
68 A 57
68 A 58
68 A 59
68 A 60
68 A 61
68 A 62
68 A 63
68 A 64
68 A 65
68 A 66
68 A 67
68 A 68
68 A 69
68 A 70
68 A 71
68 A 72
68 A 73
68 A 74
68 A 75
68 A 76
68 A 77
68 A 78
68 A 79
68 A 80
68 A 81
68 A 82
68 A 83
68 A 84
68 A 85
68 A 86
68 A 87
68 A 88
68 A 89
68 A 90
68 A 91
68 A 92
68 A 93
68 A 94
68 A 95
68 A 96
68 A 97
68 A 98
68 A 99
68 A 100
69 A 1
69 A 2
69 A 3
69 A 4
69 A 5
69 A 6
69 A 7
69 A 8
69 A 9
69 A 10
69 A 11
69 A 12
69 A 13
69 A 14
69 A 15
69 A 16
69 A 17
69 A 18
69 A 19
69 A 20
69 A 21
69 A 22
69 A 23
69 A 24
69 A 25
69 A 26
69 A 27
69 A 28
69 A 29
69 A 30
69 A 31
69 A 32
69 A 33
69 A 34
69 A 35
69 A 36
69 A 37
69 A 38
69 A 39
69 A 40
69 A 41
69 A 42
69 A 43
69 A 44
69 A 45
69 A 46
69 A 47
69 A 48
69 A 49
69 A 50
69 A 51
69 A 52
69 A 53
69 A 54
69 A 55
69 A 56
69 A 57
69 A 58
69 A 59
69 A 60
69 A 61
69 A 62
69 A 63
69 A 64
69 A 65
69 A 66
69 A 67
69 A 68
69 A 69
69 A 70
69 A 71
69 A 72
69 A 73
69 A 74
69 A 75
69 A 76
69 A 77
69 A 78
69 A 79
69 A 80
69 A 81
69 A 82
69 A 83
69 A 84
69 A 85
69 A 86
69 A 87
69 A 88
69 A 89
69 A 90
69 A 91
69 A 92
69 A 93
69 A 94
69 A 95
69 A 96
69 A 97
69 A 98
69 A 99
69 A 100
70 A 1
70 A 2
70 A 3
70 A 4
70 A 5
70 A 6
70 A 7
70 A 8
70 A 9
70 A 10
70 A 11
70 A 12
70 A 13
70 A 14
70 A 15
70 A 16
70 A 17
70 A 18
70 A 19
70 A 20
70 A 21
70 A 22
70 A 23
70 A 24
70 A 25
70 A 26
70 A 27
70 A 28
70 A 29
70 A 30
70 A 31
70 A 32
70 A 33
70 A 34
70 A 35
70 A 36
70 A 37
70 A 38
70 A 39
70 A 40
70 A 41
70 A 42
70 A 43
70 A 44
70 A 45
70 A 46
70 A 47
70 A 48
70 A 49
70 A 50
70 A 51
70 A 52
70 A 53
70 A 54
70 A 55
70 A 56
70 A 57
70 A 58
70 A 59
70 A 60
70 A 61
70 A 62
70 A 63
70 A 64
70 A 65
70 A 66
70 A 67
70 A 68
70 A 69
70 A 70
70 A 71
70 A 72
70 A 73
70 A 74
70 A 75
70 A 76
70 A 77
70 A 78
70 A 79
70 A 80
70 A 81
70 A 82
70 A 83
70 A 84
70 A 85
70 A 86
70 A 87
70 A 88
70 A 89
70 A 90
70 A 91
70 A 92
70 A 93
70 A 94
70 A 95
70 A 96
70 A 97
70 A 98
70 A 99
70 A 100
71 A 1
71 A 2
71 A 3
71 A 4
71 A 5
71 A 6
71 A 7
71 A 8
71 A 9
71 A 10
71 A 11
71 A 12
71 A 13
71 A 14
71 A 15
71 A 16
71 A 17
71 A 18
71 A 19
71 A 20
71 A 21
71 A 22
71 A 23
71 A 24
71 A 25
71 A 26
71 A 27
71 A 28
71 A 29
71 A 30
71 A 31
71 A 32
71 A 33
71 A 34
71 A 35
71 A 36
71 A 37
71 A 38
71 A 39
71 A 40
71 A 41
71 A 42
71 A 43
71 A 44
71 A 45
71 A 46
71 A 47
71 A 48
71 A 49
71 A 50
71 A 51
71 A 52
71 A 53
71 A 54
71 A 55
71 A 56
71 A 57
71 A 58
71 A 59
71 A 60
71 A 61
71 A 62
71 A 63
71 A 64
71 A 65
71 A 66
71 A 67
71 A 68
71 A 69
71 A 70
71 A 71
71 A 72
71 A 73
71 A 74
71 A 75
71 A 76
71 A 77
71 A 78
71 A 79
71 A 80
71 A 81
71 A 82
71 A 83
71 A 84
71 A 85
71 A 86
71 A 87
71 A 88
71 A 89
71 A 90
71 A 91
71 A 92
71 A 93
71 A 94
71 A 95
71 A 96
71 A 97
71 A 98
71 A 99
71 A 100
72 A 1
72 A 2
72 A 3
72 A 4
72 A 5
72 A 6
72 A 7
72 A 8
72 A 9
72 A 10
72 A 11
72 A 12
72 A 13
72 A 14
72 A 15
72 A 16
72 A 17
72 A 18
72 A 19
72 A 20
72 A 21
72 A 22
72 A 23
72 A 24
72 A 25
72 A 26
72 A 27
72 A 28
72 A 29
72 A 30
72 A 31
72 A 32
72 A 33
72 A 34
72 A 35
72 A 36
72 A 37
72 A 38
72 A 39
72 A 40
72 A 41
72 A 42
72 A 43
72 A 44
72 A 45
72 A 46
72 A 47
72 A 48
72 A 49
72 A 50
72 A 51
72 A 52
72 A 53
72 A 54
72 A 55
72 A 56
72 A 57
72 A 58
72 A 59
72 A 60
72 A 61
72 A 62
72 A 63
72 A 64
72 A 65
72 A 66
72 A 67
72 A 68
72 A 69
72 A 70
72 A 71
72 A 72
72 A 73
72 A 74
72 A 75
72 A 76
72 A 77
72 A 78
72 A 79
72 A 80
72 A 81
72 A 82
72 A 83
72 A 84
72 A 85
72 A 86
72 A 87
72 A 88
72 A 89
72 A 90
72 A 91
72 A 92
72 A 93
72 A 94
72 A 95
72 A 96
72 A 97
72 A 98
72 A 99
72 A 100
73 A 1
73 A 2
73 A 3
73 A 4
73 A 5
73 A 6
73 A 7
73 A 8
73 A 9
73 A 10
73 A 11
73 A 12
73 A 13
73 A 14
73 A 15
73 A 16
73 A 17
73 A 18
73 A 19
73 A 20
73 A 21
73 A 22
73 A 23
73 A 24
73 A 25
73 A 26
73 A 27
73 A 28
73 A 29
73 A 30
73 A 31
73 A 32
73 A 33
73 A 34
73 A 35
73 A 36
73 A 37
73 A 38
73 A 39
73 A 40
73 A 41
73 A 42
73 A 43
73 A 44
73 A 45
73 A 46
73 A 47
73 A 48
73 A 49
73 A 50
73 A 51
73 A 52
73 A 53
73 A 54
73 A 55
73 A 56
73 A 57
73 A 58
73 A 59
73 A 60
73 A 61
73 A 62
73 A 63
73 A 64
73 A 65
73 A 66
73 A 67
73 A 68
73 A 69
73 A 70
73 A 71
73 A 72
73 A 73
73 A 74
73 A 75
73 A 76
73 A 77
73 A 78
73 A 79
73 A 80
73 A 81
73 A 82
73 A 83
73 A 84
73 A 85
73 A 86
73 A 87
73 A 88
73 A 89
73 A 90
73 A 91
73 A 92
73 A 93
73 A 94
73 A 95
73 A 96
73 A 97
73 A 98
73 A 99
73 A 100
74 A 1
74 A 2
74 A 3
74 A 4
74 A 5
74 A 6
74 A 7
74 A 8
74 A 9
74 A 10
74 A 11
74 A 12
74 A 13
74 A 14
74 A 15
74 A 16
74 A 17
74 A 18
74 A 19
74 A 20
74 A 21
74 A 22
74 A 23
74 A 24
74 A 25
74 A 26
74 A 27
74 A 28
74 A 29
74 A 30
74 A 31
74 A 32
74 A 33
74 A 34
74 A 35
74 A 36
74 A 37
74 A 38
74 A 39
74 A 40
74 A 41
74 A 42
74 A 43
74 A 44
74 A 45
74 A 46
74 A 47
74 A 48
74 A 49
74 A 50
74 A 51
74 A 52
74 A 53
74 A 54
74 A 55
74 A 56
74 A 57
74 A 58
74 A 59
74 A 60
74 A 61
74 A 62
74 A 63
74 A 64
74 A 65
74 A 66
74 A 67
74 A 68
74 A 69
74 A 70
74 A 71
74 A 72
74 A 73
74 A 74
74 A 75
74 A 76
74 A 77
74 A 78
74 A 79
74 A 80
74 A 81
74 A 82
74 A 83
74 A 84
74 A 85
74 A 86
74 A 87
74 A 88
74 A 89
74 A 90
74 A 91
74 A 92
74 A 93
74 A 94
74 A 95
74 A 96
74 A 97
74 A 98
74 A 99
74 A 100
75 A 1
75 A 2
75 A 3
75 A 4
75 A 5
75 A 6
75 A 7
75 A 8
75 A 9
75 A 10
75 A 11
75 A 12
75 A 13
75 A 14
75 A 15
75 A 16
75 A 17
75 A 18
75 A 19
75 A 20
75 A 21
75 A 22
75 A 23
75 A 24
75 A 25
75 A 26
75 A 27
75 A 28
75 A 29
75 A 30
75 A 31
75 A 32
75 A 33
75 A 34
75 A 35
75 A 36
75 A 37
75 A 38
75 A 39
75 A 40
75 A 41
75 A 42
75 A 43
75 A 44
75 A 45
75 A 46
75 A 47
75 A 48
75 A 49
75 A 50
75 A 51
75 A 52
75 A 53
75 A 54
75 A 55
75 A 56
75 A 57
75 A 58
75 A 59
75 A 60
75 A 61
75 A 62
75 A 63
75 A 64
75 A 65
75 A 66
75 A 67
75 A 68
75 A 69
75 A 70
75 A 71
75 A 72
75 A 73
75 A 74
75 A 75
75 A 76
75 A 77
75 A 78
75 A 79
75 A 80
75 A 81
75 A 82
75 A 83
75 A 84
75 A 85
75 A 86
75 A 87
75 A 88
75 A 89
75 A 90
75 A 91
75 A 92
75 A 93
75 A 94
75 A 95
75 A 96
75 A 97
75 A 98
75 A 99
75 A 100
76 A 1
76 A 2
76 A 3
76 A 4
76 A 5
76 A 6
76 A 7
76 A 8
76 A 9
76 A 10
76 A 11
76 A 12
76 A 13
76 A 14
76 A 15
76 A 16
76 A 17
76 A 18
76 A 19
76 A 20
76 A 21
76 A 22
76 A 23
76 A 24
76 A 25
76 A 26
76 A 27
76 A 28
76 A 29
76 A 30
76 A 31
76 A 32
76 A 33
76 A 34
76 A 35
76 A 36
76 A 37
76 A 38
76 A 39
76 A 40
76 A 41
76 A 42
76 A 43
76 A 44
76 A 45
76 A 46
76 A 47
76 A 48
76 A 49
76 A 50
76 A 51
76 A 52
76 A 53
76 A 54
76 A 55
76 A 56
76 A 57
76 A 58
76 A 59
76 A 60
76 A 61
76 A 62
76 A 63
76 A 64
76 A 65
76 A 66
76 A 67
76 A 68
76 A 69
76 A 70
76 A 71
76 A 72
76 A 73
76 A 74
76 A 75
76 A 76
76 A 77
76 A 78
76 A 79
76 A 80
76 A 81
76 A 82
76 A 83
76 A 84
76 A 85
76 A 86
76 A 87
76 A 88
76 A 89
76 A 90
76 A 91
76 A 92
76 A 93
76 A 94
76 A 95
76 A 96
76 A 97
76 A 98
76 A 99
76 A 100
77 A 1
77 A 2
77 A 3
77 A 4
77 A 5
77 A 6
77 A 7
77 A 8
77 A 9
77 A 10
77 A 11
77 A 12
77 A 13
77 A 14
77 A 15
77 A 16
77 A 17
77 A 18
77 A 19
77 A 20
77 A 21
77 A 22
77 A 23
77 A 24
77 A 25
77 A 26
77 A 27
77 A 28
77 A 29
77 A 30
77 A 31
77 A 32
77 A 33
77 A 34
77 A 35
77 A 36
77 A 37
77 A 38
77 A 39
77 A 40
77 A 41
77 A 42
77 A 43
77 A 44
77 A 45
77 A 46
77 A 47
77 A 48
77 A 49
77 A 50
77 A 51
77 A 52
77 A 53
77 A 54
77 A 55
77 A 56
77 A 57
77 A 58
77 A 59
77 A 60
77 A 61
77 A 62
77 A 63
77 A 64
77 A 65
77 A 66
77 A 67
77 A 68
77 A 69
77 A 70
77 A 71
77 A 72
77 A 73
77 A 74
77 A 75
77 A 76
77 A 77
77 A 78
77 A 79
77 A 80
77 A 81
77 A 82
77 A 83
77 A 84
77 A 85
77 A 86
77 A 87
77 A 88
77 A 89
77 A 90
77 A 91
77 A 92
77 A 93
77 A 94
77 A 95
77 A 96
77 A 97
77 A 98
77 A 99
77 A 100
78 A 1
78 A 2
78 A 3
78 A 4
78 A 5
78 A 6
78 A 7
78 A 8
78 A 9
78 A 10
78 A 11
78 A 12
78 A 13
78 A 14
78 A 15
78 A 16
78 A 17
78 A 18
78 A 19
78 A 20
78 A 21
78 A 22
78 A 23
78 A 24
78 A 25
78 A 26
78 A 27
78 A 28
78 A 29
78 A 30
78 A 31
78 A 32
78 A 33
78 A 34
78 A 35
78 A 36
78 A 37
78 A 38
78 A 39
78 A 40
78 A 41
78 A 42
78 A 43
78 A 44
78 A 45
78 A 46
78 A 47
78 A 48
78 A 49
78 A 50
78 A 51
78 A 52
78 A 53
78 A 54
78 A 55
78 A 56
78 A 57
78 A 58
78 A 59
78 A 60
78 A 61
78 A 62
78 A 63
78 A 64
78 A 65
78 A 66
78 A 67
78 A 68
78 A 69
78 A 70
78 A 71
78 A 72
78 A 73
78 A 74
78 A 75
78 A 76
78 A 77
78 A 78
78 A 79
78 A 80
78 A 81
78 A 82
78 A 83
78 A 84
78 A 85
78 A 86
78 A 87
78 A 88
78 A 89
78 A 90
78 A 91
78 A 92
78 A 93
78 A 94
78 A 95
78 A 96
78 A 97
78 A 98
78 A 99
78 A 100
79 A 1
79 A 2
79 A 3
79 A 4
79 A 5
79 A 6
79 A 7
79 A 8
79 A 9
79 A 10
79 A 11
79 A 12
79 A 13
79 A 14
79 A 15
79 A 16
79 A 17
79 A 18
79 A 19
79 A 20
79 A 21
79 A 22
79 A 23
79 A 24
79 A 25
79 A 26
79 A 27
79 A 28
79 A 29
79 A 30
79 A 31
79 A 32
79 A 33
79 A 34
79 A 35
79 A 36
79 A 37
79 A 38
79 A 39
79 A 40
79 A 41
79 A 42
79 A 43
79 A 44
79 A 45
79 A 46
79 A 47
79 A 48
79 A 49
79 A 50
79 A 51
79 A 52
79 A 53
79 A 54
79 A 55
79 A 56
79 A 57
79 A 58
79 A 59
79 A 60
79 A 61
79 A 62
79 A 63
79 A 64
79 A 65
79 A 66
79 A 67
79 A 68
79 A 69
79 A 70
79 A 71
79 A 72
79 A 73
79 A 74
79 A 75
79 A 76
79 A 77
79 A 78
79 A 79
79 A 80
79 A 81
79 A 82
79 A 83
79 A 84
79 A 85
79 A 86
79 A 87
79 A 88
79 A 89
79 A 90
79 A 91
79 A 92
79 A 93
79 A 94
79 A 95
79 A 96
79 A 97
79 A 98
79 A 99
79 A 100
80 A 1
80 A 2
80 A 3
80 A 4
80 A 5
80 A 6
80 A 7
80 A 8
80 A 9
80 A 10
80 A 11
80 A 12
80 A 13
80 A 14
80 A 15
80 A 16
80 A 17
80 A 18
80 A 19
80 A 20
80 A 21
80 A 22
80 A 23
80 A 24
80 A 25
80 A 26
80 A 27
80 A 28
80 A 29
80 A 30
80 A 31
80 A 32
80 A 33
80 A 34
80 A 35
80 A 36
80 A 37
80 A 38
80 A 39
80 A 40
80 A 41
80 A 42
80 A 43
80 A 44
80 A 45
80 A 46
80 A 47
80 A 48
80 A 49
80 A 50
80 A 51
80 A 52
80 A 53
80 A 54
80 A 55
80 A 56
80 A 57
80 A 58
80 A 59
80 A 60
80 A 61
80 A 62
80 A 63
80 A 64
80 A 65
80 A 66
80 A 67
80 A 68
80 A 69
80 A 70
80 A 71
80 A 72
80 A 73
80 A 74
80 A 75
80 A 76
80 A 77
80 A 78
80 A 79
80 A 80
80 A 81
80 A 82
80 A 83
80 A 84
80 A 85
80 A 86
80 A 87
80 A 88
80 A 89
80 A 90
80 A 91
80 A 92
80 A 93
80 A 94
80 A 95
80 A 96
80 A 97
80 A 98
80 A 99
80 A 100
81 A 1
81 A 2
81 A 3
81 A 4
81 A 5
81 A 6
81 A 7
81 A 8
81 A 9
81 A 10
81 A 11
81 A 12
81 A 13
81 A 14
81 A 15
81 A 16
81 A 17
81 A 18
81 A 19
81 A 20
81 A 21
81 A 22
81 A 23
81 A 24
81 A 25
81 A 26
81 A 27
81 A 28
81 A 29
81 A 30
81 A 31
81 A 32
81 A 33
81 A 34
81 A 35
81 A 36
81 A 37
81 A 38
81 A 39
81 A 40
81 A 41
81 A 42
81 A 43
81 A 44
81 A 45
81 A 46
81 A 47
81 A 48
81 A 49
81 A 50
81 A 51
81 A 52
81 A 53
81 A 54
81 A 55
81 A 56
81 A 57
81 A 58
81 A 59
81 A 60
81 A 61
81 A 62
81 A 63
81 A 64
81 A 65
81 A 66
81 A 67
81 A 68
81 A 69
81 A 70
81 A 71
81 A 72
81 A 73
81 A 74
81 A 75
81 A 76
81 A 77
81 A 78
81 A 79
81 A 80
81 A 81
81 A 82
81 A 83
81 A 84
81 A 85
81 A 86
81 A 87
81 A 88
81 A 89
81 A 90
81 A 91
81 A 92
81 A 93
81 A 94
81 A 95
81 A 96
81 A 97
81 A 98
81 A 99
81 A 100
82 A 1
82 A 2
82 A 3
82 A 4
82 A 5
82 A 6
82 A 7
82 A 8
82 A 9
82 A 10
82 A 11
82 A 12
82 A 13
82 A 14
82 A 15
82 A 16
82 A 17
82 A 18
82 A 19
82 A 20
82 A 21
82 A 22
82 A 23
82 A 24
82 A 25
82 A 26
82 A 27
82 A 28
82 A 29
82 A 30
82 A 31
82 A 32
82 A 33
82 A 34
82 A 35
82 A 36
82 A 37
82 A 38
82 A 39
82 A 40
82 A 41
82 A 42
82 A 43
82 A 44
82 A 45
82 A 46
82 A 47
82 A 48
82 A 49
82 A 50
82 A 51
82 A 52
82 A 53
82 A 54
82 A 55
82 A 56
82 A 57
82 A 58
82 A 59
82 A 60
82 A 61
82 A 62
82 A 63
82 A 64
82 A 65
82 A 66
82 A 67
82 A 68
82 A 69
82 A 70
82 A 71
82 A 72
82 A 73
82 A 74
82 A 75
82 A 76
82 A 77
82 A 78
82 A 79
82 A 80
82 A 81
82 A 82
82 A 83
82 A 84
82 A 85
82 A 86
82 A 87
82 A 88
82 A 89
82 A 90
82 A 91
82 A 92
82 A 93
82 A 94
82 A 95
82 A 96
82 A 97
82 A 98
82 A 99
82 A 100
83 A 1
83 A 2
83 A 3
83 A 4
83 A 5
83 A 6
83 A 7
83 A 8
83 A 9
83 A 10
83 A 11
83 A 12
83 A 13
83 A 14
83 A 15
83 A 16
83 A 17
83 A 18
83 A 19
83 A 20
83 A 21
83 A 22
83 A 23
83 A 24
83 A 25
83 A 26
83 A 27
83 A 28
83 A 29
83 A 30
83 A 31
83 A 32
83 A 33
83 A 34
83 A 35
83 A 36
83 A 37
83 A 38
83 A 39
83 A 40
83 A 41
83 A 42
83 A 43
83 A 44
83 A 45
83 A 46
83 A 47
83 A 48
83 A 49
83 A 50
83 A 51
83 A 52
83 A 53
83 A 54
83 A 55
83 A 56
83 A 57
83 A 58
83 A 59
83 A 60
83 A 61
83 A 62
83 A 63
83 A 64
83 A 65
83 A 66
83 A 67
83 A 68
83 A 69
83 A 70
83 A 71
83 A 72
83 A 73
83 A 74
83 A 75
83 A 76
83 A 77
83 A 78
83 A 79
83 A 80
83 A 81
83 A 82
83 A 83
83 A 84
83 A 85
83 A 86
83 A 87
83 A 88
83 A 89
83 A 90
83 A 91
83 A 92
83 A 93
83 A 94
83 A 95
83 A 96
83 A 97
83 A 98
83 A 99
83 A 100
84 A 1
84 A 2
84 A 3
84 A 4
84 A 5
84 A 6
84 A 7
84 A 8
84 A 9
84 A 10
84 A 11
84 A 12
84 A 13
84 A 14
84 A 15
84 A 16
84 A 17
84 A 18
84 A 19
84 A 20
84 A 21
84 A 22
84 A 23
84 A 24
84 A 25
84 A 26
84 A 27
84 A 28
84 A 29
84 A 30
84 A 31
84 A 32
84 A 33
84 A 34
84 A 35
84 A 36
84 A 37
84 A 38
84 A 39
84 A 40
84 A 41
84 A 42
84 A 43
84 A 44
84 A 45
84 A 46
84 A 47
84 A 48
84 A 49
84 A 50
84 A 51
84 A 52
84 A 53
84 A 54
84 A 55
84 A 56
84 A 57
84 A 58
84 A 59
84 A 60
84 A 61
84 A 62
84 A 63
84 A 64
84 A 65
84 A 66
84 A 67
84 A 68
84 A 69
84 A 70
84 A 71
84 A 72
84 A 73
84 A 74
84 A 75
84 A 76
84 A 77
84 A 78
84 A 79
84 A 80
84 A 81
84 A 82
84 A 83
84 A 84
84 A 85
84 A 86
84 A 87
84 A 88
84 A 89
84 A 90
84 A 91
84 A 92
84 A 93
84 A 94
84 A 95
84 A 96
84 A 97
84 A 98
84 A 99
84 A 100
85 A 1
85 A 2
85 A 3
85 A 4
85 A 5
85 A 6
85 A 7
85 A 8
85 A 9
85 A 10
85 A 11
85 A 12
85 A 13
85 A 14
85 A 15
85 A 16
85 A 17
85 A 18
85 A 19
85 A 20
85 A 21
85 A 22
85 A 23
85 A 24
85 A 25
85 A 26
85 A 27
85 A 28
85 A 29
85 A 30
85 A 31
85 A 32
85 A 33
85 A 34
85 A 35
85 A 36
85 A 37
85 A 38
85 A 39
85 A 40
85 A 41
85 A 42
85 A 43
85 A 44
85 A 45
85 A 46
85 A 47
85 A 48
85 A 49
85 A 50
85 A 51
85 A 52
85 A 53
85 A 54
85 A 55
85 A 56
85 A 57
85 A 58
85 A 59
85 A 60
85 A 61
85 A 62
85 A 63
85 A 64
85 A 65
85 A 66
85 A 67
85 A 68
85 A 69
85 A 70
85 A 71
85 A 72
85 A 73
85 A 74
85 A 75
85 A 76
85 A 77
85 A 78
85 A 79
85 A 80
85 A 81
85 A 82
85 A 83
85 A 84
85 A 85
85 A 86
85 A 87
85 A 88
85 A 89
85 A 90
85 A 91
85 A 92
85 A 93
85 A 94
85 A 95
85 A 96
85 A 97
85 A 98
85 A 99
85 A 100
86 A 1
86 A 2
86 A 3
86 A 4
86 A 5
86 A 6
86 A 7
86 A 8
86 A 9
86 A 10
86 A 11
86 A 12
86 A 13
86 A 14
86 A 15
86 A 16
86 A 17
86 A 18
86 A 19
86 A 20
86 A 21
86 A 22
86 A 23
86 A 24
86 A 25
86 A 26
86 A 27
86 A 28
86 A 29
86 A 30
86 A 31
86 A 32
86 A 33
86 A 34
86 A 35
86 A 36
86 A 37
86 A 38
86 A 39
86 A 40
86 A 41
86 A 42
86 A 43
86 A 44
86 A 45
86 A 46
86 A 47
86 A 48
86 A 49
86 A 50
86 A 51
86 A 52
86 A 53
86 A 54
86 A 55
86 A 56
86 A 57
86 A 58
86 A 59
86 A 60
86 A 61
86 A 62
86 A 63
86 A 64
86 A 65
86 A 66
86 A 67
86 A 68
86 A 69
86 A 70
86 A 71
86 A 72
86 A 73
86 A 74
86 A 75
86 A 76
86 A 77
86 A 78
86 A 79
86 A 80
86 A 81
86 A 82
86 A 83
86 A 84
86 A 85
86 A 86
86 A 87
86 A 88
86 A 89
86 A 90
86 A 91
86 A 92
86 A 93
86 A 94
86 A 95
86 A 96
86 A 97
86 A 98
86 A 99
86 A 100
87 A 1
87 A 2
87 A 3
87 A 4
87 A 5
87 A 6
87 A 7
87 A 8
87 A 9
87 A 10
87 A 11
87 A 12
87 A 13
87 A 14
87 A 15
87 A 16
87 A 17
87 A 18
87 A 19
87 A 20
87 A 21
87 A 22
87 A 23
87 A 24
87 A 25
87 A 26
87 A 27
87 A 28
87 A 29
87 A 30
87 A 31
87 A 32
87 A 33
87 A 34
87 A 35
87 A 36
87 A 37
87 A 38
87 A 39
87 A 40
87 A 41
87 A 42
87 A 43
87 A 44
87 A 45
87 A 46
87 A 47
87 A 48
87 A 49
87 A 50
87 A 51
87 A 52
87 A 53
87 A 54
87 A 55
87 A 56
87 A 57
87 A 58
87 A 59
87 A 60
87 A 61
87 A 62
87 A 63
87 A 64
87 A 65
87 A 66
87 A 67
87 A 68
87 A 69
87 A 70
87 A 71
87 A 72
87 A 73
87 A 74
87 A 75
87 A 76
87 A 77
87 A 78
87 A 79
87 A 80
87 A 81
87 A 82
87 A 83
87 A 84
87 A 85
87 A 86
87 A 87
87 A 88
87 A 89
87 A 90
87 A 91
87 A 92
87 A 93
87 A 94
87 A 95
87 A 96
87 A 97
87 A 98
87 A 99
87 A 100
88 A 1
88 A 2
88 A 3
88 A 4
88 A 5
88 A 6
88 A 7
88 A 8
88 A 9
88 A 10
88 A 11
88 A 12
88 A 13
88 A 14
88 A 15
88 A 16
88 A 17
88 A 18
88 A 19
88 A 20
88 A 21
88 A 22
88 A 23
88 A 24
88 A 25
88 A 26
88 A 27
88 A 28
88 A 29
88 A 30
88 A 31
88 A 32
88 A 33
88 A 34
88 A 35
88 A 36
88 A 37
88 A 38
88 A 39
88 A 40
88 A 41
88 A 42
88 A 43
88 A 44
88 A 45
88 A 46
88 A 47
88 A 48
88 A 49
88 A 50
88 A 51
88 A 52
88 A 53
88 A 54
88 A 55
88 A 56
88 A 57
88 A 58
88 A 59
88 A 60
88 A 61
88 A 62
88 A 63
88 A 64
88 A 65
88 A 66
88 A 67
88 A 68
88 A 69
88 A 70
88 A 71
88 A 72
88 A 73
88 A 74
88 A 75
88 A 76
88 A 77
88 A 78
88 A 79
88 A 80
88 A 81
88 A 82
88 A 83
88 A 84
88 A 85
88 A 86
88 A 87
88 A 88
88 A 89
88 A 90
88 A 91
88 A 92
88 A 93
88 A 94
88 A 95
88 A 96
88 A 97
88 A 98
88 A 99
88 A 100
89 A 1
89 A 2
89 A 3
89 A 4
89 A 5
89 A 6
89 A 7
89 A 8
89 A 9
89 A 10
89 A 11
89 A 12
89 A 13
89 A 14
89 A 15
89 A 16
89 A 17
89 A 18
89 A 19
89 A 20
89 A 21
89 A 22
89 A 23
89 A 24
89 A 25
89 A 26
89 A 27
89 A 28
89 A 29
89 A 30
89 A 31
89 A 32
89 A 33
89 A 34
89 A 35
89 A 36
89 A 37
89 A 38
89 A 39
89 A 40
89 A 41
89 A 42
89 A 43
89 A 44
89 A 45
89 A 46
89 A 47
89 A 48
89 A 49
89 A 50
89 A 51
89 A 52
89 A 53
89 A 54
89 A 55
89 A 56
89 A 57
89 A 58
89 A 59
89 A 60
89 A 61
89 A 62
89 A 63
89 A 64
89 A 65
89 A 66
89 A 67
89 A 68
89 A 69
89 A 70
89 A 71
89 A 72
89 A 73
89 A 74
89 A 75
89 A 76
89 A 77
89 A 78
89 A 79
89 A 80
89 A 81
89 A 82
89 A 83
89 A 84
89 A 85
89 A 86
89 A 87
89 A 88
89 A 89
89 A 90
89 A 91
89 A 92
89 A 93
89 A 94
89 A 95
89 A 96
89 A 97
89 A 98
89 A 99
89 A 100
90 A 1
90 A 2
90 A 3
90 A 4
90 A 5
90 A 6
90 A 7
90 A 8
90 A 9
90 A 10
90 A 11
90 A 12
90 A 13
90 A 14
90 A 15
90 A 16
90 A 17
90 A 18
90 A 19
90 A 20
90 A 21
90 A 22
90 A 23
90 A 24
90 A 25
90 A 26
90 A 27
90 A 28
90 A 29
90 A 30
90 A 31
90 A 32
90 A 33
90 A 34
90 A 35
90 A 36
90 A 37
90 A 38
90 A 39
90 A 40
90 A 41
90 A 42
90 A 43
90 A 44
90 A 45
90 A 46
90 A 47
90 A 48
90 A 49
90 A 50
90 A 51
90 A 52
90 A 53
90 A 54
90 A 55
90 A 56
90 A 57
90 A 58
90 A 59
90 A 60
90 A 61
90 A 62
90 A 63
90 A 64
90 A 65
90 A 66
90 A 67
90 A 68
90 A 69
90 A 70
90 A 71
90 A 72
90 A 73
90 A 74
90 A 75
90 A 76
90 A 77
90 A 78
90 A 79
90 A 80
90 A 81
90 A 82
90 A 83
90 A 84
90 A 85
90 A 86
90 A 87
90 A 88
90 A 89
90 A 90
90 A 91
90 A 92
90 A 93
90 A 94
90 A 95
90 A 96
90 A 97
90 A 98
90 A 99
90 A 100
91 A 1
91 A 2
91 A 3
91 A 4
91 A 5
91 A 6
91 A 7
91 A 8
91 A 9
91 A 10
91 A 11
91 A 12
91 A 13
91 A 14
91 A 15
91 A 16
91 A 17
91 A 18
91 A 19
91 A 20
91 A 21
91 A 22
91 A 23
91 A 24
91 A 25
91 A 26
91 A 27
91 A 28
91 A 29
91 A 30
91 A 31
91 A 32
91 A 33
91 A 34
91 A 35
91 A 36
91 A 37
91 A 38
91 A 39
91 A 40
91 A 41
91 A 42
91 A 43
91 A 44
91 A 45
91 A 46
91 A 47
91 A 48
91 A 49
91 A 50
91 A 51
91 A 52
91 A 53
91 A 54
91 A 55
91 A 56
91 A 57
91 A 58
91 A 59
91 A 60
91 A 61
91 A 62
91 A 63
91 A 64
91 A 65
91 A 66
91 A 67
91 A 68
91 A 69
91 A 70
91 A 71
91 A 72
91 A 73
91 A 74
91 A 75
91 A 76
91 A 77
91 A 78
91 A 79
91 A 80
91 A 81
91 A 82
91 A 83
91 A 84
91 A 85
91 A 86
91 A 87
91 A 88
91 A 89
91 A 90
91 A 91
91 A 92
91 A 93
91 A 94
91 A 95
91 A 96
91 A 97
91 A 98
91 A 99
91 A 100
92 A 1
92 A 2
92 A 3
92 A 4
92 A 5
92 A 6
92 A 7
92 A 8
92 A 9
92 A 10
92 A 11
92 A 12
92 A 13
92 A 14
92 A 15
92 A 16
92 A 17
92 A 18
92 A 19
92 A 20
92 A 21
92 A 22
92 A 23
92 A 24
92 A 25
92 A 26
92 A 27
92 A 28
92 A 29
92 A 30
92 A 31
92 A 32
92 A 33
92 A 34
92 A 35
92 A 36
92 A 37
92 A 38
92 A 39
92 A 40
92 A 41
92 A 42
92 A 43
92 A 44
92 A 45
92 A 46
92 A 47
92 A 48
92 A 49
92 A 50
92 A 51
92 A 52
92 A 53
92 A 54
92 A 55
92 A 56
92 A 57
92 A 58
92 A 59
92 A 60
92 A 61
92 A 62
92 A 63
92 A 64
92 A 65
92 A 66
92 A 67
92 A 68
92 A 69
92 A 70
92 A 71
92 A 72
92 A 73
92 A 74
92 A 75
92 A 76
92 A 77
92 A 78
92 A 79
92 A 80
92 A 81
92 A 82
92 A 83
92 A 84
92 A 85
92 A 86
92 A 87
92 A 88
92 A 89
92 A 90
92 A 91
92 A 92
92 A 93
92 A 94
92 A 95
92 A 96
92 A 97
92 A 98
92 A 99
92 A 100
93 A 1
93 A 2
93 A 3
93 A 4
93 A 5
93 A 6
93 A 7
93 A 8
93 A 9
93 A 10
93 A 11
93 A 12
93 A 13
93 A 14
93 A 15
93 A 16
93 A 17
93 A 18
93 A 19
93 A 20
93 A 21
93 A 22
93 A 23
93 A 24
93 A 25
93 A 26
93 A 27
93 A 28
93 A 29
93 A 30
93 A 31
93 A 32
93 A 33
93 A 34
93 A 35
93 A 36
93 A 37
93 A 38
93 A 39
93 A 40
93 A 41
93 A 42
93 A 43
93 A 44
93 A 45
93 A 46
93 A 47
93 A 48
93 A 49
93 A 50
93 A 51
93 A 52
93 A 53
93 A 54
93 A 55
93 A 56
93 A 57
93 A 58
93 A 59
93 A 60
93 A 61
93 A 62
93 A 63
93 A 64
93 A 65
93 A 66
93 A 67
93 A 68
93 A 69
93 A 70
93 A 71
93 A 72
93 A 73
93 A 74
93 A 75
93 A 76
93 A 77
93 A 78
93 A 79
93 A 80
93 A 81
93 A 82
93 A 83
93 A 84
93 A 85
93 A 86
93 A 87
93 A 88
93 A 89
93 A 90
93 A 91
93 A 92
93 A 93
93 A 94
93 A 95
93 A 96
93 A 97
93 A 98
93 A 99
93 A 100
94 A 1
94 A 2
94 A 3
94 A 4
94 A 5
94 A 6
94 A 7
94 A 8
94 A 9
94 A 10
94 A 11
94 A 12
94 A 13
94 A 14
94 A 15
94 A 16
94 A 17
94 A 18
94 A 19
94 A 20
94 A 21
94 A 22
94 A 23
94 A 24
94 A 25
94 A 26
94 A 27
94 A 28
94 A 29
94 A 30
94 A 31
94 A 32
94 A 33
94 A 34
94 A 35
94 A 36
94 A 37
94 A 38
94 A 39
94 A 40
94 A 41
94 A 42
94 A 43
94 A 44
94 A 45
94 A 46
94 A 47
94 A 48
94 A 49
94 A 50
94 A 51
94 A 52
94 A 53
94 A 54
94 A 55
94 A 56
94 A 57
94 A 58
94 A 59
94 A 60
94 A 61
94 A 62
94 A 63
94 A 64
94 A 65
94 A 66
94 A 67
94 A 68
94 A 69
94 A 70
94 A 71
94 A 72
94 A 73
94 A 74
94 A 75
94 A 76
94 A 77
94 A 78
94 A 79
94 A 80
94 A 81
94 A 82
94 A 83
94 A 84
94 A 85
94 A 86
94 A 87
94 A 88
94 A 89
94 A 90
94 A 91
94 A 92
94 A 93
94 A 94
94 A 95
94 A 96
94 A 97
94 A 98
94 A 99
94 A 100
95 A 1
95 A 2
95 A 3
95 A 4
95 A 5
95 A 6
95 A 7
95 A 8
95 A 9
95 A 10
95 A 11
95 A 12
95 A 13
95 A 14
95 A 15
95 A 16
95 A 17
95 A 18
95 A 19
95 A 20
95 A 21
95 A 22
95 A 23
95 A 24
95 A 25
95 A 26
95 A 27
95 A 28
95 A 29
95 A 30
95 A 31
95 A 32
95 A 33
95 A 34
95 A 35
95 A 36
95 A 37
95 A 38
95 A 39
95 A 40
95 A 41
95 A 42
95 A 43
95 A 44
95 A 45
95 A 46
95 A 47
95 A 48
95 A 49
95 A 50
95 A 51
95 A 52
95 A 53
95 A 54
95 A 55
95 A 56
95 A 57
95 A 58
95 A 59
95 A 60
95 A 61
95 A 62
95 A 63
95 A 64
95 A 65
95 A 66
95 A 67
95 A 68
95 A 69
95 A 70
95 A 71
95 A 72
95 A 73
95 A 74
95 A 75
95 A 76
95 A 77
95 A 78
95 A 79
95 A 80
95 A 81
95 A 82
95 A 83
95 A 84
95 A 85
95 A 86
95 A 87
95 A 88
95 A 89
95 A 90
95 A 91
95 A 92
95 A 93
95 A 94
95 A 95
95 A 96
95 A 97
95 A 98
95 A 99
95 A 100
96 A 1
96 A 2
96 A 3
96 A 4
96 A 5
96 A 6
96 A 7
96 A 8
96 A 9
96 A 10
96 A 11
96 A 12
96 A 13
96 A 14
96 A 15
96 A 16
96 A 17
96 A 18
96 A 19
96 A 20
96 A 21
96 A 22
96 A 23
96 A 24
96 A 25
96 A 26
96 A 27
96 A 28
96 A 29
96 A 30
96 A 31
96 A 32
96 A 33
96 A 34
96 A 35
96 A 36
96 A 37
96 A 38
96 A 39
96 A 40
96 A 41
96 A 42
96 A 43
96 A 44
96 A 45
96 A 46
96 A 47
96 A 48
96 A 49
96 A 50
96 A 51
96 A 52
96 A 53
96 A 54
96 A 55
96 A 56
96 A 57
96 A 58
96 A 59
96 A 60
96 A 61
96 A 62
96 A 63
96 A 64
96 A 65
96 A 66
96 A 67
96 A 68
96 A 69
96 A 70
96 A 71
96 A 72
96 A 73
96 A 74
96 A 75
96 A 76
96 A 77
96 A 78
96 A 79
96 A 80
96 A 81
96 A 82
96 A 83
96 A 84
96 A 85
96 A 86
96 A 87
96 A 88
96 A 89
96 A 90
96 A 91
96 A 92
96 A 93
96 A 94
96 A 95
96 A 96
96 A 97
96 A 98
96 A 99
96 A 100
97 A 1
97 A 2
97 A 3
97 A 4
97 A 5
97 A 6
97 A 7
97 A 8
97 A 9
97 A 10
97 A 11
97 A 12
97 A 13
97 A 14
97 A 15
97 A 16
97 A 17
97 A 18
97 A 19
97 A 20
97 A 21
97 A 22
97 A 23
97 A 24
97 A 25
97 A 26
97 A 27
97 A 28
97 A 29
97 A 30
97 A 31
97 A 32
97 A 33
97 A 34
97 A 35
97 A 36
97 A 37
97 A 38
97 A 39
97 A 40
97 A 41
97 A 42
97 A 43
97 A 44
97 A 45
97 A 46
97 A 47
97 A 48
97 A 49
97 A 50
97 A 51
97 A 52
97 A 53
97 A 54
97 A 55
97 A 56
97 A 57
97 A 58
97 A 59
97 A 60
97 A 61
97 A 62
97 A 63
97 A 64
97 A 65
97 A 66
97 A 67
97 A 68
97 A 69
97 A 70
97 A 71
97 A 72
97 A 73
97 A 74
97 A 75
97 A 76
97 A 77
97 A 78
97 A 79
97 A 80
97 A 81
97 A 82
97 A 83
97 A 84
97 A 85
97 A 86
97 A 87
97 A 88
97 A 89
97 A 90
97 A 91
97 A 92
97 A 93
97 A 94
97 A 95
97 A 96
97 A 97
97 A 98
97 A 99
97 A 100
98 A 1
98 A 2
98 A 3
98 A 4
98 A 5
98 A 6
98 A 7
98 A 8
98 A 9
98 A 10
98 A 11
98 A 12
98 A 13
98 A 14
98 A 15
98 A 16
98 A 17
98 A 18
98 A 19
98 A 20
98 A 21
98 A 22
98 A 23
98 A 24
98 A 25
98 A 26
98 A 27
98 A 28
98 A 29
98 A 30
98 A 31
98 A 32
98 A 33
98 A 34
98 A 35
98 A 36
98 A 37
98 A 38
98 A 39
98 A 40
98 A 41
98 A 42
98 A 43
98 A 44
98 A 45
98 A 46
98 A 47
98 A 48
98 A 49
98 A 50
98 A 51
98 A 52
98 A 53
98 A 54
98 A 55
98 A 56
98 A 57
98 A 58
98 A 59
98 A 60
98 A 61
98 A 62
98 A 63
98 A 64
98 A 65
98 A 66
98 A 67
98 A 68
98 A 69
98 A 70
98 A 71
98 A 72
98 A 73
98 A 74
98 A 75
98 A 76
98 A 77
98 A 78
98 A 79
98 A 80
98 A 81
98 A 82
98 A 83
98 A 84
98 A 85
98 A 86
98 A 87
98 A 88
98 A 89
98 A 90
98 A 91
98 A 92
98 A 93
98 A 94
98 A 95
98 A 96
98 A 97
98 A 98
98 A 99
98 A 100
99 A 1
99 A 2
99 A 3
99 A 4
99 A 5
99 A 6
99 A 7
99 A 8
99 A 9
99 A 10
99 A 11
99 A 12
99 A 13
99 A 14
99 A 15
99 A 16
99 A 17
99 A 18
99 A 19
99 A 20
99 A 21
99 A 22
99 A 23
99 A 24
99 A 25
99 A 26
99 A 27
99 A 28
99 A 29
99 A 30
99 A 31
99 A 32
99 A 33
99 A 34
99 A 35
99 A 36
99 A 37
99 A 38
99 A 39
99 A 40
99 A 41
99 A 42
99 A 43
99 A 44
99 A 45
99 A 46
99 A 47
99 A 48
99 A 49
99 A 50
99 A 51
99 A 52
99 A 53
99 A 54
99 A 55
99 A 56
99 A 57
99 A 58
99 A 59
99 A 60
99 A 61
99 A 62
99 A 63
99 A 64
99 A 65
99 A 66
99 A 67
99 A 68
99 A 69
99 A 70
99 A 71
99 A 72
99 A 73
99 A 74
99 A 75
99 A 76
99 A 77
99 A 78
99 A 79
99 A 80
99 A 81
99 A 82
99 A 83
99 A 84
99 A 85
99 A 86
99 A 87
99 A 88
99 A 89
99 A 90
99 A 91
99 A 92
99 A 93
99 A 94
99 A 95
99 A 96
99 A 97
99 A 98
99 A 99
99 A 100
100 A 1
100 A 2
100 A 3
100 A 4
100 A 5
100 A 6
100 A 7
100 A 8
100 A 9
100 A 10
100 A 11
100 A 12
100 A 13
100 A 14
100 A 15
100 A 16
100 A 17
100 A 18
100 A 19
100 A 20
100 A 21
100 A 22
100 A 23
100 A 24
100 A 25
100 A 26
100 A 27
100 A 28
100 A 29
100 A 30
100 A 31
100 A 32
100 A 33
100 A 34
100 A 35
100 A 36
100 A 37
100 A 38
100 A 39
100 A 40
100 A 41
100 A 42
100 A 43
100 A 44
100 A 45
100 A 46
100 A 47
100 A 48
100 A 49
100 A 50
100 A 51
100 A 52
100 A 53
100 A 54
100 A 55
100 A 56
100 A 57
100 A 58
100 A 59
100 A 60
100 A 61
100 A 62
100 A 63
100 A 64
100 A 65
100 A 66
100 A 67
100 A 68
100 A 69
100 A 70
100 A 71
100 A 72
100 A 73
100 A 74
100 A 75
100 A 76
100 A 77
100 A 78
100 A 79
100 A 80
100 A 81
100 A 82
100 A 83
100 A 84
100 A 85
100 A 86
100 A 87
100 A 88
100 A 89
100 A 90
100 A 91
100 A 92
100 A 93
100 A 94
100 A 95
100 A 96
100 A 97
100 A 98
100 A 99
100 A 100
