1 A 2
2 A 3
3 A 4
4 A 5
5 A 6
6 A 7
7 A 8
8 A 9
9 A 10
10 A 11
11 A 12
12 A 13
13 A 14
14 A 15
15 A 16
16 A 17
17 A 18
18 A 19
19 A 20
20 A 21
21 A 22
22 A 23
23 A 24
24 A 25
25 A 26
26 A 27
27 A 28
28 A 29
29 A 30
30 A 31
31 A 32
32 A 33
33 A 34
34 A 35
35 A 36
36 A 37
37 A 38
38 A 39
39 A 40
40 A 41
41 A 42
42 A 43
43 A 44
44 A 45
45 A 46
46 A 47
47 A 48
48 A 49
49 A 50
50 A 51
51 A 52
52 A 53
53 A 54
54 A 55
55 A 56
56 A 57
57 A 58
58 A 59
59 A 60
60 A 61
61 A 62
62 A 63
63 A 64
64 A 65
65 A 66
66 A 67
67 A 68
68 A 69
69 A 70
70 A 71
71 A 72
72 A 73
73 A 74
74 A 75
75 A 76
76 A 77
77 A 78
78 A 79
79 A 80
80 A 81
81 A 82
82 A 83
83 A 84
84 A 85
85 A 86
86 A 87
87 A 88
88 A 89
89 A 90
90 A 91
91 A 92
92 A 93
93 A 94
94 A 95
95 A 96
96 A 97
97 A 98
98 A 99
99 A 100
100 A 101
101 A 102
102 A 103
103 A 104
104 A 105
105 A 106
106 A 107
107 A 108
108 A 109
109 A 110
110 A 111
111 A 112
112 A 113
113 A 114
114 A 115
115 A 116
116 A 117
117 A 118
118 A 119
119 A 120
120 A 121
121 A 122
122 A 123
123 A 124
124 A 125
125 A 126
126 A 127
127 A 128
128 A 129
129 A 130
130 A 131
131 A 132
132 A 133
133 A 134
134 A 135
135 A 136
136 A 137
137 A 138
138 A 139
139 A 140
140 A 141
141 A 142
142 A 143
143 A 144
144 A 145
145 A 146
146 A 147
147 A 148
148 A 149
149 A 150
150 A 151
151 A 152
152 A 153
153 A 154
154 A 155
155 A 156
156 A 157
157 A 158
158 A 159
159 A 160
160 A 161
161 A 162
162 A 163
163 A 164
164 A 165
165 A 166
166 A 167
167 A 168
168 A 169
169 A 170
170 A 171
171 A 172
172 A 173
173 A 174
174 A 175
175 A 176
176 A 177
177 A 178
178 A 179
179 A 180
180 A 181
181 A 182
182 A 183
183 A 184
184 A 185
185 A 186
186 A 187
187 A 188
188 A 189
189 A 190
190 A 191
191 A 192
192 A 193
193 A 194
194 A 195
195 A 196
196 A 197
197 A 198
198 A 199
199 A 200
200 A 201
201 A 202
202 A 203
203 A 204
204 A 205
205 A 206
206 A 207
207 A 208
208 A 209
209 A 210
210 A 211
211 A 212
212 A 213
213 A 214
214 A 215
215 A 216
216 A 217
217 A 218
218 A 219
219 A 220
220 A 221
221 A 222
222 A 223
223 A 224
224 A 225
225 A 226
226 A 227
227 A 228
228 A 229
229 A 230
230 A 231
231 A 232
232 A 233
233 A 234
234 A 235
235 A 236
236 A 237
237 A 238
238 A 239
239 A 240
240 A 241
241 A 242
242 A 243
243 A 244
244 A 245
245 A 246
246 A 247
247 A 248
248 A 249
249 A 250
250 A 251
251 A 252
252 A 253
253 A 254
254 A 255
255 A 256
256 A 257
257 A 258
258 A 259
259 A 260
260 A 261
261 A 262
262 A 263
263 A 264
264 A 265
265 A 266
266 A 267
267 A 268
268 A 269
269 A 270
270 A 271
271 A 272
272 A 273
273 A 274
274 A 275
275 A 276
276 A 277
277 A 278
278 A 279
279 A 280
280 A 281
281 A 282
282 A 283
283 A 284
284 A 285
285 A 286
286 A 287
287 A 288
288 A 289
289 A 290
290 A 291
291 A 292
292 A 293
293 A 294
294 A 295
295 A 296
296 A 297
297 A 298
298 A 299
299 A 300
300 A 301
301 A 302
302 A 303
303 A 304
304 A 305
305 A 306
306 A 307
307 A 308
308 A 309
309 A 310
310 A 311
311 A 312
312 A 313
313 A 314
314 A 315
315 A 316
316 A 317
317 A 318
318 A 319
319 A 320
320 A 321
321 A 322
322 A 323
323 A 324
324 A 325
325 A 326
326 A 327
327 A 328
328 A 329
329 A 330
330 A 331
331 A 332
332 A 333
333 A 334
334 A 335
335 A 336
336 A 337
337 A 338
338 A 339
339 A 340
340 A 341
341 A 342
342 A 343
343 A 344
344 A 345
345 A 346
346 A 347
347 A 348
348 A 349
349 A 350
350 A 351
351 A 352
352 A 353
353 A 354
354 A 355
355 A 356
356 A 357
357 A 358
358 A 359
359 A 360
360 A 361
361 A 362
362 A 363
363 A 364
364 A 365
365 A 366
366 A 367
367 A 368
368 A 369
369 A 370
370 A 371
371 A 372
372 A 373
373 A 374
374 A 375
375 A 376
376 A 377
377 A 378
378 A 379
379 A 380
380 A 381
381 A 382
382 A 383
383 A 384
384 A 385
385 A 386
386 A 387
387 A 388
388 A 389
389 A 390
390 A 391
391 A 392
392 A 393
393 A 394
394 A 395
395 A 396
396 A 397
397 A 398
398 A 399
399 A 400
400 A 401
401 A 402
402 A 403
403 A 404
404 A 405
405 A 406
406 A 407
407 A 408
408 A 409
409 A 410
410 A 411
411 A 412
412 A 413
413 A 414
414 A 415
415 A 416
416 A 417
417 A 418
418 A 419
419 A 420
420 A 421
421 A 422
422 A 423
423 A 424
424 A 425
425 A 426
426 A 427
427 A 428
428 A 429
429 A 430
430 A 431
431 A 432
432 A 433
433 A 434
434 A 435
435 A 436
436 A 437
437 A 438
438 A 439
439 A 440
440 A 441
441 A 442
442 A 443
443 A 444
444 A 445
445 A 446
446 A 447
447 A 448
448 A 449
449 A 450
450 A 1
